h2load http://node-1:8080/8mb -p http/1.1 -t 1 -c 2 -m 1 -n 128 -T 30m
starting benchmark...
spawning thread #0: 2 total client(s). 128 total requests
Application protocol: http/1.1
progress: 9% done
progress: 18% done
progress: 28% done
progress: 37% done
progress: 46% done
progress: 56% done
progress: 65% done
progress: 75% done
progress: 84% done
progress: 93% done

finished in 7.98s, 16.03 req/s, 128.27MB/s
requests: 128 total, 128 started, 128 done, 128 succeeded, 0 failed, 0 errored, 0 timeout
status codes: 128 2xx, 0 3xx, 0 4xx, 0 5xx
traffic: 1073768576 bytes total, 21248 bytes headers (space savings 0.00%), 1073741824 bytes data
                     min         max         mean         sd        +/- sd
time for request:   110.06ms    459.32ms    124.10ms     42.27ms    98.44%
time for connect:    35.31ms     35.36ms     35.34ms        28us    50.00%
time to 1st byte:    70.90ms     70.96ms     70.93ms        27us   100.00%
