h2load http://node-1:8080/16kb -p http/1.1 -t 1 -c 4 -m 1 -n 128 -T 30m
starting benchmark...
spawning thread #0: 4 total client(s). 128 total requests
Application protocol: http/1.1
progress: 9% done
progress: 18% done
progress: 28% done
progress: 37% done
progress: 46% done
progress: 56% done
progress: 65% done
progress: 75% done
progress: 84% done
progress: 93% done

finished in 1.21s, 105.82 req/s, 1.67MB/s
requests: 128 total, 128 started, 128 done, 128 succeeded, 0 failed, 0 errored, 0 timeout
status codes: 128 2xx, 0 3xx, 0 4xx, 0 5xx
traffic: 2123392 bytes total, 20736 bytes headers (space savings 0.00%), 2097152 bytes data
                     min         max         mean         sd        +/- sd
time for request:    35.43ms     70.71ms     36.64ms      6.11ms    96.88%
time for connect:    35.28ms     35.36ms     35.31ms        30us    75.00%
time to 1st byte:    70.88ms     70.94ms     70.91ms        22us    75.00%
