h2load http://node-1:8080/128kb -p http/1.1 -t 1 -c 128 -m 1 -n 128 -T 30m
starting benchmark...
spawning thread #0: 128 total client(s). 128 total requests
Application protocol: http/1.1
progress: 9% done
progress: 18% done
progress: 28% done
progress: 37% done
progress: 46% done
progress: 56% done
progress: 65% done
progress: 75% done
progress: 84% done
progress: 93% done

finished in 362.67ms, 352.94 req/s, 44.19MB/s
requests: 128 total, 128 started, 128 done, 128 succeeded, 0 failed, 0 errored, 0 timeout
status codes: 128 2xx, 0 3xx, 0 4xx, 0 5xx
traffic: 16803712 bytes total, 20992 bytes headers (space savings 0.00%), 16777216 bytes data
                     min         max         mean         sd        +/- sd
time for request:   142.42ms    323.93ms    180.15ms     44.70ms    86.72%
time for connect:    35.66ms     36.31ms     36.04ms       175us    60.16%
time to 1st byte:    73.17ms    139.51ms     87.23ms     25.19ms    80.47%
