h2load http://node-1:8080/1mb -p http/1.1 -t 1 -c 4 -m 1 -n 128 -T 30m
starting benchmark...
spawning thread #0: 4 total client(s). 128 total requests
Application protocol: http/1.1
progress: 9% done
progress: 18% done
progress: 28% done
progress: 37% done
progress: 46% done
progress: 56% done
progress: 65% done
progress: 75% done
progress: 84% done
progress: 93% done

finished in 3.41s, 37.58 req/s, 37.58MB/s
requests: 128 total, 128 started, 128 done, 128 succeeded, 0 failed, 0 errored, 0 timeout
status codes: 128 2xx, 0 3xx, 0 4xx, 0 5xx
traffic: 134244480 bytes total, 21248 bytes headers (space savings 0.00%), 134217728 bytes data
                     min         max         mean         sd        +/- sd
time for request:    71.21ms    283.37ms    103.95ms     35.27ms    96.88%
time for connect:    35.22ms     35.29ms     35.25ms        26us    75.00%
time to 1st byte:    70.81ms     70.88ms     70.83ms        25us    75.00%
