h2load http://node-0:8080/128mb -p h2c -t 1 -c 1 -m 8 -n 512 -T 30m
starting benchmark...
spawning thread #0: 1 total client(s). 512 total requests
Application protocol: h2c
progress: 9% done
progress: 19% done
progress: 29% done
progress: 39% done
progress: 49% done
progress: 59% done
progress: 69% done
progress: 79% done
progress: 89% done
progress: 99% done

finished in 60.52s, 8.46 req/s, 1.06GB/s
requests: 512 total, 512 started, 512 done, 512 succeeded, 0 failed, 0 errored, 0 timeout
status codes: 512 2xx, 0 3xx, 0 4xx, 0 5xx
traffic: 68757249484 bytes total, 19368 bytes headers (space savings 78.87%), 68719476736 bytes data
                     min         max         mean         sd        +/- sd
time for request:   244.91ms       7.50s    939.55ms    754.04ms    90.04%
time for connect:      289us       289us       289us         0us   100.00%
time to 1st byte:     2.42ms      2.42ms      2.42ms         0us   100.00%
