h2load http://node-0:8080/128kb -p h2c -t 1 -c 1 -m 512 -n 512 -T 30m
starting benchmark...
spawning thread #0: 1 total client(s). 512 total requests
Application protocol: h2c
progress: 9% done
progress: 19% done
progress: 29% done
progress: 39% done
progress: 49% done
progress: 59% done
progress: 69% done
progress: 79% done
progress: 89% done
progress: 99% done

finished in 242.22ms, 2113.75 req/s, 264.45MB/s
requests: 512 total, 512 started, 512 done, 512 succeeded, 0 failed, 0 errored, 0 timeout
status codes: 512 2xx, 0 3xx, 0 4xx, 0 5xx
traffic: 67166335 bytes total, 15963 bytes headers (space savings 82.08%), 67108864 bytes data
                     min         max         mean         sd        +/- sd
time for request:   233.79ms    239.80ms    236.82ms      1.75ms    54.88%
time for connect:      327us       327us       327us         0us   100.00%
time to 1st byte:   184.43ms    184.43ms    184.43ms         0us   100.00%
