h2load http://node-0:8080/8mb -p h2c -t 1 -c 1 -m 16 -n 512 -T 30m
starting benchmark...
spawning thread #0: 1 total client(s). 512 total requests
Application protocol: h2c
progress: 9% done
progress: 19% done
progress: 29% done
progress: 39% done
progress: 49% done
progress: 59% done
progress: 69% done
progress: 79% done
progress: 89% done
progress: 99% done

finished in 6.25s, 81.88 req/s, 655.38MB/s
requests: 512 total, 512 started, 512 done, 512 succeeded, 0 failed, 0 errored, 0 timeout
status codes: 512 2xx, 0 3xx, 0 4xx, 0 5xx
traffic: 4297348850 bytes total, 17614 bytes headers (space savings 80.45%), 4294967296 bytes data
                     min         max         mean         sd        +/- sd
time for request:    33.75ms    968.43ms    193.70ms    199.85ms    81.05%
time for connect:      303us       303us       303us         0us   100.00%
time to 1st byte:     5.41ms      5.41ms      5.41ms         0us   100.00%
