h2load http://node-1:8080/128mb -p h2c -t 1 -c 1 -m 4 -n 128 -T 30m
starting benchmark...
spawning thread #0: 1 total client(s). 128 total requests
Application protocol: h2c
progress: 9% done
progress: 18% done
progress: 28% done
progress: 37% done
progress: 46% done
progress: 56% done
progress: 65% done
progress: 75% done
progress: 84% done
progress: 93% done

finished in 201.85s, 0.63 req/s, 81.21MB/s
requests: 128 total, 128 started, 128 done, 128 succeeded, 0 failed, 0 errored, 0 timeout
status codes: 128 2xx, 0 3xx, 0 4xx, 0 5xx
traffic: 17189314081 bytes total, 6525 bytes headers (space savings 71.52%), 17179869184 bytes data
                     min         max         mean         sd        +/- sd
time for request:      4.19s       7.84s       6.25s    375.99ms    94.53%
time for connect:    35.41ms     35.41ms     35.41ms         0us   100.00%
time to 1st byte:    71.96ms     71.96ms     71.96ms         0us   100.00%
