h2load http://node-1:8080/1kb -p h2c -t 1 -c 1 -m 1 -n 128 -T 30m
starting benchmark...
spawning thread #0: 1 total client(s). 128 total requests
Application protocol: h2c
progress: 9% done
progress: 18% done
progress: 28% done
progress: 37% done
progress: 46% done
progress: 56% done
progress: 65% done
progress: 75% done
progress: 84% done
progress: 93% done

finished in 4.61s, 27.79 req/s, 29.11KB/s
requests: 128 total, 128 started, 128 done, 128 succeeded, 0 failed, 0 errored, 0 timeout
status codes: 128 2xx, 0 3xx, 0 4xx, 0 5xx
traffic: 137307 bytes total, 3895 bytes headers (space savings 82.10%), 131072 bytes data
                     min         max         mean         sd        +/- sd
time for request:    35.47ms     36.53ms     35.67ms       194us    93.75%
time for connect:    35.38ms     35.38ms     35.38ms         0us   100.00%
time to 1st byte:    71.77ms     71.77ms     71.77ms         0us   100.00%
