h2load http://node-0:8080/16kb -p h2c -t 1 -c 2 -m 256 -n 512 -T 30m
starting benchmark...
spawning thread #0: 2 total client(s). 512 total requests
Application protocol: h2c
progress: 9% done
progress: 19% done
progress: 29% done
progress: 39% done
progress: 49% done
progress: 59% done
progress: 69% done
progress: 79% done
progress: 89% done
progress: 99% done

finished in 42.19ms, 12136.44 req/s, 190.20MB/s
requests: 512 total, 512 started, 512 done, 512 succeeded, 0 failed, 0 errored, 0 timeout
status codes: 512 2xx, 0 3xx, 0 4xx, 0 5xx
traffic: 8413904 bytes total, 16008 bytes headers (space savings 81.82%), 8388608 bytes data
                     min         max         mean         sd        +/- sd
time for request:    29.52ms     39.64ms     35.15ms      2.98ms    54.49%
time for connect:      268us       348us       308us        40us   100.00%
time to 1st byte:    30.07ms     35.02ms     32.54ms      2.48ms   100.00%
