h2load http://node-0:8080/128mb -p h2c -t 1 -c 4 -m 128 -n 512 -T 30m
starting benchmark...
spawning thread #0: 4 total client(s). 512 total requests
Application protocol: h2c
progress: 9% done
progress: 19% done
progress: 29% done
progress: 39% done
progress: 49% done
progress: 59% done
progress: 69% done
progress: 79% done
progress: 89% done
progress: 99% done

finished in 57.64s, 8.88 req/s, 1.11GB/s
requests: 512 total, 512 started, 512 done, 512 succeeded, 0 failed, 0 errored, 0 timeout
status codes: 512 2xx, 0 3xx, 0 4xx, 0 5xx
traffic: 68757249254 bytes total, 18445 bytes headers (space savings 79.87%), 68719476736 bytes data
                     min         max         mean         sd        +/- sd
time for request:     12.25s      57.64s      38.09s      14.49s    64.45%
time for connect:      335us       434us       372us        40us    75.00%
time to 1st byte:    15.22ms     26.27ms     20.53ms      4.51ms    50.00%
