h2load http://node-0:8080/16kb -p h2c -t 1 -c 64 -m 8 -n 512 -T 30m
starting benchmark...
spawning thread #0: 64 total client(s). 512 total requests
Application protocol: h2c
progress: 9% done
progress: 19% done
progress: 29% done
progress: 39% done
progress: 49% done
progress: 59% done
progress: 69% done
progress: 79% done
progress: 89% done
progress: 99% done

finished in 206.61ms, 2478.10 req/s, 38.87MB/s
requests: 512 total, 512 started, 512 done, 512 succeeded, 0 failed, 0 errored, 0 timeout
status codes: 512 2xx, 0 3xx, 0 4xx, 0 5xx
traffic: 8420352 bytes total, 20224 bytes headers (space savings 77.03%), 8388608 bytes data
                     min         max         mean         sd        +/- sd
time for request:     1.91ms    201.98ms     12.06ms     24.23ms    98.44%
time for connect:      764us      1.53ms      1.09ms       287us    56.25%
time to 1st byte:     4.27ms    203.73ms     13.65ms     24.26ms    98.44%
