h2load http://node-0:8080/1kb -p h2c -t 1 -c 128 -m 4 -n 512 -T 30m
starting benchmark...
spawning thread #0: 128 total client(s). 512 total requests
Application protocol: h2c
progress: 9% done
progress: 19% done
progress: 29% done
progress: 39% done
progress: 49% done
progress: 59% done
progress: 69% done
progress: 79% done
progress: 89% done
progress: 99% done

finished in 414.01ms, 1236.70 req/s, 1.29MB/s
requests: 512 total, 512 started, 512 done, 512 succeeded, 0 failed, 0 errored, 0 timeout
status codes: 512 2xx, 0 3xx, 0 4xx, 0 5xx
traffic: 561792 bytes total, 23680 bytes headers (space savings 72.79%), 524288 bytes data
                     min         max         mean         sd        +/- sd
time for request:     1.53ms    406.02ms     40.37ms     87.58ms    84.38%
time for connect:     1.58ms      3.52ms      2.49ms       711us    50.00%
time to 1st byte:     5.09ms    410.70ms     44.44ms     87.60ms    84.38%
