h2load http://node-0:8080/64mb -p h2c -t 1 -c 2 -m 256 -n 512 -T 30m
starting benchmark...
spawning thread #0: 2 total client(s). 512 total requests
Application protocol: h2c
progress: 9% done
progress: 19% done
progress: 29% done
progress: 39% done
progress: 49% done
progress: 59% done
progress: 69% done
progress: 79% done
progress: 89% done
progress: 99% done

finished in 45.45s, 11.26 req/s, 721.33MB/s
requests: 512 total, 512 started, 512 done, 512 succeeded, 0 failed, 0 errored, 0 timeout
status codes: 512 2xx, 0 3xx, 0 4xx, 0 5xx
traffic: 34378635386 bytes total, 17682 bytes headers (space savings 80.60%), 34359738368 bytes data
                     min         max         mean         sd        +/- sd
time for request:     11.73s      45.45s      27.99s      11.98s    51.56%
time for connect:      320us       397us       358us        38us    50.00%
time to 1st byte:    25.65ms     34.43ms     30.04ms      4.39ms    50.00%
