h2load http://node-1:8080/1kb -p h2c -t 1 -c 1 -m 8 -n 128 -T 30m
starting benchmark...
spawning thread #0: 1 total client(s). 128 total requests
Application protocol: h2c
progress: 9% done
progress: 18% done
progress: 28% done
progress: 37% done
progress: 46% done
progress: 56% done
progress: 65% done
progress: 75% done
progress: 84% done
progress: 93% done

finished in 685.63ms, 186.69 req/s, 195.44KB/s
requests: 128 total, 128 started, 128 done, 128 succeeded, 0 failed, 0 errored, 0 timeout
status codes: 128 2xx, 0 3xx, 0 4xx, 0 5xx
traffic: 137215 bytes total, 3803 bytes headers (space savings 82.52%), 131072 bytes data
                     min         max         mean         sd        +/- sd
time for request:    35.38ms    106.01ms     39.40ms     13.39ms    93.75%
time for connect:    35.33ms     35.33ms     35.33ms         0us   100.00%
time to 1st byte:    72.36ms     72.36ms     72.36ms         0us   100.00%
