h2load http://node-1:8080/16kb -p http/1.1 -t 1 -c 16 -m 1 -n 128 -T 30m
starting benchmark...
spawning thread #0: 16 total client(s). 128 total requests
Application protocol: http/1.1
progress: 9% done
progress: 18% done
progress: 28% done
progress: 37% done
progress: 46% done
progress: 56% done
progress: 65% done
progress: 75% done
progress: 84% done
progress: 93% done

finished in 7.06ms, 18138.02 req/s, 286.95MB/s
requests: 128 total, 128 started, 128 done, 128 succeeded, 0 failed, 0 errored, 0 timeout
status codes: 128 2xx, 0 3xx, 0 4xx, 0 5xx
traffic: 2123392 bytes total, 20736 bytes headers (space savings 0.00%), 2097152 bytes data
                     min         max         mean         sd        +/- sd
time for request:      294us      1.57ms       677us       304us    82.81%
time for connect:      164us       495us       330us        88us    68.75%
time to 1st byte:     1.38ms      1.78ms      1.66ms       133us    81.25%
