h2load http://node-1:8080/8mb -p http/1.1 -t 1 -c 128 -m 1 -n 128 -T 30m
starting benchmark...
spawning thread #0: 128 total client(s). 128 total requests
Application protocol: http/1.1
progress: 9% done
progress: 18% done
progress: 28% done
progress: 37% done
progress: 46% done
progress: 56% done
progress: 65% done
progress: 75% done
progress: 84% done
progress: 93% done

finished in 931.10ms, 137.47 req/s, 1.07GB/s
requests: 128 total, 128 started, 128 done, 128 succeeded, 0 failed, 0 errored, 0 timeout
status codes: 128 2xx, 0 3xx, 0 4xx, 0 5xx
traffic: 1073768576 bytes total, 21248 bytes headers (space savings 0.00%), 1073741824 bytes data
                     min         max         mean         sd        +/- sd
time for request:   505.33ms    925.49ms    826.25ms    119.58ms    80.47%
time for connect:     1.24ms      3.27ms      2.27ms       511us    62.50%
time to 1st byte:     4.39ms    519.54ms     21.40ms     73.92ms    97.66%
