h2load http://node-1:8080/1mb -p http/1.1 -t 1 -c 128 -m 1 -n 128 -T 30m
starting benchmark...
spawning thread #0: 128 total client(s). 128 total requests
Application protocol: http/1.1
progress: 9% done
progress: 18% done
progress: 28% done
progress: 37% done
progress: 46% done
progress: 56% done
progress: 65% done
progress: 75% done
progress: 84% done
progress: 93% done

finished in 241.00ms, 531.11 req/s, 531.22MB/s
requests: 128 total, 128 started, 128 done, 128 succeeded, 0 failed, 0 errored, 0 timeout
status codes: 128 2xx, 0 3xx, 0 4xx, 0 5xx
traffic: 134244480 bytes total, 21248 bytes headers (space savings 0.00%), 134217728 bytes data
                     min         max         mean         sd        +/- sd
time for request:    43.88ms    236.50ms    108.44ms     29.07ms    87.50%
time for connect:     1.18ms      3.36ms      2.29ms       569us    61.72%
time to 1st byte:     5.86ms    214.07ms     26.96ms     29.47ms    80.47%
