h2load http://node-0:8080/1mb -p h2c -t 1 -c 1 -m 64 -n 512 -T 30m
starting benchmark...
spawning thread #0: 1 total client(s). 512 total requests
Application protocol: h2c
progress: 9% done
progress: 19% done
progress: 29% done
progress: 39% done
progress: 49% done
progress: 59% done
progress: 69% done
progress: 79% done
progress: 89% done
progress: 99% done

finished in 9.64s, 53.12 req/s, 53.15MB/s
requests: 512 total, 512 started, 512 done, 512 succeeded, 0 failed, 0 errored, 0 timeout
status codes: 512 2xx, 0 3xx, 0 4xx, 0 5xx
traffic: 537187640 bytes total, 17172 bytes headers (space savings 80.94%), 536870912 bytes data
                     min         max         mean         sd        +/- sd
time for request:    56.17ms       1.00s       1.16s    285.32ms    73.44%
time for connect:    50.38ms     50.38ms     50.38ms         0us   100.00%
time to 1st byte:   115.62ms    115.62ms    115.62ms         0us   100.00%
