h2load http://node-0:8080/16kb -p h2c -t 1 -c 1 -m 2 -n 512 -T 30m
starting benchmark...
spawning thread #0: 1 total client(s). 512 total requests
Application protocol: h2c
progress: 9% done
progress: 19% done
progress: 29% done
progress: 39% done
progress: 49% done
progress: 59% done
progress: 69% done
progress: 79% done
progress: 89% done
progress: 99% done

finished in 13.79s, 37.13 req/s, 595.91KB/s
requests: 512 total, 512 started, 512 done, 512 succeeded, 0 failed, 0 errored, 0 timeout
status codes: 512 2xx, 0 3xx, 0 4xx, 0 5xx
traffic: 8414122 bytes total, 16262 bytes headers (space savings 81.53%), 8388608 bytes data
                     min         max         mean         sd        +/- sd
time for request:    50.35ms    301.43ms     53.55ms     26.81ms    98.63%
time for connect:    50.37ms     50.37ms     50.37ms         0us   100.00%
time to 1st byte:   101.05ms    101.05ms    101.05ms         0us   100.00%
