h2load http://node-0:8080/128kb -p h2c -t 1 -c 1 -m 128 -n 512 -T 30m
starting benchmark...
spawning thread #0: 1 total client(s). 512 total requests
Application protocol: h2c
progress: 9% done
progress: 19% done
progress: 29% done
progress: 39% done
progress: 49% done
progress: 59% done
progress: 69% done
progress: 79% done
progress: 89% done
progress: 99% done

finished in 1.86s, 275.45 req/s, 34.46MB/s
requests: 512 total, 512 started, 512 done, 512 succeeded, 0 failed, 0 errored, 0 timeout
status codes: 512 2xx, 0 3xx, 0 4xx, 0 5xx
traffic: 67166358 bytes total, 15986 bytes headers (space savings 82.06%), 67108864 bytes data
                     min         max         mean         sd        +/- sd
time for request:    55.39ms    842.76ms    430.67ms    225.77ms    72.07%
time for connect:    50.34ms     50.34ms     50.34ms         0us   100.00%
time to 1st byte:   140.70ms    140.70ms    140.70ms         0us   100.00%
