h2load http://node-0:8080/64mb -p h2c -t 1 -c 1 -m 32 -n 512 -T 30m
starting benchmark...
spawning thread #0: 1 total client(s). 512 total requests
Application protocol: h2c
progress: 9% done
progress: 19% done
progress: 29% done
progress: 39% done
progress: 49% done
progress: 59% done
progress: 69% done
progress: 79% done
progress: 89% done
progress: 99% done

finished in 573.53s, 0.89 req/s, 57.17MB/s
requests: 512 total, 512 started, 512 done, 512 succeeded, 0 failed, 0 errored, 0 timeout
status codes: 512 2xx, 0 3xx, 0 4xx, 0 5xx
traffic: 34378635983 bytes total, 18189 bytes headers (space savings 80.04%), 34359738368 bytes data
                     min         max         mean         sd        +/- sd
time for request:     35.01s      36.31s      35.81s    231.19ms    87.70%
time for connect:    50.35ms     50.35ms     50.35ms         0us   100.00%
time to 1st byte:   112.63ms    112.63ms    112.63ms         0us   100.00%
