h2load http://node-0:8080/128mb -p h2c -t 1 -c 1 -m 1 -n 512 -T 30m
starting benchmark...
spawning thread #0: 1 total client(s). 512 total requests
Application protocol: h2c
progress: 9% done
progress: 19% done
progress: 29% done
progress: 39% done
progress: 49% done
progress: 59% done
progress: 69% done
progress: 79% done
progress: 89% done
progress: 99% done

finished in 1152.73s, 0.44 req/s, 56.88MB/s
requests: 512 total, 512 started, 512 done, 512 succeeded, 0 failed, 0 errored, 0 timeout
status codes: 512 2xx, 0 3xx, 0 4xx, 0 5xx
traffic: 68757260217 bytes total, 30101 bytes headers (space savings 67.16%), 68719476736 bytes data
                     min         max         mean         sd        +/- sd
time for request:      2.24s       2.69s       2.25s     30.39ms    99.22%
time for connect:    50.38ms     50.38ms     50.38ms         0us   100.00%
time to 1st byte:   101.20ms    101.20ms    101.20ms         0us   100.00%
