h2load http://node-0:8080/128mb -p h2c -t 1 -c 512 -m 1 -n 512
starting benchmark...
spawning thread #0: 512 total client(s). 512 total requests
Application protocol: h2c
progress: 9% done
progress: 19% done
progress: 29% done
progress: 39% done
progress: 49% done
progress: 59% done
progress: 69% done
progress: 89% done
progress: 99% done

finished in 125.48s, 3.72 req/s, 477.83MB/s
requests: 512 total, 512 started, 512 done, 467 succeeded, 45 failed, 45 errored, 0 timeout
status codes: 502 2xx, 0 3xx, 0 4xx, 0 5xx
traffic: 62872930095 bytes total, 51706 bytes headers (space savings 42.46%), 62838337496 bytes data
                     min         max         mean         sd        +/- sd
time for request:      8.75s     125.42s      38.51s      22.40s    62.53%
time for connect:    50.42ms     58.55ms     55.24ms      2.27ms    57.17%
time to 1st byte:   101.92ms      17.98s       3.19s       5.08s    79.68%
