h2load http://node-0:8080/1kb -p h2c -t 1 -c 64 -m 8 -n 512
starting benchmark...
spawning thread #0: 64 total client(s). 512 total requests
Application protocol: h2c
progress: 9% done
progress: 19% done
progress: 29% done
progress: 39% done
progress: 49% done
progress: 59% done
progress: 69% done
progress: 79% done
progress: 89% done
progress: 99% done

finished in 356.59ms, 1435.84 req/s, 1.48MB/s
requests: 512 total, 512 started, 512 done, 512 succeeded, 0 failed, 0 errored, 0 timeout
status codes: 512 2xx, 0 3xx, 0 4xx, 0 5xx
traffic: 555072 bytes total, 19264 bytes headers (space savings 77.87%), 524288 bytes data
                     min         max         mean         sd        +/- sd
time for request:    51.37ms    302.04ms     80.28ms     71.13ms    90.63%
time for connect:    50.26ms     51.59ms     50.71ms       427us    64.06%
time to 1st byte:   101.95ms    354.09ms    132.25ms     71.08ms    90.63%
