h2load http://node-0:8080/64mb -p h2c -t 1 -c 64 -m 8 -n 512
starting benchmark...
spawning thread #0: 64 total client(s). 512 total requests
Application protocol: h2c
progress: 9% done
progress: 19% done
progress: 29% done
progress: 39% done
progress: 49% done
progress: 59% done
progress: 69% done
progress: 79% done
progress: 89% done
progress: 99% done

finished in 28.85s, 17.74 req/s, 1.11GB/s
requests: 512 total, 512 started, 512 done, 512 succeeded, 0 failed, 0 errored, 0 timeout
status codes: 512 2xx, 0 3xx, 0 4xx, 0 5xx
traffic: 34378641822 bytes total, 22174 bytes headers (space savings 75.67%), 34359738368 bytes data
                     min         max         mean         sd        +/- sd
time for request:      3.60s      28.80s      17.60s       7.49s    52.93%
time for connect:    50.29ms     51.75ms     50.72ms       426us    65.63%
time to 1st byte:   103.01ms    378.23ms    180.74ms    114.02ms    73.44%
