h2load http://node-0:8080/8mb -p h2c -t 1 -c 128 -m 4 -n 512
starting benchmark...
spawning thread #0: 128 total client(s). 512 total requests
Application protocol: h2c
progress: 9% done
progress: 19% done
progress: 29% done
progress: 39% done
progress: 49% done
progress: 59% done
progress: 69% done
progress: 79% done
progress: 89% done
progress: 99% done

finished in 7.37s, 69.51 req/s, 556.42MB/s
requests: 512 total, 512 started, 512 done, 512 succeeded, 0 failed, 0 errored, 0 timeout
status codes: 512 2xx, 0 3xx, 0 4xx, 0 5xx
traffic: 4297361920 bytes total, 26112 bytes headers (space savings 71.02%), 4294967296 bytes data
                     min         max         mean         sd        +/- sd
time for request:   870.31ms       7.31s       2.78s    974.71ms    70.90%
time for connect:    50.40ms     53.03ms     51.61ms       850us    55.47%
time to 1st byte:   102.06ms    614.74ms    195.00ms    142.02ms    74.22%
