h2load http://node-0:8080/1kb -p h2c -t 1 -c 512 -m 1 -n 512
starting benchmark...
spawning thread #0: 512 total client(s). 512 total requests
Application protocol: h2c
progress: 9% done
progress: 19% done
progress: 29% done
progress: 39% done
progress: 49% done
progress: 59% done
progress: 69% done
progress: 79% done
progress: 89% done
progress: 99% done

finished in 32.42s, 15.76 req/s, 18.10KB/s
requests: 512 total, 512 started, 512 done, 511 succeeded, 1 failed, 1 errored, 0 timeout
status codes: 511 2xx, 0 3xx, 0 4xx, 0 5xx
traffic: 600936 bytes total, 50078 bytes headers (space savings 42.35%), 523264 bytes data
                     min         max         mean         sd        +/- sd
time for request:    50.47ms      32.36s       2.09s       5.42s    90.41%
time for connect:    50.43ms     58.87ms     55.57ms      2.46ms    61.64%
time to 1st byte:   101.45ms      32.41s       2.15s       5.42s    90.41%
