h2load http://node-0:8080/8mb -p h2c -t 1 -c 2 -m 256 -n 512
starting benchmark...
spawning thread #0: 2 total client(s). 512 total requests
Application protocol: h2c
progress: 9% done
progress: 19% done
progress: 29% done
progress: 39% done
progress: 49% done
progress: 59% done
progress: 69% done
progress: 79% done
progress: 89% done
progress: 99% done

finished in 36.40s, 14.07 req/s, 112.60MB/s
requests: 512 total, 512 started, 512 done, 512 succeeded, 0 failed, 0 errored, 0 timeout
status codes: 512 2xx, 0 3xx, 0 4xx, 0 5xx
traffic: 4297349000 bytes total, 17728 bytes headers (space savings 80.33%), 4294967296 bytes data
                     min         max         mean         sd        +/- sd
time for request:      9.70s      36.34s      22.89s       9.84s    51.56%
time for connect:    50.36ms     50.42ms     50.39ms        32us    50.00%
time to 1st byte:   134.85ms    134.95ms    134.90ms        49us   100.00%
