h2load http://node-0:8080/8mb -p h2c -t 1 -c 32 -m 16 -n 512
starting benchmark...
spawning thread #0: 32 total client(s). 512 total requests
Application protocol: h2c
progress: 9% done
progress: 19% done
progress: 29% done
progress: 39% done
progress: 49% done
progress: 59% done
progress: 69% done
progress: 79% done
progress: 89% done
progress: 99% done

finished in 4.20s, 121.94 req/s, 976.08MB/s
requests: 512 total, 512 started, 512 done, 512 succeeded, 0 failed, 0 errored, 0 timeout
status codes: 512 2xx, 0 3xx, 0 4xx, 0 5xx
traffic: 4297352488 bytes total, 20136 bytes headers (space savings 77.65%), 4294967296 bytes data
                     min         max         mean         sd        +/- sd
time for request:   831.23ms       4.15s       3.31s    857.53ms    83.01%
time for connect:    50.28ms     50.50ms     50.42ms        79us    65.63%
time to 1st byte:   103.30ms    119.19ms    112.63ms      3.46ms    71.88%
