h2load http://node-0:8080/128mb -p h2c -t 1 -c 4 -m 128 -n 512
starting benchmark...
spawning thread #0: 4 total client(s). 512 total requests
Application protocol: h2c
progress: 9% done
progress: 19% done
progress: 29% done
progress: 39% done
progress: 49% done
progress: 59% done
progress: 69% done
progress: 79% done
progress: 89% done
progress: 99% done

finished in 286.70s, 1.79 req/s, 228.72MB/s
requests: 512 total, 512 started, 512 done, 512 succeeded, 0 failed, 0 errored, 0 timeout
status codes: 512 2xx, 0 3xx, 0 4xx, 0 5xx
traffic: 68757249120 bytes total, 18284 bytes headers (space savings 80.05%), 68719476736 bytes data
                     min         max         mean         sd        +/- sd
time for request:    147.64s     286.64s     214.87s      69.28s    51.56%
time for connect:    50.33ms     50.44ms     50.37ms        44us    75.00%
time to 1st byte:   119.95ms    134.01ms    125.33ms      5.83ms    75.00%
