h2load http://node-0:8080/128mb -p h2c -t 1 -c 16 -m 32 -n 512
starting benchmark...
spawning thread #0: 16 total client(s). 512 total requests
Application protocol: h2c
progress: 9% done
progress: 19% done
progress: 29% done
progress: 39% done
progress: 49% done
progress: 59% done
progress: 69% done
progress: 79% done
progress: 89% done
progress: 99% done

finished in 73.56s, 6.96 req/s, 891.38MB/s
requests: 512 total, 512 started, 512 done, 512 succeeded, 0 failed, 0 errored, 0 timeout
status codes: 512 2xx, 0 3xx, 0 4xx, 0 5xx
traffic: 68757250604 bytes total, 19399 bytes headers (space savings 78.83%), 68719476736 bytes data
                     min         max         mean         sd        +/- sd
time for request:      8.19s      73.51s      67.25s      10.92s    86.52%
time for connect:    50.39ms     50.50ms     50.44ms        33us    56.25%
time to 1st byte:   109.43ms    127.64ms    116.92ms      5.67ms    68.75%
