h2load http://node-0:8080/128mb -p h2c -t 1 -c 128 -m 4 -n 512
starting benchmark...
spawning thread #0: 128 total client(s). 512 total requests
Application protocol: h2c
progress: 9% done
progress: 19% done
progress: 29% done
progress: 39% done
progress: 49% done
progress: 59% done
progress: 69% done
progress: 79% done
progress: 89% done

finished in 121.05s, 4.20 req/s, 537.48MB/s
requests: 512 total, 512 started, 512 done, 508 succeeded, 4 failed, 4 errored, 0 timeout
status codes: 512 2xx, 0 3xx, 0 4xx, 0 5xx
traffic: 68220639813 bytes total, 26624 bytes headers (space savings 70.95%), 68183149843 bytes data
                     min         max         mean         sd        +/- sd
time for request:     12.80s      62.90s      40.11s      13.37s    50.79%
time for connect:    50.49ms     53.17ms     51.74ms       934us    53.13%
time to 1st byte:   102.23ms       1.12s    252.04ms    247.72ms    84.38%
