h2load http://node-0:8080/64mb -p h2c -t 1 -c 256 -m 2 -n 512
starting benchmark...
spawning thread #0: 256 total client(s). 512 total requests
Application protocol: h2c
progress: 9% done
progress: 19% done
progress: 29% done
progress: 39% done
progress: 49% done
progress: 59% done
progress: 69% done
progress: 79% done
progress: 89% done
progress: 99% done

finished in 47.91s, 10.69 req/s, 684.36MB/s
requests: 512 total, 512 started, 512 done, 512 succeeded, 0 failed, 0 errored, 0 timeout
status codes: 512 2xx, 0 3xx, 0 4xx, 0 5xx
traffic: 34378661376 bytes total, 34816 bytes headers (space savings 61.80%), 34359738368 bytes data
                     min         max         mean         sd        +/- sd
time for request:      8.05s      47.85s      20.06s       7.38s    72.27%
time for connect:    50.37ms     55.47ms     53.15ms      1.64ms    55.47%
time to 1st byte:   102.11ms       4.15s    581.80ms    850.11ms    88.67%
