h2load http://node-0:8080/64mb -p h2c -t 1 -c 16 -m 32 -n 512
starting benchmark...
spawning thread #0: 16 total client(s). 512 total requests
Application protocol: h2c
progress: 9% done
progress: 19% done
progress: 29% done
progress: 39% done
progress: 49% done
progress: 59% done
progress: 69% done
progress: 79% done
progress: 89% done
progress: 99% done

finished in 37.10s, 13.80 req/s, 883.64MB/s
requests: 512 total, 512 started, 512 done, 512 succeeded, 0 failed, 0 errored, 0 timeout
status codes: 512 2xx, 0 3xx, 0 4xx, 0 5xx
traffic: 34378638460 bytes total, 20405 bytes headers (space savings 77.61%), 34359738368 bytes data
                     min         max         mean         sd        +/- sd
time for request:      2.84s      37.05s      28.78s      10.19s    82.42%
time for connect:    50.35ms     50.47ms     50.42ms        37us    68.75%
time to 1st byte:   110.36ms    118.35ms    114.62ms      2.51ms    50.00%
