h2load http://node-1:8080/128kb -p h2c -t 1 -c 1 -m 16 -n 128 -T 30m
starting benchmark...
spawning thread #0: 1 total client(s). 128 total requests
Application protocol: h2c
progress: 9% done
progress: 18% done
progress: 28% done
progress: 37% done
progress: 46% done
progress: 56% done
progress: 65% done
progress: 75% done
progress: 84% done
progress: 93% done

finished in 928.24ms, 137.90 req/s, 17.25MB/s
requests: 128 total, 128 started, 128 done, 128 succeeded, 0 failed, 0 errored, 0 timeout
status codes: 128 2xx, 0 3xx, 0 4xx, 0 5xx
traffic: 16791679 bytes total, 4059 bytes headers (space savings 81.78%), 16777216 bytes data
                     min         max         mean         sd        +/- sd
time for request:    37.39ms    353.27ms    108.99ms     94.27ms    87.50%
time for connect:    35.42ms     35.42ms     35.42ms         0us   100.00%
time to 1st byte:    75.03ms     75.03ms     75.03ms         0us   100.00%
