h2load http://node-0:8080/128mb -p http/1.1 -t 1 -c 256 -m 1 -n 512
starting benchmark...
spawning thread #0: 256 total client(s). 512 total requests
Application protocol: http/1.1
progress: 9% done
progress: 19% done
progress: 29% done
progress: 39% done
progress: 49% done
progress: 59% done
progress: 69% done
progress: 79% done
progress: 89% done
progress: 99% done

finished in 86.75s, 5.86 req/s, 749.56MB/s
requests: 512 total, 511 started, 512 done, 508 succeeded, 4 failed, 4 errored, 0 timeout
status codes: 509 2xx, 0 3xx, 0 4xx, 0 5xx
traffic: 68183003220 bytes total, 86051 bytes headers (space savings 0.00%), 68182909844 bytes data
                     min         max         mean         sd        +/- sd
time for request:   316.15ms      54.43s      23.35s       9.86s    77.36%
time for connect:     1.61ms       1.01s     18.30ms    125.12ms    98.44%
time to 1st byte:     5.36ms      53.40s       3.58s       9.48s    89.84%
