h2load http://node-0:8080/128kb -p http/1.1 -t 1 -c 512 -m 1 -n 512
starting benchmark...
spawning thread #0: 512 total client(s). 512 total requests
Application protocol: http/1.1
progress: 9% done
progress: 19% done
progress: 29% done
progress: 39% done
progress: 49% done
progress: 59% done
progress: 69% done
progress: 79% done
progress: 89% done
progress: 99% done

finished in 26.20s, 19.39 req/s, 2.43MB/s
requests: 512 total, 512 started, 512 done, 508 succeeded, 4 failed, 4 errored, 0 timeout
status codes: 508 2xx, 0 3xx, 0 4xx, 0 5xx
traffic: 66689732 bytes total, 83312 bytes headers (space savings 0.00%), 66584576 bytes data
                     min         max         mean         sd        +/- sd
time for request:      644us      26.19s       1.05s       3.40s    93.90%
time for connect:     2.75ms    998.74ms    137.66ms    337.78ms    86.61%
time to 1st byte:    10.63ms      26.19s       1.18s       3.38s    93.90%
