h2load http://node-0:8080/64mb -p http/1.1 -t 1 -c 256 -m 1 -n 512
starting benchmark...
spawning thread #0: 256 total client(s). 512 total requests
Application protocol: http/1.1
progress: 9% done
progress: 19% done
progress: 29% done
progress: 39% done
progress: 49% done
progress: 59% done
progress: 69% done
progress: 79% done
progress: 89% done
progress: 99% done

finished in 51.23s, 9.76 req/s, 624.66MB/s
requests: 512 total, 512 started, 512 done, 500 succeeded, 12 failed, 12 errored, 0 timeout
status codes: 500 2xx, 0 3xx, 0 4xx, 0 5xx
traffic: 33554537500 bytes total, 84000 bytes headers (space savings 0.00%), 33554432000 bytes data
                     min         max         mean         sd        +/- sd
time for request:    79.21ms      51.14s      11.31s       5.49s    76.20%
time for connect:     1.60ms       1.01s     22.23ms    139.79ms    98.05%
time to 1st byte:     5.45ms      26.68s       1.63s       3.95s    90.23%
