h2load http://node-0:8080/64mb -p http/1.1 -t 1 -c 512 -m 1 -n 512
starting benchmark...
spawning thread #0: 512 total client(s). 512 total requests
Application protocol: http/1.1
progress: 9% done
progress: 19% done
progress: 29% done
progress: 39% done
progress: 49% done
progress: 59% done
progress: 69% done
progress: 79% done
progress: 89% done
progress: 99% done

finished in 31.66s, 16.14 req/s, 1.01GB/s
requests: 512 total, 512 started, 512 done, 511 succeeded, 1 failed, 1 errored, 0 timeout
status codes: 511 2xx, 0 3xx, 0 4xx, 0 5xx
traffic: 34292737325 bytes total, 85848 bytes headers (space savings 0.00%), 34292629504 bytes data
                     min         max         mean         sd        +/- sd
time for request:   180.19ms      27.65s      19.04s       5.40s    66.14%
time for connect:     3.41ms      31.05s       1.38s       4.73s    93.93%
time to 1st byte:     8.07ms      31.26s       3.64s       6.29s    80.82%
