h2load http://node-0:8080/8mb -p http/1.1 -t 1 -c 256 -m 1 -n 512
starting benchmark...
spawning thread #0: 256 total client(s). 512 total requests
Application protocol: http/1.1
progress: 9% done
progress: 19% done
progress: 29% done
progress: 39% done
progress: 49% done
progress: 59% done
progress: 69% done
progress: 79% done
progress: 89% done
progress: 99% done

finished in 104.67s, 4.84 req/s, 38.75MB/s
requests: 512 total, 512 started, 512 done, 507 succeeded, 5 failed, 5 errored, 0 timeout
status codes: 507 2xx, 0 3xx, 0 4xx, 0 5xx
traffic: 4253130219 bytes total, 84162 bytes headers (space savings 0.00%), 4253024256 bytes data
                     min         max         mean         sd        +/- sd
time for request:    10.84ms     104.65s       4.86s      12.94s    92.11%
time for connect:     1.63ms      3.63ms      2.52ms       524us    61.33%
time to 1st byte:     5.17ms     104.64s       8.57s      17.36s    84.38%
