h2load http://node-0:8080/128mb -p http/1.1 -t 1 -c 32 -m 1 -n 512
starting benchmark...
spawning thread #0: 32 total client(s). 512 total requests
Application protocol: http/1.1
progress: 9% done
progress: 19% done
progress: 29% done
progress: 39% done
progress: 49% done
progress: 59% done
progress: 69% done
progress: 79% done
progress: 89% done
progress: 99% done

finished in 55.56s, 9.22 req/s, 1.15GB/s
requests: 512 total, 512 started, 512 done, 512 succeeded, 0 failed, 0 errored, 0 timeout
status codes: 512 2xx, 0 3xx, 0 4xx, 0 5xx
traffic: 68719585280 bytes total, 86528 bytes headers (space savings 0.00%), 68719476736 bytes data
                     min         max         mean         sd        +/- sd
time for request:   885.82ms       5.07s       3.09s    980.08ms    66.21%
time for connect:      224us       580us       360us        97us    59.38%
time to 1st byte:     1.35ms    410.32ms    180.24ms    159.38ms    37.50%
