h2load http://node-0:8080/8mb -p http/1.1 -t 1 -c 32 -m 1 -n 512
starting benchmark...
spawning thread #0: 32 total client(s). 512 total requests
Application protocol: http/1.1
progress: 9% done
progress: 19% done
progress: 29% done
progress: 39% done
progress: 49% done
progress: 59% done
progress: 69% done
progress: 79% done
progress: 89% done
progress: 99% done

finished in 3.50s, 146.45 req/s, 1.14GB/s
requests: 512 total, 512 started, 512 done, 512 succeeded, 0 failed, 0 errored, 0 timeout
status codes: 512 2xx, 0 3xx, 0 4xx, 0 5xx
traffic: 4295074304 bytes total, 84992 bytes headers (space savings 0.00%), 4294967296 bytes data
                     min         max         mean         sd        +/- sd
time for request:    10.41ms    700.44ms    194.96ms     71.50ms    85.74%
time for connect:      197us       539us       341us        92us    59.38%
time to 1st byte:     1.09ms    207.29ms     72.15ms     97.59ms    65.63%
