h2load http://node-1:8080/1mb -p h2c -t 1 -c 1 -m 16 -n 128 -T 30m
starting benchmark...
spawning thread #0: 1 total client(s). 128 total requests
Application protocol: h2c
progress: 9% done
progress: 18% done
progress: 28% done
progress: 37% done
progress: 46% done
progress: 56% done
progress: 65% done
progress: 75% done
progress: 84% done
progress: 93% done

finished in 454.60ms, 281.56 req/s, 281.73MB/s
requests: 128 total, 128 started, 128 done, 128 succeeded, 0 failed, 0 errored, 0 timeout
status codes: 128 2xx, 0 3xx, 0 4xx, 0 5xx
traffic: 134296831 bytes total, 4187 bytes headers (space savings 81.41%), 134217728 bytes data
                     min         max         mean         sd        +/- sd
time for request:    29.13ms     95.51ms     55.08ms     15.45ms    72.66%
time for connect:      303us       303us       303us         0us   100.00%
time to 1st byte:     6.14ms      6.14ms      6.14ms         0us   100.00%
