h2load http://node-1:8080/1mb -p http/1.1 -t 1 -c 256 -m 1 -n 512 -T 30m
starting benchmark...
spawning thread #0: 256 total client(s). 512 total requests
Application protocol: http/1.1
progress: 9% done
progress: 19% done
progress: 39% done
progress: 49% done
progress: 59% done
progress: 69% done
progress: 79% done
progress: 89% done
progress: 99% done

finished in 3.76s, 127.85 req/s, 127.87MB/s
requests: 512 total, 512 started, 512 done, 481 succeeded, 31 failed, 31 errored, 0 timeout
status codes: 481 2xx, 0 3xx, 0 4xx, 0 5xx
traffic: 504465585 bytes total, 79846 bytes headers (space savings 0.00%), 504365056 bytes data
                     min         max         mean         sd        +/- sd
time for request:   603.71ms       2.92s       1.13s    539.60ms    88.15%
time for connect:    51.18ms     52.58ms     51.87ms       385us    58.98%
time to 1st byte:   103.83ms       1.16s    386.90ms    404.72ms    78.13%
