h2load http://node-1:8080/8mb -p http/1.1 -t 1 -c 4 -m 1 -n 512 -T 30m
starting benchmark...
spawning thread #0: 4 total client(s). 512 total requests
Application protocol: http/1.1
progress: 9% done
progress: 19% done
progress: 29% done
progress: 39% done
progress: 49% done
progress: 59% done
progress: 69% done
progress: 79% done
progress: 89% done
progress: 99% done

finished in 22.56s, 22.70 req/s, 181.57MB/s
requests: 512 total, 512 started, 512 done, 512 succeeded, 0 failed, 0 errored, 0 timeout
status codes: 512 2xx, 0 3xx, 0 4xx, 0 5xx
traffic: 4295069380 bytes total, 85052 bytes headers (space savings 0.00%), 4294967296 bytes data
                     min         max         mean         sd        +/- sd
time for request:   155.12ms    656.01ms    174.61ms     60.21ms    98.44%
time for connect:    50.28ms     50.37ms     50.32ms        32us    50.00%
time to 1st byte:   100.90ms    100.98ms    100.93ms        27us    75.00%
