h2load http://node-1:8080/128mb -p http/1.1 -t 1 -c 2 -m 1 -n 512 -T 30m
starting benchmark...
spawning thread #0: 2 total client(s). 512 total requests
Application protocol: http/1.1
progress: 9% done
progress: 19% done
progress: 29% done
progress: 39% done
progress: 49% done
progress: 59% done
progress: 69% done
progress: 79% done
progress: 89% done
progress: 99% done

finished in 587.64s, 0.87 req/s, 111.52MB/s
requests: 512 total, 512 started, 512 done, 512 succeeded, 0 failed, 0 errored, 0 timeout
status codes: 512 2xx, 0 3xx, 0 4xx, 0 5xx
traffic: 68719568736 bytes total, 86588 bytes headers (space savings 0.00%), 68719476736 bytes data
                     min         max         mean         sd        +/- sd
time for request:      2.27s       3.58s       2.29s    135.58ms    98.83%
time for connect:    50.32ms     50.37ms     50.34ms        26us   100.00%
time to 1st byte:   101.00ms    101.05ms    101.03ms        25us    50.00%
