h2load http://node-1:8080/8mb -p http/1.1 -t 1 -c 16 -m 1 -n 512 -T 30m
starting benchmark...
spawning thread #0: 16 total client(s). 512 total requests
Application protocol: http/1.1
progress: 9% done
progress: 19% done
progress: 29% done
progress: 39% done
progress: 49% done
progress: 59% done
progress: 69% done
progress: 79% done
progress: 89% done
progress: 99% done

finished in 14.49s, 35.33 req/s, 282.63MB/s
requests: 512 total, 512 started, 512 done, 512 succeeded, 0 failed, 0 errored, 0 timeout
status codes: 512 2xx, 0 3xx, 0 4xx, 0 5xx
traffic: 4295074304 bytes total, 84992 bytes headers (space savings 0.00%), 4294967296 bytes data
                     min         max         mean         sd        +/- sd
time for request:   204.68ms    823.83ms    354.01ms     97.75ms    73.63%
time for connect:    50.29ms     50.49ms     50.36ms        52us    62.50%
time to 1st byte:   101.43ms    101.59ms    101.48ms        46us    75.00%
