h2load http://node-1:8080/128kb -p http/1.1 -t 1 -c 512 -m 1 -n 512 -T 30m
starting benchmark...
spawning thread #0: 512 total client(s). 512 total requests
Application protocol: http/1.1
progress: 9% done
progress: 19% done
progress: 29% done
progress: 39% done
progress: 49% done
progress: 59% done
progress: 69% done
progress: 79% done
progress: 89% done
progress: 99% done

finished in 2.16s, 237.17 req/s, 29.69MB/s
requests: 512 total, 512 started, 512 done, 512 succeeded, 0 failed, 0 errored, 0 timeout
status codes: 512 2xx, 0 3xx, 0 4xx, 0 5xx
traffic: 67214848 bytes total, 83968 bytes headers (space savings 0.00%), 67108864 bytes data
                     min         max         mean         sd        +/- sd
time for request:   252.13ms       2.10s    595.62ms    317.84ms    77.73%
time for connect:    50.93ms     54.69ms     53.48ms       613us    63.28%
time to 1st byte:   107.61ms       1.11s    373.00ms    213.81ms    41.02%
