h2load http://node-1:8080/128mb -p http/1.1 -t 1 -c 128 -m 1 -n 512 -T 30m
starting benchmark...
spawning thread #0: 128 total client(s). 512 total requests
Application protocol: http/1.1
progress: 9% done
progress: 19% done
progress: 29% done
progress: 39% done
progress: 49% done
progress: 59% done
progress: 69% done
progress: 79% done
progress: 89% done
progress: 99% done

finished in 89.40s, 5.48 req/s, 702.41MB/s
requests: 512 total, 496 started, 512 done, 490 succeeded, 22 failed, 22 errored, 0 timeout
status codes: 494 2xx, 0 3xx, 0 4xx, 0 5xx
traffic: 65848570744 bytes total, 83486 bytes headers (space savings 0.00%), 65848466016 bytes data
                     min         max         mean         sd        +/- sd
time for request:      2.24s      82.43s      11.97s      15.32s    90.00%
time for connect:    50.62ms     51.40ms     51.03ms       200us    61.72%
time to 1st byte:   103.35ms    111.13ms    107.59ms      1.93ms    67.97%
