h2load http://node-1:8080/1mb -p http/1.1 -t 1 -c 4 -m 1 -n 512 -T 30m
starting benchmark...
spawning thread #0: 4 total client(s). 512 total requests
Application protocol: http/1.1
progress: 9% done
progress: 19% done
progress: 29% done
progress: 39% done
progress: 49% done
progress: 59% done
progress: 69% done
progress: 79% done
progress: 89% done
progress: 99% done

finished in 15.01s, 34.11 req/s, 34.11MB/s
requests: 512 total, 512 started, 512 done, 512 succeeded, 0 failed, 0 errored, 0 timeout
status codes: 512 2xx, 0 3xx, 0 4xx, 0 5xx
traffic: 536960476 bytes total, 85052 bytes headers (space savings 0.00%), 536870912 bytes data
                     min         max         mean         sd        +/- sd
time for request:   100.90ms    402.68ms    116.30ms     40.72ms    98.44%
time for connect:    50.31ms     50.39ms     50.34ms        31us    50.00%
time to 1st byte:   100.95ms    101.02ms    100.98ms        25us    75.00%
