h2load http://node-1:8080/128mb -p http/1.1 -t 1 -c 64 -m 1 -n 512 -T 30m
starting benchmark...
spawning thread #0: 64 total client(s). 512 total requests
Application protocol: http/1.1
progress: 9% done
progress: 19% done
progress: 29% done
progress: 39% done
progress: 49% done
progress: 59% done
progress: 69% done
progress: 79% done
progress: 89% done

finished in 89.20s, 5.67 req/s, 726.12MB/s
requests: 512 total, 507 started, 512 done, 506 succeeded, 6 failed, 6 errored, 0 timeout
status codes: 507 2xx, 0 3xx, 0 4xx, 0 5xx
traffic: 67918245160 bytes total, 85683 bytes headers (space savings 0.00%), 67918137676 bytes data
                     min         max         mean         sd        +/- sd
time for request:      2.27s      41.35s       7.85s       5.04s    76.28%
time for connect:    50.28ms     50.90ms     50.57ms       161us    60.94%
time to 1st byte:   102.45ms    107.92ms    105.11ms      1.85ms    46.88%
