h2load http://node-1:8080/1mb -p http/1.1 -t 1 -c 64 -m 1 -n 512 -T 30m
starting benchmark...
spawning thread #0: 64 total client(s). 512 total requests
Application protocol: http/1.1
progress: 9% done
progress: 19% done
progress: 29% done
progress: 39% done
progress: 49% done
progress: 59% done
progress: 69% done
progress: 79% done
progress: 89% done
progress: 99% done

finished in 4.74s, 106.57 req/s, 106.59MB/s
requests: 512 total, 506 started, 512 done, 505 succeeded, 7 failed, 7 errored, 0 timeout
status codes: 505 2xx, 0 3xx, 0 4xx, 0 5xx
traffic: 529636425 bytes total, 83830 bytes headers (space savings 0.00%), 529530880 bytes data
                     min         max         mean         sd        +/- sd
time for request:   201.33ms    964.89ms    424.92ms    141.46ms    68.51%
time for connect:    50.27ms     50.83ms     50.55ms       155us    53.13%
time to 1st byte:   102.17ms    103.55ms    102.89ms       413us    67.19%
