h2load http://node-1:8080/128mb -p http/1.1 -t 1 -c 1 -m 1 -n 512 -T 30m
starting benchmark...
spawning thread #0: 1 total client(s). 512 total requests
Application protocol: http/1.1
progress: 9% done
progress: 19% done
progress: 29% done
progress: 39% done
progress: 49% done
progress: 59% done
progress: 69% done
progress: 79% done
progress: 89% done
progress: 99% done

finished in 1177.59s, 0.43 req/s, 55.65MB/s
requests: 512 total, 512 started, 512 done, 512 succeeded, 0 failed, 0 errored, 0 timeout
status codes: 512 2xx, 0 3xx, 0 4xx, 0 5xx
traffic: 68719557714 bytes total, 86603 bytes headers (space savings 0.00%), 68719476736 bytes data
                     min         max         mean         sd        +/- sd
time for request:      2.27s       6.14s       2.30s    211.22ms    98.63%
time for connect:    50.33ms     50.33ms     50.33ms         0us   100.00%
time to 1st byte:   100.97ms    100.97ms    100.97ms         0us   100.00%
