h2load http://node-1:8080/1mb -p http/1.1 -t 1 -c 2 -m 1 -n 512 -T 30m
starting benchmark...
spawning thread #0: 2 total client(s). 512 total requests
Application protocol: http/1.1
progress: 9% done
progress: 19% done
progress: 29% done
progress: 39% done
progress: 49% done
progress: 59% done
progress: 69% done
progress: 79% done
progress: 89% done
progress: 99% done

finished in 28.98s, 17.67 req/s, 17.67MB/s
requests: 512 total, 512 started, 512 done, 512 succeeded, 0 failed, 0 errored, 0 timeout
status codes: 512 2xx, 0 3xx, 0 4xx, 0 5xx
traffic: 536957380 bytes total, 85052 bytes headers (space savings 0.00%), 536870912 bytes data
                     min         max         mean         sd        +/- sd
time for request:   100.92ms    402.28ms    112.31ms     34.85ms    83.40%
time for connect:    50.29ms     50.35ms     50.32ms        27us   100.00%
time to 1st byte:   100.81ms    100.86ms    100.84ms        25us    50.00%
