h2load http://node-0:8080/1mb -p h2c -t 1 -c 1 -m 32 -n 512 -T 30m
starting benchmark...
spawning thread #0: 1 total client(s). 512 total requests
Application protocol: h2c
progress: 9% done
progress: 19% done
progress: 29% done
progress: 39% done
progress: 49% done
progress: 59% done
progress: 69% done
progress: 79% done
progress: 89% done
progress: 99% done

finished in 1.50s, 341.89 req/s, 342.09MB/s
requests: 512 total, 512 started, 512 done, 512 succeeded, 0 failed, 0 errored, 0 timeout
status codes: 512 2xx, 0 3xx, 0 4xx, 0 5xx
traffic: 537187479 bytes total, 17011 bytes headers (space savings 81.12%), 536870912 bytes data
                     min         max         mean         sd        +/- sd
time for request:     8.78ms    299.47ms     92.78ms     56.32ms    93.36%
time for connect:      272us       272us       272us         0us   100.00%
time to 1st byte:     7.37ms      7.37ms      7.37ms         0us   100.00%
