h2load http://node-0:8080/128mb -p h2c -t 1 -c 1 -m 64 -n 512 -T 30m
starting benchmark...
spawning thread #0: 1 total client(s). 512 total requests
Application protocol: h2c
progress: 9% done
progress: 19% done
progress: 29% done
progress: 39% done
progress: 49% done
progress: 59% done
progress: 69% done
progress: 79% done
progress: 89% done
progress: 99% done

finished in 186.98s, 2.74 req/s, 350.70MB/s
requests: 512 total, 512 started, 512 done, 512 succeeded, 0 failed, 0 errored, 0 timeout
status codes: 512 2xx, 0 3xx, 0 4xx, 0 5xx
traffic: 68757249446 bytes total, 18448 bytes headers (space savings 79.87%), 68719476736 bytes data
                     min         max         mean         sd        +/- sd
time for request:     17.35s      26.16s      23.36s       1.00s    75.59%
time for connect:      303us       303us       303us         0us   100.00%
time to 1st byte:    20.99ms     20.99ms     20.99ms         0us   100.00%
