h2load http://node-1:8080/64mb -p h2c -t 1 -c 4 -m 32 -n 128 -T 30m
starting benchmark...
spawning thread #0: 4 total client(s). 128 total requests
Application protocol: h2c
progress: 9% done
progress: 18% done
progress: 28% done
progress: 37% done
progress: 46% done
progress: 56% done
progress: 65% done
progress: 75% done
progress: 84% done
progress: 93% done

finished in 27.75s, 4.61 req/s, 295.36MB/s
requests: 128 total, 128 started, 128 done, 128 succeeded, 0 failed, 0 errored, 0 timeout
status codes: 128 2xx, 0 3xx, 0 4xx, 0 5xx
traffic: 8594659327 bytes total, 4775 bytes headers (space savings 79.04%), 8589934592 bytes data
                     min         max         mean         sd        +/- sd
time for request:     25.88s      27.71s      27.24s    746.14ms    76.56%
time for connect:    35.32ms     35.35ms     35.33ms        11us    75.00%
time to 1st byte:    85.67ms     97.22ms     91.50ms      5.15ms    50.00%
