h2load http://node-1:8080/8mb -p h2c -t 1 -c 2 -m 64 -n 128 -T 30m
starting benchmark...
spawning thread #0: 2 total client(s). 128 total requests
Application protocol: h2c
progress: 9% done
progress: 18% done
progress: 28% done
progress: 37% done
progress: 46% done
progress: 56% done
progress: 65% done
progress: 75% done
progress: 84% done
progress: 93% done

finished in 7.36s, 17.38 req/s, 139.13MB/s
requests: 128 total, 128 started, 128 done, 128 succeeded, 0 failed, 0 errored, 0 timeout
status codes: 128 2xx, 0 3xx, 0 4xx, 0 5xx
traffic: 1074337360 bytes total, 4488 bytes headers (space savings 80.08%), 1073741824 bytes data
                     min         max         mean         sd        +/- sd
time for request:      7.31s       7.33s       7.31s      5.28ms    45.31%
time for connect:    35.31ms     35.34ms     35.33ms        14us   100.00%
time to 1st byte:    99.22ms    106.94ms    103.08ms      3.86ms    50.00%
