h2load http://node-1:8080/128mb -p h2c -t 1 -c 2 -m 64 -n 128 -T 30m
starting benchmark...
spawning thread #0: 2 total client(s). 128 total requests
Application protocol: h2c
progress: 9% done
progress: 18% done
progress: 28% done
progress: 37% done
progress: 46% done
progress: 56% done
progress: 65% done
progress: 75% done
progress: 84% done
progress: 93% done

finished in 103.46s, 1.24 req/s, 158.44MB/s
requests: 128 total, 128 started, 128 done, 128 succeeded, 0 failed, 0 errored, 0 timeout
status codes: 128 2xx, 0 3xx, 0 4xx, 0 5xx
traffic: 17189312421 bytes total, 4685 bytes headers (space savings 79.55%), 17179869184 bytes data
                     min         max         mean         sd        +/- sd
time for request:     50.52s     103.43s      77.88s      23.79s    28.91%
time for connect:    35.31ms     35.32ms     35.32ms         6us    50.00%
time to 1st byte:    96.81ms     97.54ms     97.17ms       363us    50.00%
