h2load http://node-0:8080/64mb -p http/1.1 -t 1 -c 512 -m 1 -n 512 -T 30m
starting benchmark...
spawning thread #0: 512 total client(s). 512 total requests
Application protocol: http/1.1
progress: 9% done
progress: 19% done
progress: 29% done
progress: 39% done
progress: 49% done
progress: 59% done
progress: 69% done
progress: 79% done
progress: 89% done
progress: 99% done

finished in 64.44s, 7.68 req/s, 491.65MB/s
requests: 512 total, 512 started, 512 done, 495 succeeded, 17 failed, 17 errored, 0 timeout
status codes: 495 2xx, 0 3xx, 0 4xx, 0 5xx
traffic: 33218992125 bytes total, 83160 bytes headers (space savings 0.00%), 33218887680 bytes data
                     min         max         mean         sd        +/- sd
time for request:      3.85s      64.38s      21.71s      13.11s    66.06%
time for connect:    50.24ms     52.21ms     51.04ms       453us    61.21%
time to 1st byte:   101.16ms       8.04s       1.70s       2.21s    84.85%
