h2load http://node-0:8080/1kb -p http/1.1 -t 1 -c 512 -m 1 -n 512 -T 30m
starting benchmark...
spawning thread #0: 512 total client(s). 512 total requests
Application protocol: http/1.1
progress: 9% done
progress: 19% done
progress: 29% done
progress: 39% done
progress: 49% done
progress: 59% done
progress: 69% done
progress: 79% done

finished in 32.42s, 14.56 req/s, 17.45KB/s
requests: 512 total, 512 started, 512 done, 472 succeeded, 40 failed, 40 errored, 0 timeout
status codes: 472 2xx, 0 3xx, 0 4xx, 0 5xx
traffic: 579144 bytes total, 75520 bytes headers (space savings 0.00%), 483328 bytes data
                     min         max         mean         sd        +/- sd
time for request:    50.76ms      16.20s    723.55ms       1.71s    96.19%
time for connect:    50.19ms     52.33ms     51.15ms       554us    62.71%
time to 1st byte:   101.27ms      16.25s    774.79ms       1.71s    96.19%
