h2load http://node-0:8080/128mb -p http/1.1 -t 1 -c 256 -m 1 -n 512 -T 30m
starting benchmark...
spawning thread #0: 256 total client(s). 512 total requests
Application protocol: http/1.1
progress: 9% done
progress: 19% done
progress: 29% done
progress: 39% done
progress: 49% done
progress: 59% done
progress: 69% done
progress: 89% done
progress: 99% done

finished in 76.38s, 6.28 req/s, 804.46MB/s
requests: 512 total, 502 started, 512 done, 480 succeeded, 32 failed, 32 errored, 0 timeout
status codes: 488 2xx, 0 3xx, 0 4xx, 0 5xx
traffic: 64427948804 bytes total, 82472 bytes headers (space savings 0.00%), 64427845348 bytes data
                     min         max         mean         sd        +/- sd
time for request:      2.24s      72.31s      20.66s      14.21s    67.29%
time for connect:    50.27ms     51.76ms     51.12ms       449us    60.24%
time to 1st byte:   101.33ms       6.92s       1.34s       1.79s    82.28%
