h2load http://node-0:8080/8mb -p http/1.1 -t 1 -c 256 -m 1 -n 512 -T 30m
starting benchmark...
spawning thread #0: 256 total client(s). 512 total requests
Application protocol: http/1.1
progress: 9% done
progress: 29% done
progress: 39% done
progress: 49% done
progress: 59% done
progress: 69% done
progress: 79% done
progress: 89% done
progress: 99% done

finished in 52.45s, 9.27 req/s, 74.13MB/s
requests: 512 total, 512 started, 512 done, 486 succeeded, 26 failed, 26 errored, 0 timeout
status codes: 486 2xx, 0 3xx, 0 4xx, 0 5xx
traffic: 4076965062 bytes total, 80676 bytes headers (space savings 0.00%), 4076863488 bytes data
                     min         max         mean         sd        +/- sd
time for request:    10.30ms      52.41s       2.67s       6.84s    93.62%
time for connect:     1.63ms       1.01s      6.55ms     63.09ms    99.61%
time to 1st byte:     5.47ms      52.38s       3.69s       9.24s    88.28%
