h2load http://node-0:8080/1kb -p http/1.1 -t 1 -c 128 -m 1 -n 512 -T 30m
starting benchmark...
spawning thread #0: 128 total client(s). 512 total requests
Application protocol: http/1.1
progress: 9% done
progress: 19% done
progress: 29% done
progress: 39% done
progress: 49% done
progress: 69% done
progress: 79% done
progress: 89% done
progress: 99% done

finished in 1.00s, 502.78 req/s, 602.45KB/s
requests: 512 total, 508 started, 512 done, 504 succeeded, 8 failed, 8 errored, 0 timeout
status codes: 504 2xx, 0 3xx, 0 4xx, 0 5xx
traffic: 618408 bytes total, 80640 bytes headers (space savings 0.00%), 516096 bytes data
                     min         max         mean         sd        +/- sd
time for request:      193us    405.88ms      7.64ms     35.35ms    97.42%
time for connect:      907us    998.03ms      9.12ms     87.75ms    99.22%
time to 1st byte:     2.90ms    998.48ms     34.50ms    107.05ms    89.84%
