h2load http://node-0:8080/8mb -p http/1.1 -t 1 -c 128 -m 1 -n 512 -T 30m
starting benchmark...
spawning thread #0: 128 total client(s). 512 total requests
Application protocol: http/1.1
progress: 9% done
progress: 19% done
progress: 29% done
progress: 39% done
progress: 49% done
progress: 59% done
progress: 69% done
progress: 79% done
progress: 89% done
progress: 99% done

finished in 6.65s, 77.00 req/s, 615.99MB/s
requests: 512 total, 512 started, 512 done, 512 succeeded, 0 failed, 0 errored, 0 timeout
status codes: 512 2xx, 0 3xx, 0 4xx, 0 5xx
traffic: 4295074304 bytes total, 84992 bytes headers (space savings 0.00%), 4294967296 bytes data
                     min         max         mean         sd        +/- sd
time for request:    27.32ms       6.56s    715.49ms    758.25ms    92.38%
time for connect:      915us       1.01s     24.93ms    151.99ms    97.66%
time to 1st byte:     2.61ms       6.54s    800.46ms       1.38s    89.06%
