h2load http://node-0:8080/16kb -p http/1.1 -t 1 -c 1 -m 1 -n 512 -T 30m
starting benchmark...
spawning thread #0: 1 total client(s). 512 total requests
Application protocol: http/1.1
progress: 9% done
progress: 19% done
progress: 29% done
progress: 39% done
progress: 49% done
progress: 59% done
progress: 69% done
progress: 79% done
progress: 89% done
progress: 99% done

finished in 992.56ms, 515.84 req/s, 8.12MB/s
requests: 512 total, 512 started, 512 done, 512 succeeded, 0 failed, 0 errored, 0 timeout
status codes: 512 2xx, 0 3xx, 0 4xx, 0 5xx
traffic: 8455363 bytes total, 83019 bytes headers (space savings 0.00%), 8388608 bytes data
                     min         max         mean         sd        +/- sd
time for request:      241us    202.59ms      1.93ms     17.67ms    99.22%
time for connect:      225us       225us       225us         0us   100.00%
time to 1st byte:      615us       615us       615us         0us   100.00%
