h2load http://node-0:8080/16kb -p http/1.1 -t 1 -c 256 -m 1 -n 512
starting benchmark...
spawning thread #0: 256 total client(s). 512 total requests
Application protocol: http/1.1
progress: 9% done
progress: 19% done
progress: 29% done
progress: 39% done
progress: 49% done
progress: 59% done
progress: 69% done
progress: 79% done
progress: 89% done
progress: 99% done

finished in 8.23s, 62.24 req/s, 1008.37KB/s
requests: 512 total, 512 started, 512 done, 512 succeeded, 0 failed, 0 errored, 0 timeout
status codes: 512 2xx, 0 3xx, 0 4xx, 0 5xx
traffic: 8493568 bytes total, 82944 bytes headers (space savings 0.00%), 8388608 bytes data
                     min         max         mean         sd        +/- sd
time for request:    50.20ms       8.12s    448.36ms       1.29s    92.38%
time for connect:    50.26ms       1.05s     55.08ms     62.08ms    99.61%
time to 1st byte:   101.11ms       8.17s    899.24ms       1.74s    91.41%
