h2load http://node-0:8080/16kb -p http/1.1 -t 1 -c 2 -m 1 -n 512
starting benchmark...
spawning thread #0: 2 total client(s). 512 total requests
Application protocol: http/1.1
progress: 9% done
progress: 19% done
progress: 29% done
progress: 39% done
progress: 49% done
progress: 59% done
progress: 69% done
progress: 79% done
progress: 89% done
progress: 99% done

finished in 13.82s, 37.06 req/s, 600.28KB/s
requests: 512 total, 512 started, 512 done, 512 succeeded, 0 failed, 0 errored, 0 timeout
status codes: 512 2xx, 0 3xx, 0 4xx, 0 5xx
traffic: 8492748 bytes total, 83004 bytes headers (space savings 0.00%), 8388608 bytes data
                     min         max         mean         sd        +/- sd
time for request:    50.34ms    302.13ms     52.88ms     24.57ms    99.02%
time for connect:    50.23ms     50.29ms     50.26ms        29us   100.00%
time to 1st byte:   100.74ms    100.78ms    100.76ms        20us   100.00%
