h2load http://node-0:8080/128mb -p http/1.1 -t 1 -c 128 -m 1 -n 512
starting benchmark...
spawning thread #0: 128 total client(s). 512 total requests
Application protocol: http/1.1
progress: 9% done
progress: 19% done
progress: 29% done
progress: 39% done
progress: 49% done
progress: 59% done
progress: 69% done
progress: 79% done
progress: 89% done

finished in 98.26s, 5.17 req/s, 661.79MB/s
requests: 512 total, 509 started, 512 done, 508 succeeded, 4 failed, 4 errored, 0 timeout
status codes: 509 2xx, 0 3xx, 0 4xx, 0 5xx
traffic: 68183017752 bytes total, 86021 bytes headers (space savings 0.00%), 68182909844 bytes data
                     min         max         mean         sd        +/- sd
time for request:      2.27s      54.15s      13.33s       3.46s    93.70%
time for connect:    50.18ms       2.06s     66.00ms    176.76ms    99.22%
time to 1st byte:   101.06ms       5.14s    781.02ms       1.22s    85.16%
