h2load http://node-0:8080/1kb -p http/1.1 -t 1 -c 512 -m 1 -n 512
starting benchmark...
spawning thread #0: 512 total client(s). 512 total requests
Application protocol: http/1.1
progress: 9% done
progress: 19% done
progress: 29% done
progress: 39% done
progress: 49% done
progress: 59% done
progress: 69% done
progress: 79% done
progress: 99% done

finished in 32.44s, 15.41 req/s, 18.47KB/s
requests: 512 total, 512 started, 512 done, 500 succeeded, 12 failed, 12 errored, 0 timeout
status codes: 500 2xx, 0 3xx, 0 4xx, 0 5xx
traffic: 613500 bytes total, 80000 bytes headers (space savings 0.00%), 512000 bytes data
                     min         max         mean         sd        +/- sd
time for request:    50.39ms      32.38s       1.53s       4.82s    93.40%
time for connect:    50.47ms     52.61ms     51.80ms       525us    75.40%
time to 1st byte:   101.61ms      32.43s       1.58s       4.82s    93.40%
