h2load http://node-0:8080/128mb -p http/1.1 -t 1 -c 32 -m 1 -n 512
starting benchmark...
spawning thread #0: 32 total client(s). 512 total requests
Application protocol: http/1.1
progress: 9% done
progress: 19% done
progress: 29% done
progress: 39% done
progress: 49% done
progress: 59% done
progress: 69% done
progress: 79% done
progress: 89% done
progress: 99% done

finished in 56.67s, 9.04 req/s, 1.13GB/s
requests: 512 total, 512 started, 512 done, 512 succeeded, 0 failed, 0 errored, 0 timeout
status codes: 512 2xx, 0 3xx, 0 4xx, 0 5xx
traffic: 68719585280 bytes total, 86528 bytes headers (space savings 0.00%), 68719476736 bytes data
                     min         max         mean         sd        +/- sd
time for request:      2.86s       4.32s       3.48s    199.44ms    80.27%
time for connect:    50.16ms       1.55s     97.16ms    261.29ms    96.88%
time to 1st byte:   101.21ms       1.86s    358.77ms    328.47ms    96.88%
