h2load http://node-0:8080/8mb -p http/1.1 -t 1 -c 2 -m 1 -n 512
starting benchmark...
spawning thread #0: 2 total client(s). 512 total requests
Application protocol: http/1.1
progress: 9% done
progress: 19% done
progress: 29% done
progress: 39% done
progress: 49% done
progress: 59% done
progress: 69% done
progress: 79% done
progress: 89% done
progress: 99% done

finished in 42.39s, 12.08 req/s, 96.62MB/s
requests: 512 total, 512 started, 512 done, 512 succeeded, 0 failed, 0 errored, 0 timeout
status codes: 512 2xx, 0 3xx, 0 4xx, 0 5xx
traffic: 4295057404 bytes total, 85052 bytes headers (space savings 0.00%), 4294967296 bytes data
                     min         max         mean         sd        +/- sd
time for request:   155.80ms    554.97ms    163.40ms     43.88ms    98.44%
time for connect:    50.22ms     50.29ms     50.25ms        34us    50.00%
time to 1st byte:   100.72ms    100.74ms    100.73ms        11us    50.00%
