h2load http://node-0:8080/1mb -p http/1.1 -t 1 -c 256 -m 1 -n 512
starting benchmark...
spawning thread #0: 256 total client(s). 512 total requests
Application protocol: http/1.1
progress: 9% done
progress: 19% done
progress: 29% done
progress: 39% done
progress: 49% done
progress: 59% done
progress: 69% done
progress: 79% done
progress: 89% done
progress: 99% done

finished in 8.58s, 59.06 req/s, 59.07MB/s
requests: 512 total, 512 started, 512 done, 507 succeeded, 5 failed, 5 errored, 0 timeout
status codes: 507 2xx, 0 3xx, 0 4xx, 0 5xx
traffic: 531733995 bytes total, 84162 bytes headers (space savings 0.00%), 531628032 bytes data
                     min         max         mean         sd        +/- sd
time for request:   101.08ms       8.43s    721.39ms       1.44s    89.74%
time for connect:    50.20ms       1.05s     62.23ms    107.16ms    98.83%
time to 1st byte:   101.19ms       8.18s       1.07s       1.86s    90.63%
