h2load http://node-0:8080/1mb -p h2c -t 1 -c 32 -m 16 -n 512
starting benchmark...
spawning thread #0: 32 total client(s). 512 total requests
Application protocol: h2c
progress: 9% done
progress: 19% done
progress: 29% done
progress: 39% done
progress: 49% done
progress: 59% done
progress: 69% done
progress: 79% done
progress: 89% done
progress: 99% done

finished in 1.37s, 374.60 req/s, 374.82MB/s
requests: 512 total, 512 started, 512 done, 512 succeeded, 0 failed, 0 errored, 0 timeout
status codes: 512 2xx, 0 3xx, 0 4xx, 0 5xx
traffic: 537190711 bytes total, 19127 bytes headers (space savings 78.77%), 536870912 bytes data
                     min         max         mean         sd        +/- sd
time for request:   353.86ms       1.31s    778.83ms    195.53ms    66.41%
time for connect:    50.42ms     50.76ms     50.48ms        57us    81.25%
time to 1st byte:   106.29ms    131.00ms    115.96ms      6.78ms    68.75%
