h2load http://node-0:8080/1mb -p h2c -t 1 -c 256 -m 2 -n 512
starting benchmark...
spawning thread #0: 256 total client(s). 512 total requests
Application protocol: h2c
progress: 9% done
progress: 19% done
progress: 29% done
progress: 39% done
progress: 49% done
progress: 59% done
progress: 69% done
progress: 79% done
progress: 89% done
progress: 99% done

finished in 4.48s, 114.20 req/s, 114.28MB/s
requests: 512 total, 512 started, 512 done, 512 succeeded, 0 failed, 0 errored, 0 timeout
status codes: 512 2xx, 0 3xx, 0 4xx, 0 5xx
traffic: 537214208 bytes total, 34560 bytes headers (space savings 61.65%), 536870912 bytes data
                     min         max         mean         sd        +/- sd
time for request:   277.02ms       4.42s    872.86ms    840.44ms    89.06%
time for connect:    50.53ms     55.68ms     53.56ms      1.66ms    63.67%
time to 1st byte:   103.99ms       4.14s    560.26ms    861.88ms    89.06%
