h2load http://node-0:8080/128mb -p h2c -t 1 -c 8 -m 64 -n 512
starting benchmark...
spawning thread #0: 8 total client(s). 512 total requests
Application protocol: h2c
progress: 9% done
progress: 19% done
progress: 29% done
progress: 39% done
progress: 49% done
progress: 59% done
progress: 69% done
progress: 79% done
progress: 89% done
progress: 99% done

finished in 144.36s, 3.55 req/s, 454.23MB/s
requests: 512 total, 512 started, 512 done, 512 succeeded, 0 failed, 0 errored, 0 timeout
status codes: 512 2xx, 0 3xx, 0 4xx, 0 5xx
traffic: 68757249555 bytes total, 18602 bytes headers (space savings 79.70%), 68719476736 bytes data
                     min         max         mean         sd        +/- sd
time for request:     62.81s     144.31s     134.59s      22.61s    86.33%
time for connect:    50.34ms     50.45ms     50.39ms        37us    50.00%
time to 1st byte:   118.51ms    130.27ms    124.35ms      4.16ms    37.50%
