h2load http://node-0:8080/1mb -p h2c -t 1 -c 16 -m 32 -n 512
starting benchmark...
spawning thread #0: 16 total client(s). 512 total requests
Application protocol: h2c
progress: 9% done
progress: 19% done
progress: 29% done
progress: 39% done
progress: 49% done
progress: 59% done
progress: 69% done
progress: 79% done
progress: 89% done
progress: 99% done

finished in 1.37s, 374.00 req/s, 374.22MB/s
requests: 512 total, 512 started, 512 done, 512 succeeded, 0 failed, 0 errored, 0 timeout
status codes: 512 2xx, 0 3xx, 0 4xx, 0 5xx
traffic: 537189215 bytes total, 18207 bytes headers (space savings 79.80%), 536870912 bytes data
                     min         max         mean         sd        +/- sd
time for request:   666.69ms       1.32s       1.06s    166.42ms    66.80%
time for connect:    50.33ms     50.44ms     50.38ms        35us    56.25%
time to 1st byte:   109.01ms    117.36ms    114.25ms      2.23ms    68.75%
