h2load http://node-0:8080/128mb -p h2c -t 1 -c 32 -m 16 -n 512
starting benchmark...
spawning thread #0: 32 total client(s). 512 total requests
Application protocol: h2c
progress: 9% done
progress: 19% done
progress: 29% done
progress: 39% done
progress: 49% done
progress: 59% done
progress: 69% done
progress: 79% done
progress: 89% done
progress: 99% done

finished in 56.46s, 9.07 req/s, 1.13GB/s
requests: 512 total, 512 started, 512 done, 512 succeeded, 0 failed, 0 errored, 0 timeout
status codes: 512 2xx, 0 3xx, 0 4xx, 0 5xx
traffic: 68757253076 bytes total, 21844 bytes headers (space savings 76.17%), 68719476736 bytes data
                     min         max         mean         sd        +/- sd
time for request:      7.32s      56.41s      33.99s      15.14s    56.25%
time for connect:    50.35ms     50.65ms     50.45ms        94us    78.13%
time to 1st byte:   105.88ms    216.93ms    132.59ms     39.81ms    81.25%
