h2load http://node-0:8080/64mb -p h2c -t 1 -c 256 -m 2 -n 512
starting benchmark...
spawning thread #0: 256 total client(s). 512 total requests
Application protocol: h2c
progress: 9% done
progress: 19% done
progress: 29% done
progress: 39% done
progress: 49% done
progress: 59% done
progress: 69% done
progress: 79% done
progress: 89% done
progress: 99% done

finished in 55.70s, 9.19 req/s, 588.58MB/s
requests: 512 total, 512 started, 512 done, 512 succeeded, 0 failed, 0 errored, 0 timeout
status codes: 512 2xx, 0 3xx, 0 4xx, 0 5xx
traffic: 34378661376 bytes total, 34816 bytes headers (space savings 61.80%), 34359738368 bytes data
                     min         max         mean         sd        +/- sd
time for request:      8.01s      55.65s      20.10s       7.79s    73.83%
time for connect:    50.39ms     55.12ms     53.13ms      1.52ms    62.89%
time to 1st byte:   101.84ms       7.43s       1.24s       1.74s    85.55%
