h2load http://node-0:8080/64mb -p h2c -t 1 -c 16 -m 32 -n 512
starting benchmark...
spawning thread #0: 16 total client(s). 512 total requests
Application protocol: h2c
progress: 9% done
progress: 19% done
progress: 29% done
progress: 39% done
progress: 49% done
progress: 59% done
progress: 69% done
progress: 79% done
progress: 89% done
progress: 99% done

finished in 37.20s, 13.76 req/s, 881.35MB/s
requests: 512 total, 512 started, 512 done, 512 succeeded, 0 failed, 0 errored, 0 timeout
status codes: 512 2xx, 0 3xx, 0 4xx, 0 5xx
traffic: 34378637682 bytes total, 19600 bytes headers (space savings 78.49%), 34359738368 bytes data
                     min         max         mean         sd        +/- sd
time for request:      3.19s      37.15s      31.50s       8.40s    86.72%
time for connect:    50.35ms     50.47ms     50.40ms        40us    56.25%
time to 1st byte:   115.25ms    120.99ms    117.49ms      1.91ms    56.25%
