h2load http://node-0:8080/64mb -p h2c -t 1 -c 512 -m 1 -n 512
starting benchmark...
spawning thread #0: 512 total client(s). 512 total requests
Application protocol: h2c
progress: 9% done
progress: 19% done
progress: 29% done
progress: 39% done
progress: 49% done
progress: 59% done
progress: 69% done
progress: 79% done
progress: 89% done

finished in 71.57s, 7.04 req/s, 450.97MB/s
requests: 512 total, 512 started, 512 done, 504 succeeded, 8 failed, 8 errored, 0 timeout
status codes: 507 2xx, 0 3xx, 0 4xx, 0 5xx
traffic: 33843605444 bytes total, 51714 bytes headers (space savings 42.70%), 33824950307 bytes data
                     min         max         mean         sd        +/- sd
time for request:      4.06s      71.51s      22.07s      14.24s    66.27%
time for connect:    50.45ms     59.82ms     55.80ms      2.61ms    56.21%
time to 1st byte:   101.86ms       9.45s       2.22s       2.61s    85.01%
