h2load http://node-0:8080/1kb -p h2c -t 1 -c 64 -m 8 -n 512
starting benchmark...
spawning thread #0: 64 total client(s). 512 total requests
Application protocol: h2c
progress: 9% done
progress: 19% done
progress: 29% done
progress: 39% done
progress: 49% done
progress: 59% done
progress: 69% done
progress: 79% done
progress: 89% done
progress: 99% done

finished in 115.30ms, 4440.59 req/s, 4.59MB/s
requests: 512 total, 512 started, 512 done, 512 succeeded, 0 failed, 0 errored, 0 timeout
status codes: 512 2xx, 0 3xx, 0 4xx, 0 5xx
traffic: 555072 bytes total, 19264 bytes headers (space savings 77.87%), 524288 bytes data
                     min         max         mean         sd        +/- sd
time for request:    52.65ms     61.26ms     58.31ms      1.87ms    68.75%
time for connect:    50.37ms     51.54ms     50.83ms       404us    60.94%
time to 1st byte:   104.63ms    112.84ms    110.56ms      1.79ms    71.88%
