h2load http://node-0:8080/128mb -p h2c -t 1 -c 16 -m 32 -n 512
starting benchmark...
spawning thread #0: 16 total client(s). 512 total requests
Application protocol: h2c
progress: 9% done
progress: 19% done
progress: 29% done
progress: 39% done
progress: 49% done
progress: 59% done
progress: 69% done
progress: 79% done
progress: 89% done
progress: 99% done

finished in 73.63s, 6.95 req/s, 890.55MB/s
requests: 512 total, 512 started, 512 done, 512 succeeded, 0 failed, 0 errored, 0 timeout
status codes: 512 2xx, 0 3xx, 0 4xx, 0 5xx
traffic: 68757250624 bytes total, 19491 bytes headers (space savings 78.73%), 68719476736 bytes data
                     min         max         mean         sd        +/- sd
time for request:      5.54s      73.58s      67.30s      13.43s    88.28%
time for connect:    50.38ms     50.52ms     50.44ms        45us    62.50%
time to 1st byte:   109.48ms    121.46ms    116.83ms      3.45ms    62.50%
