h2load http://node-0:8080/16kb -p h2c -t 1 -c 512 -m 1 -n 512
starting benchmark...
spawning thread #0: 512 total client(s). 512 total requests
Application protocol: h2c
progress: 9% done
progress: 19% done
progress: 29% done
progress: 39% done
progress: 49% done
progress: 59% done
progress: 69% done
progress: 99% done

finished in 32.43s, 14.65 req/s, 236.57KB/s
requests: 512 total, 512 started, 512 done, 475 succeeded, 37 failed, 37 errored, 0 timeout
status codes: 475 2xx, 0 3xx, 0 4xx, 0 5xx
traffic: 7855075 bytes total, 47025 bytes headers (space savings 42.44%), 7782400 bytes data
                     min         max         mean         sd        +/- sd
time for request:    50.91ms      32.36s       2.73s       7.06s    93.05%
time for connect:    50.39ms     58.20ms     54.93ms      2.08ms    68.00%
time to 1st byte:   103.43ms      32.42s       2.77s       7.07s    93.05%
