h2load http://node-0:8080/1mb -p h2c -t 1 -c 2 -m 256 -n 512
starting benchmark...
spawning thread #0: 2 total client(s). 512 total requests
Application protocol: h2c
progress: 9% done
progress: 19% done
progress: 29% done
progress: 39% done
progress: 49% done
progress: 59% done
progress: 69% done
progress: 79% done
progress: 89% done
progress: 99% done

finished in 5.11s, 100.29 req/s, 100.35MB/s
requests: 512 total, 512 started, 512 done, 512 succeeded, 0 failed, 0 errored, 0 timeout
status codes: 512 2xx, 0 3xx, 0 4xx, 0 5xx
traffic: 537187676 bytes total, 17172 bytes headers (space savings 80.94%), 536870912 bytes data
                     min         max         mean         sd        +/- sd
time for request:      1.69s       5.05s       3.36s       1.23s    51.56%
time for connect:    50.34ms     50.42ms     50.38ms        42us    50.00%
time to 1st byte:   118.93ms    119.87ms    119.40ms       471us   100.00%
