h2load http://node-0:8080/128kb -p h2c -t 1 -c 8 -m 64 -n 512
starting benchmark...
spawning thread #0: 8 total client(s). 512 total requests
Application protocol: h2c
progress: 9% done
progress: 19% done
progress: 29% done
progress: 39% done
progress: 49% done
progress: 59% done
progress: 69% done
progress: 79% done
progress: 89% done
progress: 99% done

finished in 812.01ms, 630.53 req/s, 78.88MB/s
requests: 512 total, 512 started, 512 done, 512 succeeded, 0 failed, 0 errored, 0 timeout
status codes: 512 2xx, 0 3xx, 0 4xx, 0 5xx
traffic: 67167040 bytes total, 16416 bytes headers (space savings 81.57%), 67108864 bytes data
                     min         max         mean         sd        +/- sd
time for request:   544.36ms    759.14ms    627.30ms     53.36ms    70.31%
time for connect:    50.37ms     50.50ms     50.43ms        45us    50.00%
time to 1st byte:   114.44ms    157.81ms    140.53ms     15.45ms    50.00%
