h2load http://node-1:8080/1kb -p h2c -t 1 -c 4 -m 32 -n 128 -T 30m
starting benchmark...
spawning thread #0: 4 total client(s). 128 total requests
Application protocol: h2c
progress: 9% done
progress: 18% done
progress: 28% done
progress: 37% done
progress: 46% done
progress: 56% done
progress: 65% done
progress: 75% done
progress: 84% done
progress: 93% done

finished in 114.79ms, 1115.09 req/s, 1.14MB/s
requests: 128 total, 128 started, 128 done, 128 succeeded, 0 failed, 0 errored, 0 timeout
status codes: 128 2xx, 0 3xx, 0 4xx, 0 5xx
traffic: 137504 bytes total, 3984 bytes headers (space savings 81.69%), 131072 bytes data
                     min         max         mean         sd        +/- sd
time for request:    42.91ms     78.28ms     65.36ms     16.27ms    65.63%
time for connect:    35.29ms     35.32ms     35.30ms        11us    75.00%
time to 1st byte:    78.46ms     78.72ms     78.58ms       102us    50.00%
