h2load http://node-1:8080/1mb -p h2c -t 1 -c 16 -m 8 -n 128 -T 30m
starting benchmark...
spawning thread #0: 16 total client(s). 128 total requests
Application protocol: h2c
progress: 9% done
progress: 18% done
progress: 28% done
progress: 37% done
progress: 46% done
progress: 56% done
progress: 65% done
progress: 75% done
progress: 84% done
progress: 93% done

finished in 1.03s, 123.85 req/s, 123.93MB/s
requests: 128 total, 128 started, 128 done, 128 succeeded, 0 failed, 0 errored, 0 timeout
status codes: 128 2xx, 0 3xx, 0 4xx, 0 5xx
traffic: 134298368 bytes total, 5184 bytes headers (space savings 76.99%), 134217728 bytes data
                     min         max         mean         sd        +/- sd
time for request:   323.42ms    996.08ms    498.91ms    118.89ms    90.63%
time for connect:    35.34ms     35.43ms     35.36ms        21us    81.25%
time to 1st byte:    74.23ms    147.40ms     81.49ms     17.07ms    93.75%
