h2load http://node-1:8080/64mb -p h2c -t 1 -c 4 -m 32 -n 128 -T 30m
starting benchmark...
spawning thread #0: 4 total client(s). 128 total requests
Application protocol: h2c
progress: 9% done
progress: 18% done
progress: 28% done
progress: 37% done
progress: 46% done
progress: 56% done
progress: 65% done
progress: 75% done
progress: 84% done
progress: 93% done

finished in 27.65s, 4.63 req/s, 296.49MB/s
requests: 128 total, 128 started, 128 done, 128 succeeded, 0 failed, 0 errored, 0 timeout
status codes: 128 2xx, 0 3xx, 0 4xx, 0 5xx
traffic: 8594659341 bytes total, 4798 bytes headers (space savings 78.94%), 8589934592 bytes data
                     min         max         mean         sd        +/- sd
time for request:      5.49s      27.61s      26.64s       2.74s    98.44%
time for connect:    35.28ms     35.31ms     35.29ms        11us    75.00%
time to 1st byte:    84.28ms     99.02ms     91.98ms      6.73ms    50.00%
