h2load http://node-1:8080/128kb -p h2c -t 1 -c 16 -m 8 -n 128 -T 30m
starting benchmark...
spawning thread #0: 16 total client(s). 128 total requests
Application protocol: h2c
progress: 9% done
progress: 18% done
progress: 28% done
progress: 37% done
progress: 46% done
progress: 56% done
progress: 65% done
progress: 75% done
progress: 84% done
progress: 93% done

finished in 293.80ms, 435.68 req/s, 54.51MB/s
requests: 128 total, 128 started, 128 done, 128 succeeded, 0 failed, 0 errored, 0 timeout
status codes: 128 2xx, 0 3xx, 0 4xx, 0 5xx
traffic: 16793216 bytes total, 5056 bytes headers (space savings 77.30%), 16777216 bytes data
                     min         max         mean         sd        +/- sd
time for request:   246.79ms    256.01ms    251.53ms      2.60ms    54.69%
time for connect:    35.39ms     35.51ms     35.43ms        26us    75.00%
time to 1st byte:    74.46ms     78.87ms     76.83ms      1.35ms    62.50%
