h2load http://node-1:8080/16kb -p h2c -t 1 -c 2 -m 64 -n 128 -T 30m
starting benchmark...
spawning thread #0: 2 total client(s). 128 total requests
Application protocol: h2c
progress: 9% done
progress: 18% done
progress: 28% done
progress: 37% done
progress: 46% done
progress: 56% done
progress: 65% done
progress: 75% done
progress: 84% done
progress: 93% done

finished in 305.39ms, 419.14 req/s, 6.57MB/s
requests: 128 total, 128 started, 128 done, 128 succeeded, 0 failed, 0 errored, 0 timeout
status codes: 128 2xx, 0 3xx, 0 4xx, 0 5xx
traffic: 2103504 bytes total, 3976 bytes headers (space savings 81.94%), 2097152 bytes data
                     min         max         mean         sd        +/- sd
time for request:    91.49ms    268.07ms    211.75ms     42.47ms    69.53%
time for connect:    35.35ms     35.38ms     35.36ms        14us   100.00%
time to 1st byte:    92.13ms     92.23ms     92.18ms        53us    50.00%
