h2load http://node-1:8080/8mb -p h2c -t 1 -c 8 -m 16 -n 128 -T 30m
starting benchmark...
spawning thread #0: 8 total client(s). 128 total requests
Application protocol: h2c
progress: 9% done
progress: 18% done
progress: 28% done
progress: 37% done
progress: 46% done
progress: 56% done
progress: 65% done
progress: 75% done
progress: 84% done
progress: 93% done

finished in 1.06s, 121.07 req/s, 969.14MB/s
requests: 128 total, 128 started, 128 done, 128 succeeded, 0 failed, 0 errored, 0 timeout
status codes: 128 2xx, 0 3xx, 0 4xx, 0 5xx
traffic: 1074338030 bytes total, 4942 bytes headers (space savings 78.06%), 1073741824 bytes data
                     min         max         mean         sd        +/- sd
time for request:   210.57ms       1.06s    745.41ms    208.25ms    59.38%
time for connect:      300us       435us       358us        34us    75.00%
time to 1st byte:     8.09ms     12.35ms     10.49ms      1.67ms    50.00%
