h2load http://node-1:8080/16kb -p h2c -t 1 -c 4 -m 32 -n 128 -T 30m
starting benchmark...
spawning thread #0: 4 total client(s). 128 total requests
Application protocol: h2c
progress: 9% done
progress: 18% done
progress: 28% done
progress: 37% done
progress: 46% done
progress: 56% done
progress: 65% done
progress: 75% done
progress: 84% done
progress: 93% done

finished in 12.17ms, 10521.12 req/s, 164.91MB/s
requests: 128 total, 128 started, 128 done, 128 succeeded, 0 failed, 0 errored, 0 timeout
status codes: 128 2xx, 0 3xx, 0 4xx, 0 5xx
traffic: 2103712 bytes total, 4112 bytes headers (space savings 81.32%), 2097152 bytes data
                     min         max         mean         sd        +/- sd
time for request:     5.09ms      9.84ms      7.60ms      1.76ms    61.72%
time for connect:      275us       317us       287us        17us    75.00%
time to 1st byte:     5.79ms      9.30ms      7.59ms      1.56ms    50.00%
