h2load http://node-1:8080/1mb -p h2c -t 1 -c 4 -m 32 -n 128 -T 30m
starting benchmark...
spawning thread #0: 4 total client(s). 128 total requests
Application protocol: h2c
progress: 9% done
progress: 18% done
progress: 28% done
progress: 37% done
progress: 46% done
progress: 56% done
progress: 65% done
progress: 75% done
progress: 84% done
progress: 93% done

finished in 134.14ms, 954.24 req/s, 954.81MB/s
requests: 128 total, 128 started, 128 done, 128 succeeded, 0 failed, 0 errored, 0 timeout
status codes: 128 2xx, 0 3xx, 0 4xx, 0 5xx
traffic: 134297120 bytes total, 4368 bytes headers (space savings 80.61%), 134217728 bytes data
                     min         max         mean         sd        +/- sd
time for request:   122.52ms    132.34ms    128.85ms      3.33ms    64.84%
time for connect:      308us       353us       320us        18us    75.00%
time to 1st byte:    12.01ms     13.37ms     12.77ms       500us    50.00%
