h2load http://node-0:8080/64mb -p h2c -t 1 -c 1 -m 128 -n 512
starting benchmark...
spawning thread #0: 1 total client(s). 512 total requests
Application protocol: h2c
progress: 9% done
progress: 19% done
progress: 29% done
progress: 39% done
progress: 49% done
progress: 59% done
progress: 69% done
progress: 79% done
progress: 89% done
progress: 99% done

finished in 88.14s, 5.81 req/s, 371.00MB/s
requests: 512 total, 512 started, 512 done, 512 succeeded, 0 failed, 0 errored, 0 timeout
status codes: 512 2xx, 0 3xx, 0 4xx, 0 5xx
traffic: 34378635461 bytes total, 17775 bytes headers (space savings 80.50%), 34359738368 bytes data
                     min         max         mean         sd        +/- sd
time for request:     11.57s      22.74s      20.50s       3.80s    83.98%
time for connect:      339us       339us       339us         0us   100.00%
time to 1st byte:   228.33ms    228.33ms    228.33ms         0us   100.00%
