h2load http://node-0:8080/128kb -p h2c -t 1 -c 1 -m 128 -n 512
starting benchmark...
spawning thread #0: 1 total client(s). 512 total requests
Application protocol: h2c
progress: 9% done
progress: 19% done
progress: 29% done
progress: 39% done
progress: 49% done
progress: 59% done
progress: 69% done
progress: 79% done
progress: 89% done
progress: 99% done

finished in 189.96ms, 2695.30 req/s, 337.20MB/s
requests: 512 total, 512 started, 512 done, 512 succeeded, 0 failed, 0 errored, 0 timeout
status codes: 512 2xx, 0 3xx, 0 4xx, 0 5xx
traffic: 67166335 bytes total, 15963 bytes headers (space savings 82.08%), 67108864 bytes data
                     min         max         mean         sd        +/- sd
time for request:     4.36ms     74.57ms     46.18ms     15.42ms    69.53%
time for connect:      287us       287us       287us         0us   100.00%
time to 1st byte:    54.23ms     54.23ms     54.23ms         0us   100.00%
