h2load http://node-0:8080/8mb -p h2c -t 1 -c 1 -m 4 -n 512
starting benchmark...
spawning thread #0: 1 total client(s). 512 total requests
Application protocol: h2c
progress: 9% done
progress: 19% done
progress: 29% done
progress: 39% done
progress: 49% done
progress: 59% done
progress: 69% done
progress: 79% done
progress: 89% done
progress: 99% done

finished in 3.52s, 145.33 req/s, 1.14GB/s
requests: 512 total, 512 started, 512 done, 512 succeeded, 0 failed, 0 errored, 0 timeout
status codes: 512 2xx, 0 3xx, 0 4xx, 0 5xx
traffic: 4297348806 bytes total, 17570 bytes headers (space savings 80.50%), 4294967296 bytes data
                     min         max         mean         sd        +/- sd
time for request:    20.67ms     51.05ms     27.41ms      1.58ms    96.48%
time for connect:      307us       307us       307us         0us   100.00%
time to 1st byte:     1.16ms      1.16ms      1.16ms         0us   100.00%
