h2load http://node-0:8080/64mb -p h2c -t 1 -c 4 -m 128 -n 512 -T 30m
starting benchmark...
spawning thread #0: 4 total client(s). 512 total requests
Application protocol: h2c
progress: 9% done
progress: 19% done
progress: 29% done
progress: 39% done
progress: 49% done
progress: 59% done
progress: 69% done
progress: 79% done
progress: 89% done
progress: 99% done

finished in 28.79s, 17.78 req/s, 1.11GB/s
requests: 512 total, 512 started, 512 done, 512 succeeded, 0 failed, 0 errored, 0 timeout
status codes: 512 2xx, 0 3xx, 0 4xx, 0 5xx
traffic: 34378635994 bytes total, 18209 bytes headers (space savings 80.02%), 34359738368 bytes data
                     min         max         mean         sd        +/- sd
time for request:      5.68s      28.79s      17.34s       7.42s    46.48%
time for connect:      289us       414us       344us        47us    50.00%
time to 1st byte:    14.91ms     28.29ms     21.57ms      6.25ms    50.00%
