h2load http://node-0:8080/128mb -p h2c -t 1 -c 8 -m 64 -n 512 -T 30m
starting benchmark...
spawning thread #0: 8 total client(s). 512 total requests
Application protocol: h2c
progress: 9% done
progress: 19% done
progress: 29% done
progress: 39% done
progress: 49% done
progress: 59% done
progress: 69% done
progress: 79% done
progress: 89% done
progress: 99% done

finished in 55.68s, 9.20 req/s, 1.15GB/s
requests: 512 total, 512 started, 512 done, 512 succeeded, 0 failed, 0 errored, 0 timeout
status codes: 512 2xx, 0 3xx, 0 4xx, 0 5xx
traffic: 68757250654 bytes total, 19683 bytes headers (space savings 78.52%), 68719476736 bytes data
                     min         max         mean         sd        +/- sd
time for request:      1.16s      55.68s      39.02s      15.49s    55.27%
time for connect:      264us       364us       311us        34us    62.50%
time to 1st byte:    12.71ms     22.78ms     16.47ms      2.99ms    62.50%
