h2load http://node-0:8080/8mb -p h2c -t 1 -c 2 -m 256 -n 512 -T 30m
starting benchmark...
spawning thread #0: 2 total client(s). 512 total requests
Application protocol: h2c
progress: 9% done
progress: 19% done
progress: 29% done
progress: 39% done
progress: 49% done
progress: 59% done
progress: 69% done
progress: 79% done
progress: 89% done
progress: 99% done

finished in 6.69s, 76.48 req/s, 612.22MB/s
requests: 512 total, 512 started, 512 done, 512 succeeded, 0 failed, 0 errored, 0 timeout
status codes: 512 2xx, 0 3xx, 0 4xx, 0 5xx
traffic: 4297349069 bytes total, 17797 bytes headers (space savings 80.25%), 4294967296 bytes data
                     min         max         mean         sd        +/- sd
time for request:   209.49ms       6.69s       3.69s       1.86s    59.38%
time for connect:      287us       378us       332us        45us    50.00%
time to 1st byte:    12.00ms     15.35ms     14.17ms      1.18ms   100.00%
