h2load http://node-0:8080/1mb -p h2c -t 1 -c 64 -m 8 -n 512 -T 30m
starting benchmark...
spawning thread #0: 64 total client(s). 512 total requests
Application protocol: h2c
progress: 9% done
progress: 19% done
progress: 29% done
progress: 39% done
progress: 49% done
progress: 59% done
progress: 69% done
progress: 79% done
progress: 89% done
progress: 99% done

finished in 1.02s, 503.21 req/s, 503.51MB/s
requests: 512 total, 512 started, 512 done, 512 succeeded, 0 failed, 0 errored, 0 timeout
status codes: 512 2xx, 0 3xx, 0 4xx, 0 5xx
traffic: 537194048 bytes total, 21312 bytes headers (space savings 76.35%), 536870912 bytes data
                     min         max         mean         sd        +/- sd
time for request:     6.31ms    435.27ms    326.50ms     86.84ms    79.69%
time for connect:      749us    998.96ms     16.66ms    123.76ms    98.44%
time to 1st byte:     3.72ms       1.00s     53.88ms    136.93ms    92.19%
