h2load http://node-0:8080/1kb -p h2c -t 1 -c 2 -m 256 -n 512 -T 30m
starting benchmark...
spawning thread #0: 2 total client(s). 512 total requests
Application protocol: h2c
progress: 9% done
progress: 19% done
progress: 29% done
progress: 39% done
progress: 49% done
progress: 59% done
progress: 69% done
progress: 79% done
progress: 89% done
progress: 99% done

finished in 40.14ms, 12755.67 req/s, 13.03MB/s
requests: 512 total, 512 started, 512 done, 512 succeeded, 0 failed, 0 errored, 0 timeout
status codes: 512 2xx, 0 3xx, 0 4xx, 0 5xx
traffic: 548562 bytes total, 14986 bytes headers (space savings 82.78%), 524288 bytes data
                     min         max         mean         sd        +/- sd
time for request:    36.42ms     37.97ms     37.13ms       633us    51.76%
time for connect:      277us       380us       328us        51us    50.00%
time to 1st byte:    37.08ms     38.53ms     37.81ms       727us    50.00%
