h2load http://node-0:8080/64mb -p h2c -t 1 -c 16 -m 32 -n 512 -T 30m
starting benchmark...
spawning thread #0: 16 total client(s). 512 total requests
Application protocol: h2c
progress: 9% done
progress: 19% done
progress: 29% done
progress: 39% done
progress: 49% done
progress: 59% done
progress: 69% done
progress: 79% done
progress: 89% done
progress: 99% done

finished in 28.61s, 17.89 req/s, 1.12GB/s
requests: 512 total, 512 started, 512 done, 512 succeeded, 0 failed, 0 errored, 0 timeout
status codes: 512 2xx, 0 3xx, 0 4xx, 0 5xx
traffic: 34378637497 bytes total, 19370 bytes headers (space savings 78.75%), 34359738368 bytes data
                     min         max         mean         sd        +/- sd
time for request:      3.22s      28.61s      20.88s       6.24s    74.02%
time for connect:      358us       429us       400us        15us    75.00%
time to 1st byte:    13.23ms    209.07ms     33.29ms     45.88ms    93.75%
