h2load http://node-0:8080/8mb -p h2c -t 1 -c 4 -m 128 -n 512 -T 30m
starting benchmark...
spawning thread #0: 4 total client(s). 512 total requests
Application protocol: h2c
progress: 9% done
progress: 19% done
progress: 29% done
progress: 39% done
progress: 49% done
progress: 59% done
progress: 69% done
progress: 79% done
progress: 89% done
progress: 99% done

finished in 5.56s, 92.16 req/s, 737.67MB/s
requests: 512 total, 512 started, 512 done, 512 succeeded, 0 failed, 0 errored, 0 timeout
status codes: 512 2xx, 0 3xx, 0 4xx, 0 5xx
traffic: 4297349461 bytes total, 18117 bytes headers (space savings 79.90%), 4294967296 bytes data
                     min         max         mean         sd        +/- sd
time for request:   208.85ms       5.55s       3.09s       1.59s    56.45%
time for connect:      293us       431us       359us        53us    50.00%
time to 1st byte:    11.47ms     15.74ms     13.40ms      1.60ms    50.00%
