h2load http://node-0:8080/1mb -p http/1.1 -t 1 -c 128 -m 1 -n 512
starting benchmark...
spawning thread #0: 128 total client(s). 512 total requests
Application protocol: http/1.1
progress: 9% done
progress: 19% done
progress: 29% done
progress: 39% done
progress: 49% done
progress: 59% done
progress: 69% done
progress: 79% done
progress: 89% done
progress: 99% done

finished in 2.22s, 227.73 req/s, 227.77MB/s
requests: 512 total, 508 started, 512 done, 506 succeeded, 6 failed, 6 errored, 0 timeout
status codes: 506 2xx, 0 3xx, 0 4xx, 0 5xx
traffic: 530685210 bytes total, 83996 bytes headers (space savings 0.00%), 530579456 bytes data
                     min         max         mean         sd        +/- sd
time for request:   101.11ms       1.61s    251.24ms    327.44ms    93.28%
time for connect:    50.18ms     50.61ms     50.38ms       103us    64.84%
time to 1st byte:   100.91ms       1.36s    385.21ms    486.08ms    83.59%
