h2load http://node-0:8080/1mb -p http/1.1 -t 1 -c 64 -m 1 -n 512
starting benchmark...
spawning thread #0: 64 total client(s). 512 total requests
Application protocol: http/1.1
progress: 9% done
progress: 19% done
progress: 29% done
progress: 39% done
progress: 49% done
progress: 59% done
progress: 69% done
progress: 79% done
progress: 89% done
progress: 99% done

finished in 1.31s, 384.54 req/s, 384.62MB/s
requests: 512 total, 506 started, 512 done, 505 succeeded, 7 failed, 7 errored, 0 timeout
status codes: 505 2xx, 0 3xx, 0 4xx, 0 5xx
traffic: 529636425 bytes total, 83830 bytes headers (space savings 0.00%), 529530880 bytes data
                     min         max         mean         sd        +/- sd
time for request:   101.02ms    551.60ms    130.34ms     73.77ms    87.33%
time for connect:    50.13ms     50.32ms     50.23ms        50us    60.94%
time to 1st byte:   100.73ms    349.95ms    109.82ms     43.13ms    96.88%
