h2load http://node-0:8080/8mb -p http/1.1 -t 1 -c 16 -m 1 -n 512
starting benchmark...
spawning thread #0: 16 total client(s). 512 total requests
Application protocol: http/1.1
progress: 9% done
progress: 19% done
progress: 29% done
progress: 39% done
progress: 49% done
progress: 59% done
progress: 69% done
progress: 79% done
progress: 89% done
progress: 99% done

finished in 6.12s, 83.61 req/s, 668.91MB/s
requests: 512 total, 512 started, 512 done, 512 succeeded, 0 failed, 0 errored, 0 timeout
status codes: 512 2xx, 0 3xx, 0 4xx, 0 5xx
traffic: 4295074304 bytes total, 84992 bytes headers (space savings 0.00%), 4294967296 bytes data
                     min         max         mean         sd        +/- sd
time for request:   156.24ms    858.25ms    183.38ms     87.39ms    96.88%
time for connect:    50.17ms     50.28ms     50.22ms        35us    50.00%
time to 1st byte:   100.96ms    352.60ms    148.17ms     98.18ms    81.25%
