h2load http://node-0:8080/128mb -p http/1.1 -t 1 -c 16 -m 1 -n 512
starting benchmark...
spawning thread #0: 16 total client(s). 512 total requests
Application protocol: http/1.1
progress: 9% done
progress: 19% done
progress: 29% done
progress: 39% done
progress: 49% done
progress: 59% done
progress: 69% done
progress: 79% done
progress: 89% done
progress: 99% done

finished in 73.73s, 6.94 req/s, 888.84MB/s
requests: 512 total, 512 started, 512 done, 512 succeeded, 0 failed, 0 errored, 0 timeout
status codes: 512 2xx, 0 3xx, 0 4xx, 0 5xx
traffic: 68719585280 bytes total, 86528 bytes headers (space savings 0.00%), 68719476736 bytes data
                     min         max         mean         sd        +/- sd
time for request:      2.27s       3.08s       2.30s    113.17ms    96.88%
time for connect:    50.21ms     50.37ms     50.26ms        37us    75.00%
time to 1st byte:   101.06ms    349.97ms    163.42ms    107.66ms    75.00%
