h2load http://node-0:8080/128mb -p h2c -t 1 -c 1 -m 128 -n 512
starting benchmark...
spawning thread #0: 1 total client(s). 512 total requests
Application protocol: h2c
progress: 9% done
progress: 19% done
progress: 29% done
progress: 39% done
progress: 49% done
progress: 59% done
progress: 69% done
progress: 79% done
progress: 89% done
progress: 99% done

finished in 179.12s, 2.86 req/s, 366.07MB/s
requests: 512 total, 512 started, 512 done, 512 succeeded, 0 failed, 0 errored, 0 timeout
status codes: 512 2xx, 0 3xx, 0 4xx, 0 5xx
traffic: 68757249030 bytes total, 18356 bytes headers (space savings 79.97%), 68719476736 bytes data
                     min         max         mean         sd        +/- sd
time for request:     21.81s      47.15s      41.46s       8.75s    82.42%
time for connect:      267us       267us       267us         0us   100.00%
time to 1st byte:    17.30ms     17.30ms     17.30ms         0us   100.00%
