h2load http://node-0:8080/128mb -p h2c -t 1 -c 1 -m 256 -n 512
starting benchmark...
spawning thread #0: 1 total client(s). 512 total requests
Application protocol: h2c
progress: 9% done
progress: 19% done
progress: 29% done
progress: 39% done
progress: 49% done
progress: 59% done
progress: 69% done
progress: 79% done
progress: 89% done
progress: 99% done

finished in 175.91s, 2.91 req/s, 372.75MB/s
requests: 512 total, 512 started, 512 done, 512 succeeded, 0 failed, 0 errored, 0 timeout
status codes: 512 2xx, 0 3xx, 0 4xx, 0 5xx
traffic: 68757248886 bytes total, 18149 bytes headers (space savings 80.20%), 68719476736 bytes data
                     min         max         mean         sd        +/- sd
time for request:     22.77s      90.60s      71.18s      24.03s    74.22%
time for connect:      258us       258us       258us         0us   100.00%
time to 1st byte:    25.45ms     25.45ms     25.45ms         0us   100.00%
