h2load http://node-0:8080/1mb -p h2c -t 1 -c 1 -m 8 -n 512
starting benchmark...
spawning thread #0: 1 total client(s). 512 total requests
Application protocol: h2c
progress: 9% done
progress: 19% done
progress: 29% done
progress: 39% done
progress: 49% done
progress: 59% done
progress: 69% done
progress: 79% done
progress: 89% done
progress: 99% done

finished in 823.82ms, 621.50 req/s, 621.86MB/s
requests: 512 total, 512 started, 512 done, 512 succeeded, 0 failed, 0 errored, 0 timeout
status codes: 512 2xx, 0 3xx, 0 4xx, 0 5xx
traffic: 537187456 bytes total, 16988 bytes headers (space savings 81.15%), 536870912 bytes data
                     min         max         mean         sd        +/- sd
time for request:     4.90ms     32.03ms     12.77ms      3.76ms    77.34%
time for connect:      271us       271us       271us         0us   100.00%
time to 1st byte:     1.95ms      1.95ms      1.95ms         0us   100.00%
