h2load http://node-1:8080/1mb -p h2c -t 1 -c 2 -m 64 -n 128 -T 30m
starting benchmark...
spawning thread #0: 2 total client(s). 128 total requests
Application protocol: h2c
progress: 9% done
progress: 18% done
progress: 28% done
progress: 37% done
progress: 46% done
progress: 56% done
progress: 65% done
progress: 75% done
progress: 84% done
progress: 93% done

finished in 246.53ms, 519.21 req/s, 519.52MB/s
requests: 128 total, 128 started, 128 done, 128 succeeded, 0 failed, 0 errored, 0 timeout
status codes: 128 2xx, 0 3xx, 0 4xx, 0 5xx
traffic: 134296912 bytes total, 4232 bytes headers (space savings 81.21%), 134217728 bytes data
                     min         max         mean         sd        +/- sd
time for request:   241.51ms    244.93ms    243.48ms      1.16ms    58.59%
time for connect:      263us       279us       271us         8us   100.00%
time to 1st byte:    20.63ms     23.41ms     22.02ms      1.39ms    50.00%
