h2load http://node-1:8080/128mb -p h2c -t 1 -c 4 -m 32 -n 128 -T 30m
starting benchmark...
spawning thread #0: 4 total client(s). 128 total requests
Application protocol: h2c
progress: 9% done
progress: 18% done
progress: 28% done
progress: 37% done
progress: 46% done
progress: 56% done
progress: 65% done
progress: 75% done
progress: 84% done
progress: 93% done

finished in 17.14s, 7.47 req/s, 956.62MB/s
requests: 128 total, 128 started, 128 done, 128 succeeded, 0 failed, 0 errored, 0 timeout
status codes: 128 2xx, 0 3xx, 0 4xx, 0 5xx
traffic: 17189312515 bytes total, 4752 bytes headers (space savings 79.26%), 17179869184 bytes data
                     min         max         mean         sd        +/- sd
time for request:      1.90s      17.13s      12.90s       3.78s    62.50%
time for connect:      197us       221us       207us         8us    50.00%
time to 1st byte:     6.47ms     11.58ms      9.70ms      2.10ms    75.00%
