h2load http://node-1:8080/128mb -p h2c -t 1 -c 2 -m 64 -n 128 -T 30m
starting benchmark...
spawning thread #0: 2 total client(s). 128 total requests
Application protocol: h2c
progress: 9% done
progress: 18% done
progress: 28% done
progress: 37% done
progress: 46% done
progress: 56% done
progress: 65% done
progress: 75% done
progress: 84% done
progress: 93% done

finished in 34.18s, 3.74 req/s, 479.59MB/s
requests: 128 total, 128 started, 128 done, 128 succeeded, 0 failed, 0 errored, 0 timeout
status codes: 128 2xx, 0 3xx, 0 4xx, 0 5xx
traffic: 17189312439 bytes total, 4685 bytes headers (space savings 79.55%), 17179869184 bytes data
                     min         max         mean         sd        +/- sd
time for request:     17.31s      34.18s      25.48s       7.95s    27.34%
time for connect:      287us       303us       295us         8us   100.00%
time to 1st byte:    25.19ms     25.66ms     25.43ms       234us   100.00%
