h2load http://node-0:8080/1kb -p h2c -t 1 -c 64 -m 8 -n 512
starting benchmark...
spawning thread #0: 64 total client(s). 512 total requests
Application protocol: h2c
progress: 9% done
progress: 19% done
progress: 29% done
progress: 39% done
progress: 49% done
progress: 59% done
progress: 69% done
progress: 79% done
progress: 89% done
progress: 99% done

finished in 1.00s, 511.99 req/s, 542.05KB/s
requests: 512 total, 512 started, 512 done, 512 succeeded, 0 failed, 0 errored, 0 timeout
status codes: 512 2xx, 0 3xx, 0 4xx, 0 5xx
traffic: 555072 bytes total, 19264 bytes headers (space savings 77.87%), 524288 bytes data
                     min         max         mean         sd        +/- sd
time for request:     1.19ms    203.10ms     10.39ms     24.53ms    98.44%
time for connect:      791us    996.61ms     32.16ms    173.22ms    96.88%
time to 1st byte:     3.58ms    997.92ms     43.86ms    173.09ms    96.88%
