h2load http://node-0:8080/1mb -p h2c -t 1 -c 128 -m 4 -n 512
starting benchmark...
spawning thread #0: 128 total client(s). 512 total requests
Application protocol: h2c
progress: 9% done
progress: 19% done
progress: 29% done
progress: 39% done
progress: 49% done
progress: 59% done
progress: 69% done
progress: 79% done
progress: 89% done
progress: 99% done

finished in 1.01s, 507.80 req/s, 508.11MB/s
requests: 512 total, 512 started, 512 done, 512 succeeded, 0 failed, 0 errored, 0 timeout
status codes: 512 2xx, 0 3xx, 0 4xx, 0 5xx
traffic: 537200768 bytes total, 25728 bytes headers (space savings 71.45%), 536870912 bytes data
                     min         max         mean         sd        +/- sd
time for request:     3.52ms    843.14ms    308.77ms    163.13ms    86.52%
time for connect:     1.59ms    996.04ms     18.13ms    123.21ms    98.44%
time to 1st byte:     5.34ms    997.06ms    144.27ms    241.32ms    83.59%
