h2load http://node-0:8080/128mb -p h2c -t 1 -c 64 -m 8 -n 512
starting benchmark...
spawning thread #0: 64 total client(s). 512 total requests
Application protocol: h2c
progress: 9% done
progress: 19% done
progress: 29% done
progress: 39% done
progress: 49% done
progress: 59% done
progress: 69% done
progress: 79% done
progress: 89% done
progress: 99% done

finished in 55.75s, 9.18 req/s, 1.15GB/s
requests: 512 total, 512 started, 512 done, 512 succeeded, 0 failed, 0 errored, 0 timeout
status codes: 512 2xx, 0 3xx, 0 4xx, 0 5xx
traffic: 68757255691 bytes total, 23307 bytes headers (space savings 74.57%), 68719476736 bytes data
                     min         max         mean         sd        +/- sd
time for request:      6.65s      55.49s      34.31s      15.04s    55.47%
time for connect:      768us       1.00s     63.68ms    242.54ms    93.75%
time to 1st byte:     3.76ms      14.60s    298.28ms       1.81s    98.44%
