h2load http://node-0:8080/128mb -p h2c -t 1 -c 256 -m 2 -n 512
starting benchmark...
spawning thread #0: 256 total client(s). 512 total requests
Application protocol: h2c
progress: 9% done
progress: 19% done
progress: 29% done
progress: 39% done
progress: 49% done
progress: 59% done
progress: 69% done
progress: 79% done
progress: 89% done
progress: 99% done

finished in 86.73s, 5.88 req/s, 753.05MB/s
requests: 512 total, 512 started, 512 done, 510 succeeded, 2 failed, 2 errored, 0 timeout
status codes: 512 2xx, 0 3xx, 0 4xx, 0 5xx
traffic: 68488761793 bytes total, 35328 bytes headers (space savings 61.45%), 68451111316 bytes data
                     min         max         mean         sd        +/- sd
time for request:     16.24s      55.38s      44.01s      11.21s    79.41%
time for connect:     3.09ms       1.01s     15.91ms    108.45ms    98.83%
time to 1st byte:     8.80ms      26.68s       2.65s       6.10s    91.02%
