h2load http://node-0:8080/64mb -p h2c -t 1 -c 16 -m 32 -n 512
starting benchmark...
spawning thread #0: 16 total client(s). 512 total requests
Application protocol: h2c
progress: 9% done
progress: 19% done
progress: 29% done
progress: 39% done
progress: 49% done
progress: 59% done
progress: 69% done
progress: 79% done
progress: 89% done
progress: 99% done

finished in 27.83s, 18.40 req/s, 1.15GB/s
requests: 512 total, 512 started, 512 done, 512 succeeded, 0 failed, 0 errored, 0 timeout
status codes: 512 2xx, 0 3xx, 0 4xx, 0 5xx
traffic: 34378637649 bytes total, 19531 bytes headers (space savings 78.57%), 34359738368 bytes data
                     min         max         mean         sd        +/- sd
time for request:   862.25ms      27.83s      21.14s       6.78s    80.86%
time for connect:      336us       402us       364us        23us    56.25%
time to 1st byte:    11.23ms     31.19ms     17.92ms      5.19ms    81.25%
