h2load http://node-0:8080/64mb -p h2c -t 1 -c 4 -m 128 -n 512
starting benchmark...
spawning thread #0: 4 total client(s). 512 total requests
Application protocol: h2c
progress: 9% done
progress: 19% done
progress: 29% done
progress: 39% done
progress: 49% done
progress: 59% done
progress: 69% done
progress: 79% done
progress: 89% done
progress: 99% done

finished in 35.47s, 14.43 req/s, 924.23MB/s
requests: 512 total, 512 started, 512 done, 512 succeeded, 0 failed, 0 errored, 0 timeout
status codes: 512 2xx, 0 3xx, 0 4xx, 0 5xx
traffic: 34378636668 bytes total, 18991 bytes headers (space savings 79.16%), 34359738368 bytes data
                     min         max         mean         sd        +/- sd
time for request:      1.47s      35.47s      19.73s       8.93s    62.89%
time for connect:      262us       323us       288us        21us    50.00%
time to 1st byte:    14.64ms     31.07ms     19.60ms      6.66ms    75.00%
