h2load http://node-0:8080/8mb -p h2c -t 1 -c 32 -m 16 -n 512
starting benchmark...
spawning thread #0: 32 total client(s). 512 total requests
Application protocol: h2c
progress: 9% done
progress: 19% done
progress: 29% done
progress: 39% done
progress: 49% done
progress: 59% done
progress: 69% done
progress: 79% done
progress: 89% done
progress: 99% done

finished in 3.52s, 145.45 req/s, 1.14GB/s
requests: 512 total, 512 started, 512 done, 512 succeeded, 0 failed, 0 errored, 0 timeout
status codes: 512 2xx, 0 3xx, 0 4xx, 0 5xx
traffic: 4297352281 bytes total, 19929 bytes headers (space savings 77.88%), 4294967296 bytes data
                     min         max         mean         sd        +/- sd
time for request:   452.09ms       3.45s       3.10s    574.38ms    86.33%
time for connect:      466us       1.00s     31.85ms    174.48ms    96.88%
time to 1st byte:     6.30ms       1.01s     53.93ms    175.19ms    96.88%
