h2load http://node-0:8080/128mb -p h2c -t 1 -c 8 -m 64 -n 512
starting benchmark...
spawning thread #0: 8 total client(s). 512 total requests
Application protocol: h2c
progress: 9% done
progress: 19% done
progress: 29% done
progress: 39% done
progress: 49% done
progress: 59% done
progress: 69% done
progress: 79% done
progress: 89% done
progress: 99% done

finished in 60.68s, 8.44 req/s, 1.06GB/s
requests: 512 total, 512 started, 512 done, 512 succeeded, 0 failed, 0 errored, 0 timeout
status codes: 512 2xx, 0 3xx, 0 4xx, 0 5xx
traffic: 68757250342 bytes total, 19407 bytes headers (space savings 78.82%), 68719476736 bytes data
                     min         max         mean         sd        +/- sd
time for request:      1.83s      60.68s      37.17s      14.80s    70.12%
time for connect:      264us       374us       311us        35us    75.00%
time to 1st byte:    10.52ms     15.93ms     13.23ms      2.11ms    50.00%
