h2load http://node-0:8080/64mb -p h2c -t 1 -c 128 -m 4 -n 512
starting benchmark...
spawning thread #0: 128 total client(s). 512 total requests
Application protocol: h2c
progress: 9% done
progress: 19% done
progress: 29% done
progress: 39% done
progress: 49% done
progress: 59% done
progress: 69% done
progress: 79% done
progress: 89% done
progress: 99% done

finished in 27.80s, 18.42 req/s, 1.15GB/s
requests: 512 total, 512 started, 512 done, 512 succeeded, 0 failed, 0 errored, 0 timeout
status codes: 512 2xx, 0 3xx, 0 4xx, 0 5xx
traffic: 34378648064 bytes total, 26112 bytes headers (space savings 71.35%), 34359738368 bytes data
                     min         max         mean         sd        +/- sd
time for request:      6.82s      27.79s      20.26s       6.81s    54.88%
time for connect:     1.63ms      3.33ms      2.55ms       635us    48.44%
time to 1st byte:     4.98ms    429.75ms     78.40ms    120.59ms    77.34%
