h2load http://node-0:8080/128kb -p h2c -t 1 -c 128 -m 4 -n 512 -T 30m
starting benchmark...
spawning thread #0: 128 total client(s). 512 total requests
Application protocol: h2c
progress: 9% done
progress: 19% done
progress: 29% done
progress: 39% done
progress: 49% done
progress: 59% done
progress: 69% done
progress: 79% done
progress: 89% done
progress: 99% done

finished in 423.83ms, 1208.03 req/s, 151.16MB/s
requests: 512 total, 512 started, 512 done, 512 succeeded, 0 failed, 0 errored, 0 timeout
status codes: 512 2xx, 0 3xx, 0 4xx, 0 5xx
traffic: 67179520 bytes total, 24576 bytes headers (space savings 72.41%), 67108864 bytes data
                     min         max         mean         sd        +/- sd
time for request:     4.01ms    416.14ms     88.63ms    120.85ms    90.63%
time for connect:     1.51ms      3.71ms      2.60ms       807us    40.63%
time to 1st byte:     5.09ms    417.31ms     81.60ms    124.87ms    82.81%
