h2load http://node-0:8080/16kb -p h2c -t 1 -c 4 -m 128 -n 512 -T 30m
starting benchmark...
spawning thread #0: 4 total client(s). 512 total requests
Application protocol: h2c
progress: 9% done
progress: 19% done
progress: 29% done
progress: 39% done
progress: 49% done
progress: 59% done
progress: 69% done
progress: 79% done
progress: 89% done
progress: 99% done

finished in 33.22ms, 15413.33 req/s, 241.57MB/s
requests: 512 total, 512 started, 512 done, 512 succeeded, 0 failed, 0 errored, 0 timeout
status codes: 512 2xx, 0 3xx, 0 4xx, 0 5xx
traffic: 8414112 bytes total, 16144 bytes headers (space savings 81.67%), 8388608 bytes data
                     min         max         mean         sd        +/- sd
time for request:    16.28ms     30.65ms     24.09ms      5.10ms    49.22%
time for connect:      296us       421us       356us        48us    50.00%
time to 1st byte:    16.87ms     28.77ms     23.12ms      5.10ms    50.00%
