h2load http://node-0:8080/64mb -p h2c -t 1 -c 16 -m 32 -n 512 -T 30m
starting benchmark...
spawning thread #0: 16 total client(s). 512 total requests
Application protocol: h2c
progress: 9% done
progress: 19% done
progress: 29% done
progress: 39% done
progress: 49% done
progress: 59% done
progress: 69% done
progress: 79% done
progress: 89% done
progress: 99% done

finished in 28.33s, 18.07 req/s, 1.13GB/s
requests: 512 total, 512 started, 512 done, 512 succeeded, 0 failed, 0 errored, 0 timeout
status codes: 512 2xx, 0 3xx, 0 4xx, 0 5xx
traffic: 34378637087 bytes total, 18933 bytes headers (space savings 79.23%), 34359738368 bytes data
                     min         max         mean         sd        +/- sd
time for request:      8.42s      28.33s      22.19s       4.92s    81.84%
time for connect:      334us       398us       360us        20us    62.50%
time to 1st byte:     9.76ms     20.38ms     15.90ms      3.78ms    56.25%
