h2load http://node-0:8080/1kb -p h2c -t 1 -c 64 -m 8 -n 512 -T 30m
starting benchmark...
spawning thread #0: 64 total client(s). 512 total requests
Application protocol: h2c
progress: 9% done
progress: 19% done
progress: 29% done
progress: 39% done
progress: 49% done
progress: 59% done
progress: 69% done
progress: 79% done
progress: 89% done
progress: 99% done

finished in 206.29ms, 2481.91 req/s, 2.57MB/s
requests: 512 total, 512 started, 512 done, 512 succeeded, 0 failed, 0 errored, 0 timeout
status codes: 512 2xx, 0 3xx, 0 4xx, 0 5xx
traffic: 555072 bytes total, 19264 bytes headers (space savings 77.87%), 524288 bytes data
                     min         max         mean         sd        +/- sd
time for request:     2.08ms    201.44ms     16.33ms     33.48ms    96.88%
time for connect:      763us      1.53ms      1.09ms       293us    56.25%
time to 1st byte:     4.72ms    204.11ms     18.73ms     33.52ms    96.88%
