h2load http://node-0:8080/8mb -p h2c -t 1 -c 512 -m 1 -n 512 -T 30m
starting benchmark...
spawning thread #0: 512 total client(s). 512 total requests
Application protocol: h2c
progress: 9% done
progress: 19% done
progress: 29% done
progress: 39% done
progress: 49% done
progress: 59% done
progress: 69% done
progress: 79% done
progress: 89% done
progress: 99% done

finished in 3.56s, 143.80 req/s, 1.12GB/s
requests: 512 total, 512 started, 512 done, 512 succeeded, 0 failed, 0 errored, 0 timeout
status codes: 512 2xx, 0 3xx, 0 4xx, 0 5xx
traffic: 4297401856 bytes total, 52224 bytes headers (space savings 42.05%), 4294967296 bytes data
                     min         max         mean         sd        +/- sd
time for request:   292.30ms       3.54s       2.12s    994.74ms    58.40%
time for connect:     6.95ms       3.01s    324.59ms    752.73ms    94.14%
time to 1st byte:    15.32ms       3.22s    778.29ms    882.57ms    86.72%
