h2load http://node-0:8080/8mb -p h2c -t 1 -c 4 -m 128 -n 512 -T 30m
starting benchmark...
spawning thread #0: 4 total client(s). 512 total requests
Application protocol: h2c
progress: 9% done
progress: 19% done
progress: 29% done
progress: 39% done
progress: 49% done
progress: 59% done
progress: 69% done
progress: 79% done
progress: 89% done
progress: 99% done

finished in 3.62s, 141.54 req/s, 1.11GB/s
requests: 512 total, 512 started, 512 done, 512 succeeded, 0 failed, 0 errored, 0 timeout
status codes: 512 2xx, 0 3xx, 0 4xx, 0 5xx
traffic: 4297349208 bytes total, 17864 bytes headers (space savings 80.18%), 4294967296 bytes data
                     min         max         mean         sd        +/- sd
time for request:   905.07ms       3.61s       2.39s    904.31ms    63.87%
time for connect:      321us       454us       383us        50us    50.00%
time to 1st byte:    14.76ms     17.87ms     16.24ms      1.44ms    50.00%
