h2load http://node-0:8080/128kb -p h2c -t 1 -c 512 -m 1 -n 512 -T 30m
starting benchmark...
spawning thread #0: 512 total client(s). 512 total requests
Application protocol: h2c
progress: 9% done
progress: 19% done
progress: 29% done
progress: 39% done
progress: 49% done
progress: 59% done
progress: 69% done
progress: 79% done
progress: 89% done
progress: 99% done

finished in 3.29s, 155.63 req/s, 19.49MB/s
requests: 512 total, 512 started, 512 done, 512 succeeded, 0 failed, 0 errored, 0 timeout
status codes: 512 2xx, 0 3xx, 0 4xx, 0 5xx
traffic: 67219456 bytes total, 50688 bytes headers (space savings 43.10%), 67108864 bytes data
                     min         max         mean         sd        +/- sd
time for request:     2.05ms       3.27s    231.34ms    517.30ms    91.60%
time for connect:     6.35ms       1.00s    183.90ms    378.25ms    82.23%
time to 1st byte:    14.47ms       3.28s    411.99ms    591.30ms    89.26%
