h2load http://node-0:8080/8mb -p h2c -t 1 -c 256 -m 2 -n 512 -T 30m
starting benchmark...
spawning thread #0: 256 total client(s). 512 total requests
Application protocol: h2c
progress: 9% done
progress: 19% done
progress: 29% done
progress: 39% done
progress: 49% done
progress: 59% done
progress: 69% done
progress: 79% done
progress: 89% done
progress: 99% done

finished in 13.39s, 38.25 req/s, 306.18MB/s
requests: 512 total, 512 started, 512 done, 512 succeeded, 0 failed, 0 errored, 0 timeout
status codes: 512 2xx, 0 3xx, 0 4xx, 0 5xx
traffic: 4297375232 bytes total, 34816 bytes headers (space savings 61.36%), 4294967296 bytes data
                     min         max         mean         sd        +/- sd
time for request:   838.10ms      13.37s       2.74s       1.63s    88.09%
time for connect:     3.31ms      7.37ms      4.73ms      1.36ms    72.66%
time to 1st byte:    10.24ms      13.34s    966.26ms       2.05s    87.11%
