h2load http://node-0:8080/64mb -p h2c -t 1 -c 128 -m 4 -n 512 -T 30m
starting benchmark...
spawning thread #0: 128 total client(s). 512 total requests
Application protocol: h2c
progress: 9% done
progress: 19% done
progress: 29% done
progress: 39% done
progress: 49% done
progress: 59% done
progress: 69% done
progress: 79% done
progress: 89% done
progress: 99% done

finished in 27.80s, 18.42 req/s, 1.15GB/s
requests: 512 total, 512 started, 512 done, 512 succeeded, 0 failed, 0 errored, 0 timeout
status codes: 512 2xx, 0 3xx, 0 4xx, 0 5xx
traffic: 34378648064 bytes total, 26112 bytes headers (space savings 71.35%), 34359738368 bytes data
                     min         max         mean         sd        +/- sd
time for request:      6.78s      27.80s      20.25s       6.67s    56.64%
time for connect:     1.48ms      3.75ms      2.60ms       837us    39.84%
time to 1st byte:     5.20ms    869.86ms    115.80ms    216.84ms    86.72%
