h2load http://node-0:8080/128mb -p h2c -t 1 -c 256 -m 2 -n 512 -T 30m
starting benchmark...
spawning thread #0: 256 total client(s). 512 total requests
Application protocol: h2c
progress: 9% done
progress: 19% done
progress: 29% done
progress: 39% done
progress: 49% done
progress: 59% done
progress: 69% done
progress: 79% done
progress: 89% done
progress: 99% done

finished in 55.61s, 9.21 req/s, 1.15GB/s
requests: 512 total, 512 started, 512 done, 512 succeeded, 0 failed, 0 errored, 0 timeout
status codes: 512 2xx, 0 3xx, 0 4xx, 0 5xx
traffic: 68757274624 bytes total, 35328 bytes headers (space savings 61.45%), 68719476736 bytes data
                     min         max         mean         sd        +/- sd
time for request:     16.35s      55.60s      45.17s      11.03s    78.71%
time for connect:     3.24ms      7.64ms      4.88ms      1.46ms    66.41%
time to 1st byte:    10.63ms      13.36s    724.23ms       1.72s    90.63%
