h2load http://node-0:8080/128mb -p h2c -t 1 -c 8 -m 64 -n 512 -T 30m
starting benchmark...
spawning thread #0: 8 total client(s). 512 total requests
Application protocol: h2c
progress: 9% done
progress: 19% done
progress: 29% done
progress: 39% done
progress: 49% done
progress: 59% done
progress: 69% done
progress: 79% done
progress: 89% done
progress: 99% done

finished in 59.47s, 8.61 req/s, 1.08GB/s
requests: 512 total, 512 started, 512 done, 512 succeeded, 0 failed, 0 errored, 0 timeout
status codes: 512 2xx, 0 3xx, 0 4xx, 0 5xx
traffic: 68757249849 bytes total, 18878 bytes headers (space savings 79.40%), 68719476736 bytes data
                     min         max         mean         sd        +/- sd
time for request:     12.26s      59.46s      39.37s      13.88s    64.26%
time for connect:      257us       374us       309us        39us    50.00%
time to 1st byte:    12.86ms     19.56ms     14.74ms      1.97ms    87.50%
