h2load http://node-0:8080/1kb -p h2c -t 1 -c 256 -m 2 -n 512 -T 30m
starting benchmark...
spawning thread #0: 256 total client(s). 512 total requests
Application protocol: h2c
progress: 9% done
progress: 19% done
progress: 29% done
progress: 39% done
progress: 49% done
progress: 59% done
progress: 69% done
progress: 79% done
progress: 89% done
progress: 99% done

finished in 1.64s, 312.08 req/s, 342.41KB/s
requests: 512 total, 512 started, 512 done, 512 succeeded, 0 failed, 0 errored, 0 timeout
status codes: 512 2xx, 0 3xx, 0 4xx, 0 5xx
traffic: 575232 bytes total, 32512 bytes headers (space savings 62.65%), 524288 bytes data
                     min         max         mean         sd        +/- sd
time for request:     2.10ms       1.63s    159.14ms    354.87ms    91.80%
time for connect:     3.21ms      7.59ms      4.85ms      1.45ms    66.41%
time to 1st byte:    10.58ms       1.64s    167.03ms    354.30ms    91.80%
