h2load http://node-0:8080/64mb -p h2c -t 1 -c 32 -m 16 -n 512 -T 30m
starting benchmark...
spawning thread #0: 32 total client(s). 512 total requests
Application protocol: h2c
progress: 9% done
progress: 19% done
progress: 29% done
progress: 39% done
progress: 49% done
progress: 59% done
progress: 69% done
progress: 79% done
progress: 89% done
progress: 99% done

finished in 28.12s, 18.21 req/s, 1.14GB/s
requests: 512 total, 512 started, 512 done, 512 succeeded, 0 failed, 0 errored, 0 timeout
status codes: 512 2xx, 0 3xx, 0 4xx, 0 5xx
traffic: 34378639823 bytes total, 21309 bytes headers (space savings 76.62%), 34359738368 bytes data
                     min         max         mean         sd        +/- sd
time for request:      1.63s      28.11s      18.78s       7.66s    57.81%
time for connect:      497us       582us       523us        16us    71.88%
time to 1st byte:     3.47ms      10.90s    358.79ms       1.89s    96.88%
