h2load http://node-0:8080/128mb -p h2c -t 1 -c 512 -m 1 -n 512 -T 30m
starting benchmark...
spawning thread #0: 512 total client(s). 512 total requests
Application protocol: h2c
progress: 9% done
progress: 19% done
progress: 29% done
progress: 39% done
progress: 49% done
progress: 59% done
progress: 69% done
progress: 79% done
progress: 89% done
progress: 99% done

finished in 56.46s, 9.07 req/s, 1.13GB/s
requests: 512 total, 512 started, 512 done, 512 succeeded, 0 failed, 0 errored, 0 timeout
status codes: 512 2xx, 0 3xx, 0 4xx, 0 5xx
traffic: 68757301248 bytes total, 52736 bytes headers (space savings 42.46%), 68719476736 bytes data
                     min         max         mean         sd        +/- sd
time for request:     11.30s      56.44s      39.23s      11.43s    61.52%
time for connect:     6.64ms      31.07s       1.33s       4.01s    91.60%
time to 1st byte:    14.54ms      32.98s       6.18s      11.17s    81.25%
