h2load http://node-1:8080/64mb -p h2c -t 1 -c 4 -m 32 -n 128 -T 30m
starting benchmark...
spawning thread #0: 4 total client(s). 128 total requests
Application protocol: h2c
progress: 9% done
progress: 18% done
progress: 28% done
progress: 37% done
progress: 46% done
progress: 56% done
progress: 65% done
progress: 75% done
progress: 84% done
progress: 93% done

finished in 8.04s, 15.93 req/s, 1019.85MB/s
requests: 128 total, 128 started, 128 done, 128 succeeded, 0 failed, 0 errored, 0 timeout
status codes: 128 2xx, 0 3xx, 0 4xx, 0 5xx
traffic: 8594659295 bytes total, 4752 bytes headers (space savings 79.14%), 8589934592 bytes data
                     min         max         mean         sd        +/- sd
time for request:      4.87s       8.03s       7.48s    596.32ms    78.91%
time for connect:      308us       352us       320us        18us    75.00%
time to 1st byte:    12.60ms     14.13ms     13.45ms       576us    50.00%
