h2load http://node-1:8080/128kb -p h2c -t 1 -c 2 -m 64 -n 128 -T 30m
starting benchmark...
spawning thread #0: 2 total client(s). 128 total requests
Application protocol: h2c
progress: 9% done
progress: 18% done
progress: 28% done
progress: 37% done
progress: 46% done
progress: 56% done
progress: 65% done
progress: 75% done
progress: 84% done
progress: 93% done

finished in 36.28ms, 3528.31 req/s, 441.42MB/s
requests: 128 total, 128 started, 128 done, 128 succeeded, 0 failed, 0 errored, 0 timeout
status codes: 128 2xx, 0 3xx, 0 4xx, 0 5xx
traffic: 16791760 bytes total, 4104 bytes headers (space savings 81.57%), 16777216 bytes data
                     min         max         mean         sd        +/- sd
time for request:    27.75ms     34.44ms     30.00ms      2.55ms    57.03%
time for connect:      362us       396us       379us        17us   100.00%
time to 1st byte:    13.39ms     16.45ms     14.92ms      1.53ms   100.00%
