h2load http://node-1:8080/1mb -p h2c -t 1 -c 4 -m 32 -n 128 -T 30m
starting benchmark...
spawning thread #0: 4 total client(s). 128 total requests
Application protocol: h2c
progress: 9% done
progress: 18% done
progress: 28% done
progress: 37% done
progress: 46% done
progress: 56% done
progress: 65% done
progress: 75% done
progress: 84% done
progress: 93% done

finished in 141.59ms, 904.00 req/s, 904.53MB/s
requests: 128 total, 128 started, 128 done, 128 succeeded, 0 failed, 0 errored, 0 timeout
status codes: 128 2xx, 0 3xx, 0 4xx, 0 5xx
traffic: 134297120 bytes total, 4368 bytes headers (space savings 80.61%), 134217728 bytes data
                     min         max         mean         sd        +/- sd
time for request:   119.70ms    139.98ms    131.11ms      8.58ms    64.84%
time for connect:      276us       319us       288us        17us    75.00%
time to 1st byte:     8.85ms     13.50ms     11.26ms      1.98ms    50.00%
