h2load http://node-1:8080/128mb -p h2c -t 1 -c 16 -m 8 -n 128 -T 30m
starting benchmark...
spawning thread #0: 16 total client(s). 128 total requests
Application protocol: h2c
progress: 9% done
progress: 18% done
progress: 28% done
progress: 37% done
progress: 46% done
progress: 56% done
progress: 65% done
progress: 75% done
progress: 84% done
progress: 93% done

finished in 14.64s, 8.74 req/s, 1.09GB/s
requests: 128 total, 128 started, 128 done, 128 succeeded, 0 failed, 0 errored, 0 timeout
status codes: 128 2xx, 0 3xx, 0 4xx, 0 5xx
traffic: 17189313664 bytes total, 5568 bytes headers (space savings 75.70%), 17179869184 bytes data
                     min         max         mean         sd        +/- sd
time for request:      1.73s      14.64s       8.71s       3.67s    60.16%
time for connect:      318us       553us       418us        68us    50.00%
time to 1st byte:     4.65ms     13.13ms      9.53ms      3.22ms    68.75%
