h2load http://node-0:8080/128kb -p h2c -t 1 -c 4 -m 128 -n 512 -T 30m
starting benchmark...
spawning thread #0: 4 total client(s). 512 total requests
Application protocol: h2c
progress: 9% done
progress: 19% done
progress: 29% done
progress: 39% done
progress: 49% done
progress: 59% done
progress: 69% done
progress: 79% done
progress: 89% done
progress: 99% done

finished in 113.98ms, 4492.17 req/s, 562.01MB/s
requests: 512 total, 512 started, 512 done, 512 succeeded, 0 failed, 0 errored, 0 timeout
status codes: 512 2xx, 0 3xx, 0 4xx, 0 5xx
traffic: 67166624 bytes total, 16144 bytes headers (space savings 81.88%), 67108864 bytes data
                     min         max         mean         sd        +/- sd
time for request:    73.77ms    111.74ms     97.04ms     14.46ms    70.51%
time for connect:      265us       377us       327us        42us    50.00%
time to 1st byte:    58.23ms     72.80ms     65.50ms      7.15ms    50.00%
