h2load http://node-0:8080/128mb -p h2c -t 1 -c 128 -m 4 -n 512 -T 30m
starting benchmark...
spawning thread #0: 128 total client(s). 512 total requests
Application protocol: h2c
progress: 9% done
progress: 19% done
progress: 29% done
progress: 39% done
progress: 49% done
progress: 59% done
progress: 69% done
progress: 79% done
progress: 89% done
progress: 99% done

finished in 55.59s, 9.21 req/s, 1.15GB/s
requests: 512 total, 512 started, 512 done, 512 succeeded, 0 failed, 0 errored, 0 timeout
status codes: 512 2xx, 0 3xx, 0 4xx, 0 5xx
traffic: 68757261312 bytes total, 26624 bytes headers (space savings 70.95%), 68719476736 bytes data
                     min         max         mean         sd        +/- sd
time for request:     13.77s      55.57s      40.43s      13.41s    57.03%
time for connect:     1.71ms       1.01s     18.52ms    124.95ms    98.44%
time to 1st byte:     5.57ms       1.03s     75.22ms    148.55ms    95.31%
