h2load http://node-0:8080/1mb -p h2c -t 1 -c 2 -m 256 -n 512 -T 30m
starting benchmark...
spawning thread #0: 2 total client(s). 512 total requests
Application protocol: h2c
progress: 9% done
progress: 19% done
progress: 29% done
progress: 39% done
progress: 49% done
progress: 59% done
progress: 69% done
progress: 79% done
progress: 89% done
progress: 99% done

finished in 759.64ms, 674.01 req/s, 674.40MB/s
requests: 512 total, 512 started, 512 done, 512 succeeded, 0 failed, 0 errored, 0 timeout
status codes: 512 2xx, 0 3xx, 0 4xx, 0 5xx
traffic: 537187584 bytes total, 17080 bytes headers (space savings 81.05%), 536870912 bytes data
                     min         max         mean         sd        +/- sd
time for request:   196.34ms    757.10ms    471.15ms    198.67ms    51.56%
time for connect:      292us       379us       335us        43us    50.00%
time to 1st byte:    18.66ms     19.48ms     19.07ms       411us   100.00%
