h2load http://node-0:8080/8mb -p h2c -t 1 -c 4 -m 128 -n 512 -T 30m
starting benchmark...
spawning thread #0: 4 total client(s). 512 total requests
Application protocol: h2c
progress: 9% done
progress: 19% done
progress: 29% done
progress: 39% done
progress: 49% done
progress: 59% done
progress: 69% done
progress: 79% done
progress: 89% done
progress: 99% done

finished in 3.64s, 140.74 req/s, 1.10GB/s
requests: 512 total, 512 started, 512 done, 512 succeeded, 0 failed, 0 errored, 0 timeout
status codes: 512 2xx, 0 3xx, 0 4xx, 0 5xx
traffic: 4297349277 bytes total, 17933 bytes headers (space savings 80.10%), 4294967296 bytes data
                     min         max         mean         sd        +/- sd
time for request:   903.91ms       3.64s       2.21s    933.80ms    53.52%
time for connect:      310us       427us       363us        45us    50.00%
time to 1st byte:    13.76ms     14.23ms     13.99ms       169us    50.00%
