h2load http://node-0:8080/1mb -p h2c -t 1 -c 4 -m 128 -n 512 -T 30m
starting benchmark...
spawning thread #0: 4 total client(s). 512 total requests
Application protocol: h2c
progress: 9% done
progress: 19% done
progress: 29% done
progress: 39% done
progress: 49% done
progress: 59% done
progress: 69% done
progress: 79% done
progress: 89% done
progress: 99% done

finished in 532.46ms, 961.58 req/s, 962.15MB/s
requests: 512 total, 512 started, 512 done, 512 succeeded, 0 failed, 0 errored, 0 timeout
status codes: 512 2xx, 0 3xx, 0 4xx, 0 5xx
traffic: 537187794 bytes total, 17218 bytes headers (space savings 80.89%), 536870912 bytes data
                     min         max         mean         sd        +/- sd
time for request:    99.89ms    529.67ms    318.11ms    130.34ms    64.26%
time for connect:      314us       439us       372us        48us    50.00%
time to 1st byte:    11.42ms     15.73ms     13.96ms      1.57ms    50.00%
