h2load http://node-0:8080/128mb -p h2c -t 1 -c 1 -m 512 -n 512
starting benchmark...
spawning thread #0: 1 total client(s). 512 total requests
Application protocol: h2c
progress: 9% done
progress: 19% done
progress: 29% done
progress: 39% done
progress: 49% done
progress: 59% done
progress: 69% done
progress: 79% done
progress: 89% done
progress: 99% done

finished in 175.21s, 2.92 req/s, 374.25MB/s
requests: 512 total, 512 started, 512 done, 512 succeeded, 0 failed, 0 errored, 0 timeout
status codes: 512 2xx, 0 3xx, 0 4xx, 0 5xx
traffic: 68757249003 bytes total, 18149 bytes headers (space savings 80.20%), 68719476736 bytes data
                     min         max         mean         sd        +/- sd
time for request:     22.96s     175.21s      99.64s      49.49s    51.56%
time for connect:      359us       359us       359us         0us   100.00%
time to 1st byte:    29.27ms     29.27ms     29.27ms         0us   100.00%
