h2load http://node-0:8080/64mb -p h2c -t 1 -c 1 -m 16 -n 512
starting benchmark...
spawning thread #0: 1 total client(s). 512 total requests
Application protocol: h2c
progress: 9% done
progress: 19% done
progress: 29% done
progress: 39% done
progress: 49% done
progress: 59% done
progress: 69% done
progress: 79% done
progress: 89% done
progress: 99% done

finished in 40.58s, 12.62 req/s, 807.97MB/s
requests: 512 total, 512 started, 512 done, 512 succeeded, 0 failed, 0 errored, 0 timeout
status codes: 512 2xx, 0 3xx, 0 4xx, 0 5xx
traffic: 34378635753 bytes total, 18373 bytes headers (space savings 79.84%), 34359738368 bytes data
                     min         max         mean         sd        +/- sd
time for request:   204.85ms       7.15s       1.25s       1.57s    81.25%
time for connect:      292us       292us       292us         0us   100.00%
time to 1st byte:     5.12ms      5.12ms      5.12ms         0us   100.00%
