h2load http://node-0:8080/128kb -p h2c -t 1 -c 1 -m 256 -n 512
starting benchmark...
spawning thread #0: 1 total client(s). 512 total requests
Application protocol: h2c
progress: 9% done
progress: 19% done
progress: 29% done
progress: 39% done
progress: 49% done
progress: 59% done
progress: 69% done
progress: 79% done
progress: 89% done
progress: 99% done

finished in 205.39ms, 2492.84 req/s, 311.87MB/s
requests: 512 total, 512 started, 512 done, 512 succeeded, 0 failed, 0 errored, 0 timeout
status codes: 512 2xx, 0 3xx, 0 4xx, 0 5xx
traffic: 67166335 bytes total, 15963 bytes headers (space savings 82.08%), 67108864 bytes data
                     min         max         mean         sd        +/- sd
time for request:    16.04ms    116.13ms     94.75ms     27.43ms    91.41%
time for connect:      330us       330us       330us         0us   100.00%
time to 1st byte:    87.06ms     87.06ms     87.06ms         0us   100.00%
