h2load http://node-0:8080/128kb -p h2c -t 1 -c 1 -m 1 -n 512 -T 30m
starting benchmark...
spawning thread #0: 1 total client(s). 512 total requests
Application protocol: h2c
progress: 9% done
progress: 19% done
progress: 29% done
progress: 39% done
progress: 49% done
progress: 59% done
progress: 69% done
progress: 79% done
progress: 89% done
progress: 99% done

finished in 27.94s, 18.32 req/s, 2.29MB/s
requests: 512 total, 512 started, 512 done, 512 succeeded, 0 failed, 0 errored, 0 timeout
status codes: 512 2xx, 0 3xx, 0 4xx, 0 5xx
traffic: 67166956 bytes total, 16584 bytes headers (space savings 81.38%), 67108864 bytes data
                     min         max         mean         sd        +/- sd
time for request:    50.52ms    351.88ms     54.46ms     32.49ms    98.44%
time for connect:    50.33ms     50.33ms     50.33ms         0us   100.00%
time to 1st byte:   101.02ms    101.02ms    101.02ms         0us   100.00%
