h2load http://node-0:8080/8mb -p h2c -t 1 -c 1 -m 8 -n 512 -T 30m
starting benchmark...
spawning thread #0: 1 total client(s). 512 total requests
Application protocol: h2c
progress: 9% done
progress: 19% done
progress: 29% done
progress: 39% done
progress: 49% done
progress: 59% done
progress: 69% done
progress: 79% done
progress: 89% done
progress: 99% done

finished in 71.42s, 7.17 req/s, 57.38MB/s
requests: 512 total, 512 started, 512 done, 512 succeeded, 0 failed, 0 errored, 0 timeout
status codes: 512 2xx, 0 3xx, 0 4xx, 0 5xx
traffic: 4297350367 bytes total, 19131 bytes headers (space savings 78.77%), 4294967296 bytes data
                     min         max         mean         sd        +/- sd
time for request:   461.10ms       7.97s       1.11s    855.22ms    89.26%
time for connect:    50.36ms     50.36ms     50.36ms         0us   100.00%
time to 1st byte:   102.67ms    102.67ms    102.67ms         0us   100.00%
