h2load http://node-0:8080/16kb -p h2c -t 1 -c 1 -m 4 -n 512 -T 30m
starting benchmark...
spawning thread #0: 1 total client(s). 512 total requests
Application protocol: h2c
progress: 9% done
progress: 19% done
progress: 29% done
progress: 39% done
progress: 49% done
progress: 59% done
progress: 69% done
progress: 79% done
progress: 89% done
progress: 99% done

finished in 7.16s, 71.50 req/s, 1.12MB/s
requests: 512 total, 512 started, 512 done, 512 succeeded, 0 failed, 0 errored, 0 timeout
status codes: 512 2xx, 0 3xx, 0 4xx, 0 5xx
traffic: 8413961 bytes total, 16101 bytes headers (space savings 81.72%), 8388608 bytes data
                     min         max         mean         sd        +/- sd
time for request:    50.31ms    295.60ms     55.33ms     25.39ms    94.73%
time for connect:    50.32ms     50.32ms     50.32ms         0us   100.00%
time to 1st byte:   101.51ms    101.51ms    101.51ms         0us   100.00%
