h2load http://node-0:8080/1mb -p h2c -t 1 -c 1 -m 64 -n 512 -T 30m
starting benchmark...
spawning thread #0: 1 total client(s). 512 total requests
Application protocol: h2c
progress: 9% done
progress: 19% done
progress: 29% done
progress: 39% done
progress: 49% done
progress: 59% done
progress: 69% done
progress: 79% done
progress: 89% done
progress: 99% done

finished in 9.62s, 53.21 req/s, 53.25MB/s
requests: 512 total, 512 started, 512 done, 512 succeeded, 0 failed, 0 errored, 0 timeout
status codes: 512 2xx, 0 3xx, 0 4xx, 0 5xx
traffic: 537187617 bytes total, 17149 bytes headers (space savings 80.97%), 536870912 bytes data
                     min         max         mean         sd        +/- sd
time for request:   205.04ms       1.68s       1.16s    249.01ms    77.54%
time for connect:    50.24ms     50.24ms     50.24ms         0us   100.00%
time to 1st byte:   115.18ms    115.18ms    115.18ms         0us   100.00%
