h2load http://node-0:8080/8mb -p h2c -t 1 -c 1 -m 32 -n 512 -T 30m
starting benchmark...
spawning thread #0: 1 total client(s). 512 total requests
Application protocol: h2c
progress: 9% done
progress: 19% done
progress: 29% done
progress: 39% done
progress: 49% done
progress: 59% done
progress: 69% done
progress: 79% done
progress: 89% done
progress: 99% done

finished in 72.74s, 7.04 req/s, 56.34MB/s
requests: 512 total, 512 started, 512 done, 512 succeeded, 0 failed, 0 errored, 0 timeout
status codes: 512 2xx, 0 3xx, 0 4xx, 0 5xx
traffic: 4297349149 bytes total, 17913 bytes headers (space savings 80.12%), 4294967296 bytes data
                     min         max         mean         sd        +/- sd
time for request:   156.39ms       4.90s       4.53s    219.12ms    93.55%
time for connect:    50.32ms     50.32ms     50.32ms         0us   100.00%
time to 1st byte:   113.04ms    113.04ms    113.04ms         0us   100.00%
