h2load http://node-0:8080/128kb -p http/1.1 -t 1 -c 1 -m 1 -n 512
starting benchmark...
spawning thread #0: 1 total client(s). 512 total requests
Application protocol: http/1.1
progress: 9% done
progress: 19% done
progress: 29% done
progress: 39% done
progress: 49% done
progress: 59% done
progress: 69% done
progress: 79% done
progress: 89% done
progress: 99% done

finished in 26.79s, 19.11 req/s, 2.39MB/s
requests: 512 total, 512 started, 512 done, 512 succeeded, 0 failed, 0 errored, 0 timeout
status codes: 512 2xx, 0 3xx, 0 4xx, 0 5xx
traffic: 67185705 bytes total, 84043 bytes headers (space savings 0.00%), 67108864 bytes data
                     min         max         mean         sd        +/- sd
time for request:    50.38ms    150.93ms     51.73ms     11.02ms    98.63%
time for connect:    50.26ms     50.26ms     50.26ms         0us   100.00%
time to 1st byte:   100.72ms    100.72ms    100.72ms         0us   100.00%
