h2load http://node-0:8080/1mb -p http/1.1 -t 1 -c 8 -m 1 -n 512
starting benchmark...
spawning thread #0: 8 total client(s). 512 total requests
Application protocol: http/1.1
progress: 9% done
progress: 19% done
progress: 29% done
progress: 39% done
progress: 49% done
progress: 59% done
progress: 69% done
progress: 79% done
progress: 89% done
progress: 99% done

finished in 5.99s, 85.48 req/s, 85.50MB/s
requests: 512 total, 512 started, 512 done, 512 succeeded, 0 failed, 0 errored, 0 timeout
status codes: 512 2xx, 0 3xx, 0 4xx, 0 5xx
traffic: 536977920 bytes total, 84992 bytes headers (space savings 0.00%), 536870912 bytes data
                     min         max         mean         sd        +/- sd
time for request:    51.65ms    302.75ms     90.06ms     34.73ms    69.53%
time for connect:    50.19ms     50.27ms     50.21ms        23us    75.00%
time to 1st byte:   100.76ms    100.85ms    100.82ms        37us    75.00%
