h2load http://node-0:8080/64mb -p http/1.1 -t 1 -c 256 -m 1 -n 512
starting benchmark...
spawning thread #0: 256 total client(s). 512 total requests
Application protocol: http/1.1
progress: 9% done
progress: 19% done
progress: 29% done
progress: 39% done
progress: 49% done
progress: 59% done
progress: 69% done
progress: 79% done
progress: 89% done

finished in 44.08s, 11.27 req/s, 721.55MB/s
requests: 512 total, 512 started, 512 done, 497 succeeded, 15 failed, 15 errored, 0 timeout
status codes: 497 2xx, 0 3xx, 0 4xx, 0 5xx
traffic: 33353210275 bytes total, 83496 bytes headers (space savings 0.00%), 33353105408 bytes data
                     min         max         mean         sd        +/- sd
time for request:      1.15s      43.03s      10.44s       8.41s    66.60%
time for connect:    50.24ms     50.88ms     50.53ms       174us    54.69%
time to 1st byte:   101.13ms       8.94s       1.84s       2.28s    83.20%
