h2load http://node-0:8080/64mb -p http/1.1 -t 1 -c 16 -m 1 -n 512
starting benchmark...
spawning thread #0: 16 total client(s). 512 total requests
Application protocol: http/1.1
progress: 9% done
progress: 19% done
progress: 29% done
progress: 39% done
progress: 49% done
progress: 59% done
progress: 69% done
progress: 79% done
progress: 89% done
progress: 99% done

finished in 38.02s, 13.47 req/s, 861.77MB/s
requests: 512 total, 512 started, 512 done, 512 succeeded, 0 failed, 0 errored, 0 timeout
status codes: 512 2xx, 0 3xx, 0 4xx, 0 5xx
traffic: 34359846400 bytes total, 86016 bytes headers (space savings 0.00%), 34359738368 bytes data
                     min         max         mean         sd        +/- sd
time for request:      1.12s       1.98s       1.18s    112.96ms    96.88%
time for connect:    50.19ms     50.35ms     50.25ms        38us    75.00%
time to 1st byte:   101.04ms    352.34ms    163.00ms    108.65ms    75.00%
