h2load http://node-0:8080/64mb -p http/1.1 -t 1 -c 4 -m 1 -n 512
starting benchmark...
spawning thread #0: 4 total client(s). 512 total requests
Application protocol: http/1.1
progress: 9% done
progress: 19% done
progress: 29% done
progress: 39% done
progress: 49% done
progress: 59% done
progress: 69% done
progress: 79% done
progress: 89% done
progress: 99% done

finished in 149.58s, 3.42 req/s, 219.07MB/s
requests: 512 total, 512 started, 512 done, 512 succeeded, 0 failed, 0 errored, 0 timeout
status codes: 512 2xx, 0 3xx, 0 4xx, 0 5xx
traffic: 34359832602 bytes total, 86076 bytes headers (space savings 0.00%), 34359738368 bytes data
                     min         max         mean         sd        +/- sd
time for request:      1.12s       1.76s       1.17s     68.86ms    98.44%
time for connect:    50.26ms     50.32ms     50.28ms        25us    75.00%
time to 1st byte:   100.90ms    100.94ms    100.91ms        14us    75.00%
