h2load http://node-0:8080/1kb -p http/1.1 -t 1 -c 512 -m 1 -n 512
starting benchmark...
spawning thread #0: 512 total client(s). 512 total requests
Application protocol: http/1.1
progress: 9% done
progress: 19% done
progress: 29% done
progress: 39% done
progress: 49% done
progress: 59% done
progress: 69% done
progress: 79% done
progress: 89% done

finished in 32.42s, 14.81 req/s, 17.74KB/s
requests: 512 total, 512 started, 512 done, 480 succeeded, 32 failed, 32 errored, 0 timeout
status codes: 480 2xx, 0 3xx, 0 4xx, 0 5xx
traffic: 588960 bytes total, 76800 bytes headers (space savings 0.00%), 491520 bytes data
                     min         max         mean         sd        +/- sd
time for request:    50.71ms      32.36s    609.45ms       2.12s    97.29%
time for connect:    50.26ms     52.96ms     51.60ms       765us    61.46%
time to 1st byte:   101.14ms      32.42s    661.16ms       2.12s    97.29%
