h2load http://node-0:8080/1kb -p http/1.1 -t 1 -c 32 -m 1 -n 512
starting benchmark...
spawning thread #0: 32 total client(s). 512 total requests
Application protocol: http/1.1
progress: 9% done
progress: 19% done
progress: 29% done
progress: 39% done
progress: 49% done
progress: 59% done
progress: 69% done
progress: 79% done
progress: 89% done
progress: 99% done

finished in 1.87s, 274.40 req/s, 328.80KB/s
requests: 512 total, 512 started, 512 done, 512 succeeded, 0 failed, 0 errored, 0 timeout
status codes: 512 2xx, 0 3xx, 0 4xx, 0 5xx
traffic: 628224 bytes total, 81920 bytes headers (space savings 0.00%), 524288 bytes data
                     min         max         mean         sd        +/- sd
time for request:    50.20ms       1.06s     68.11ms     90.10ms    95.51%
time for connect:    50.15ms     50.37ms     50.24ms        65us    59.38%
time to 1st byte:   100.89ms       1.11s    384.17ms    233.42ms    68.75%
