h2load http://node-0:8080/128mb -p http/1.1 -t 1 -c 128 -m 1 -n 512
starting benchmark...
spawning thread #0: 128 total client(s). 512 total requests
Application protocol: http/1.1
progress: 9% done
progress: 19% done
progress: 29% done
progress: 39% done
progress: 49% done
progress: 59% done
progress: 69% done
progress: 79% done
progress: 89% done

finished in 101.68s, 4.92 req/s, 629.44MB/s
requests: 512 total, 503 started, 512 done, 500 succeeded, 12 failed, 12 errored, 0 timeout
status codes: 503 2xx, 0 3xx, 0 4xx, 0 5xx
traffic: 67110249564 bytes total, 85007 bytes headers (space savings 0.00%), 67110142928 bytes data
                     min         max         mean         sd        +/- sd
time for request:      2.27s      60.18s      12.63s       5.86s    89.40%
time for connect:    50.20ms     50.64ms     50.42ms       115us    61.72%
time to 1st byte:   101.25ms       5.13s    968.41ms       1.23s    85.16%
