h2load http://node-0:8080/128kb -p http/1.1 -t 1 -c 512 -m 1 -n 512
starting benchmark...
spawning thread #0: 512 total client(s). 512 total requests
Application protocol: http/1.1
progress: 9% done
progress: 19% done
progress: 29% done
progress: 39% done
progress: 49% done
progress: 59% done
progress: 69% done
progress: 79% done
progress: 99% done

finished in 16.35s, 29.35 req/s, 3.67MB/s
requests: 512 total, 512 started, 512 done, 480 succeeded, 32 failed, 32 errored, 0 timeout
status codes: 480 2xx, 0 3xx, 0 4xx, 0 5xx
traffic: 63013920 bytes total, 78720 bytes headers (space savings 0.00%), 62914560 bytes data
                     min         max         mean         sd        +/- sd
time for request:   150.86ms      16.30s    798.66ms       1.54s    94.58%
time for connect:    50.19ms     51.66ms     50.94ms       382us    60.62%
time to 1st byte:   101.00ms      16.25s    701.68ms       1.55s    94.58%
