h2load http://node-0:8080/1kb -p http/1.1 -t 1 -c 256 -m 1 -n 512
starting benchmark...
spawning thread #0: 256 total client(s). 512 total requests
Application protocol: http/1.1
progress: 9% done
progress: 19% done
progress: 29% done
progress: 39% done
progress: 49% done
progress: 59% done
progress: 69% done
progress: 79% done
progress: 89% done
progress: 99% done

finished in 16.30s, 31.41 req/s, 37.63KB/s
requests: 512 total, 512 started, 512 done, 512 succeeded, 0 failed, 0 errored, 0 timeout
status codes: 512 2xx, 0 3xx, 0 4xx, 0 5xx
traffic: 628224 bytes total, 81920 bytes headers (space savings 0.00%), 524288 bytes data
                     min         max         mean         sd        +/- sd
time for request:    50.18ms      16.20s    731.70ms       2.19s    94.14%
time for connect:    50.18ms     51.26ms     50.70ms       268us    66.02%
time to 1st byte:   100.90ms      16.25s       1.46s       2.94s    92.97%
