h2load http://node-1:8080/1mb -p http/1.1 -t 1 -c 1 -m 1 -n 128 -T 30m
starting benchmark...
spawning thread #0: 1 total client(s). 128 total requests
Application protocol: http/1.1
progress: 9% done
progress: 18% done
progress: 28% done
progress: 37% done
progress: 46% done
progress: 56% done
progress: 65% done
progress: 75% done
progress: 84% done
progress: 93% done

finished in 15.24s, 8.40 req/s, 8.40MB/s
requests: 128 total, 128 started, 128 done, 128 succeeded, 0 failed, 0 errored, 0 timeout
status codes: 128 2xx, 0 3xx, 0 4xx, 0 5xx
traffic: 134243967 bytes total, 21263 bytes headers (space savings 0.00%), 134217728 bytes data
                     min         max         mean         sd        +/- sd
time for request:    71.13ms    775.10ms    118.48ms     90.30ms    90.63%
time for connect:    35.34ms     35.34ms     35.34ms         0us   100.00%
time to 1st byte:    70.89ms     70.89ms     70.89ms         0us   100.00%
