h2load http://node-1:8080/8mb -p http/1.1 -t 1 -c 4 -m 1 -n 128 -T 30m
starting benchmark...
spawning thread #0: 4 total client(s). 128 total requests
Application protocol: http/1.1
progress: 9% done
progress: 18% done
progress: 28% done
progress: 37% done
progress: 46% done
progress: 56% done
progress: 65% done
progress: 75% done
progress: 84% done
progress: 93% done

finished in 5.40s, 23.71 req/s, 189.72MB/s
requests: 128 total, 128 started, 128 done, 128 succeeded, 0 failed, 0 errored, 0 timeout
status codes: 128 2xx, 0 3xx, 0 4xx, 0 5xx
traffic: 1073768576 bytes total, 21248 bytes headers (space savings 0.00%), 1073741824 bytes data
                     min         max         mean         sd        +/- sd
time for request:   141.58ms    493.95ms    166.66ms     56.66ms    96.88%
time for connect:    35.22ms     35.29ms     35.24ms        29us    50.00%
time to 1st byte:    70.88ms     70.94ms     70.90ms        24us    75.00%
