h2load http://node-1:8080/128mb -p http/1.1 -t 1 -c 128 -m 1 -n 128 -T 30m
starting benchmark...
spawning thread #0: 128 total client(s). 128 total requests
Application protocol: http/1.1
progress: 9% done
progress: 18% done
progress: 28% done
progress: 37% done
progress: 46% done
progress: 56% done
progress: 65% done
progress: 75% done
progress: 84% done
progress: 93% done

finished in 27.55s, 4.65 req/s, 594.64MB/s
requests: 128 total, 128 started, 128 done, 128 succeeded, 0 failed, 0 errored, 0 timeout
status codes: 128 2xx, 0 3xx, 0 4xx, 0 5xx
traffic: 17179896320 bytes total, 21632 bytes headers (space savings 0.00%), 17179869184 bytes data
                     min         max         mean         sd        +/- sd
time for request:      4.34s      27.51s      12.68s       5.05s    73.44%
time for connect:    35.63ms     36.34ms     35.97ms       162us    67.97%
time to 1st byte:    73.41ms     81.30ms     77.70ms      1.76ms    69.53%
