h2load http://node-1:8080/8mb -p h2c -t 1 -c 16 -m 8 -n 128 -T 30m
starting benchmark...
spawning thread #0: 16 total client(s). 128 total requests
Application protocol: h2c
progress: 9% done
progress: 18% done
progress: 28% done
progress: 37% done
progress: 46% done
progress: 56% done
progress: 65% done
progress: 75% done
progress: 84% done
progress: 93% done

finished in 1.57s, 81.47 req/s, 652.16MB/s
requests: 128 total, 128 started, 128 done, 128 succeeded, 0 failed, 0 errored, 0 timeout
status codes: 128 2xx, 0 3xx, 0 4xx, 0 5xx
traffic: 1074338816 bytes total, 5440 bytes headers (space savings 75.85%), 1073741824 bytes data
                     min         max         mean         sd        +/- sd
time for request:   608.84ms       1.53s       1.13s    289.46ms    53.13%
time for connect:    35.38ms     35.48ms     35.40ms        22us    81.25%
time to 1st byte:    73.80ms     79.03ms     76.79ms      1.36ms    75.00%
