h2load http://node-1:8080/64mb -p h2c -t 1 -c 16 -m 8 -n 128 -T 30m
starting benchmark...
spawning thread #0: 16 total client(s). 128 total requests
Application protocol: h2c
progress: 9% done
progress: 18% done
progress: 28% done
progress: 37% done
progress: 46% done
progress: 56% done
progress: 65% done
progress: 75% done
progress: 84% done
progress: 93% done

finished in 17.42s, 7.35 req/s, 470.42MB/s
requests: 128 total, 128 started, 128 done, 128 succeeded, 0 failed, 0 errored, 0 timeout
status codes: 128 2xx, 0 3xx, 0 4xx, 0 5xx
traffic: 8594660480 bytes total, 5568 bytes headers (space savings 75.56%), 8589934592 bytes data
                     min         max         mean         sd        +/- sd
time for request:      3.54s      17.39s       7.26s       3.05s    61.72%
time for connect:    35.39ms     35.46ms     35.41ms        13us    81.25%
time to 1st byte:    73.92ms     79.87ms     76.82ms      1.75ms    62.50%
