h2load http://node-0:8080/16kb -p http/1.1 -t 1 -c 8 -m 1 -n 512
starting benchmark...
spawning thread #0: 8 total client(s). 512 total requests
Application protocol: http/1.1
progress: 9% done
progress: 19% done
progress: 29% done
progress: 39% done
progress: 49% done
progress: 59% done
progress: 69% done
progress: 79% done
progress: 89% done
progress: 99% done

finished in 26.48ms, 19333.89 req/s, 305.87MB/s
requests: 512 total, 512 started, 512 done, 512 succeeded, 0 failed, 0 errored, 0 timeout
status codes: 512 2xx, 0 3xx, 0 4xx, 0 5xx
traffic: 8493568 bytes total, 82944 bytes headers (space savings 0.00%), 8388608 bytes data
                     min         max         mean         sd        +/- sd
time for request:      203us       695us       362us        72us    70.31%
time for connect:      102us       194us       146us        32us    50.00%
time to 1st byte:      639us       781us       713us        50us    50.00%
