h2load http://node-0:8080/1mb -p http/1.1 -t 1 -c 2 -m 1 -n 512 -T 30m
starting benchmark...
spawning thread #0: 2 total client(s). 512 total requests
Application protocol: http/1.1
progress: 9% done
progress: 19% done
progress: 29% done
progress: 39% done
progress: 49% done
progress: 59% done
progress: 69% done
progress: 79% done
progress: 89% done
progress: 99% done

finished in 1.06s, 482.47 req/s, 482.55MB/s
requests: 512 total, 512 started, 512 done, 512 succeeded, 0 failed, 0 errored, 0 timeout
status codes: 512 2xx, 0 3xx, 0 4xx, 0 5xx
traffic: 536964272 bytes total, 85052 bytes headers (space savings 0.00%), 536870912 bytes data
                     min         max         mean         sd        +/- sd
time for request:     1.09ms    205.46ms      3.60ms     20.06ms    98.83%
time for connect:      181us       226us       203us        22us    50.00%
time to 1st byte:      588us       626us       607us        19us   100.00%
