h2load http://node-0:8080/8mb -p http/1.1 -t 1 -c 2 -m 1 -n 512 -T 30m
starting benchmark...
spawning thread #0: 2 total client(s). 512 total requests
Application protocol: http/1.1
progress: 9% done
progress: 19% done
progress: 29% done
progress: 39% done
progress: 49% done
progress: 59% done
progress: 69% done
progress: 79% done
progress: 89% done
progress: 99% done

finished in 3.55s, 144.39 req/s, 1.13GB/s
requests: 512 total, 512 started, 512 done, 512 succeeded, 0 failed, 0 errored, 0 timeout
status codes: 512 2xx, 0 3xx, 0 4xx, 0 5xx
traffic: 4295056648 bytes total, 85052 bytes headers (space savings 0.00%), 4294967296 bytes data
                     min         max         mean         sd        +/- sd
time for request:     7.02ms    221.89ms     13.68ms     16.39ms    99.41%
time for connect:      230us       275us       252us        22us    50.00%
time to 1st byte:      633us       711us       672us        39us   100.00%
