h2load http://node-0:8080/16kb -p http/1.1 -t 1 -c 8 -m 1 -n 512 -T 30m
starting benchmark...
spawning thread #0: 8 total client(s). 512 total requests
Application protocol: http/1.1
progress: 9% done
progress: 19% done
progress: 29% done
progress: 39% done
progress: 49% done
progress: 59% done
progress: 69% done
progress: 79% done
progress: 89% done
progress: 99% done

finished in 633.85ms, 807.77 req/s, 12.78MB/s
requests: 512 total, 512 started, 512 done, 512 succeeded, 0 failed, 0 errored, 0 timeout
status codes: 512 2xx, 0 3xx, 0 4xx, 0 5xx
traffic: 8493568 bytes total, 82944 bytes headers (space savings 0.00%), 8388608 bytes data
                     min         max         mean         sd        +/- sd
time for request:      229us    406.88ms      3.54ms     28.11ms    98.63%
time for connect:      177us       273us       207us        29us    75.00%
time to 1st byte:      715us       823us       758us        36us    50.00%
