h2load http://node-1:8080/16kb -p http/1.1 -t 1 -c 128 -m 1 -n 128 -T 30m
starting benchmark...
spawning thread #0: 128 total client(s). 128 total requests
Application protocol: http/1.1
progress: 9% done
progress: 18% done
progress: 28% done
progress: 37% done
progress: 46% done
progress: 56% done
progress: 65% done
progress: 75% done
progress: 84% done
progress: 93% done

finished in 181.69ms, 704.50 req/s, 11.15MB/s
requests: 128 total, 128 started, 128 done, 128 succeeded, 0 failed, 0 errored, 0 timeout
status codes: 128 2xx, 0 3xx, 0 4xx, 0 5xx
traffic: 2123392 bytes total, 20736 bytes headers (space savings 0.00%), 2097152 bytes data
                     min         max         mean         sd        +/- sd
time for request:    71.79ms    143.32ms     89.80ms     29.26ms    76.56%
time for connect:    35.66ms     36.47ms     36.07ms       215us    65.63%
time to 1st byte:    73.23ms    144.03ms     90.94ms     29.09ms    76.56%
