h2load http://node-0:8080/128kb -p http/1.1 -t 1 -c 128 -m 1 -n 512 -T 30m
starting benchmark...
spawning thread #0: 128 total client(s). 512 total requests
Application protocol: http/1.1
progress: 9% done
progress: 19% done
progress: 29% done
progress: 39% done
progress: 49% done
progress: 59% done
progress: 69% done
progress: 79% done
progress: 89% done
progress: 99% done

finished in 824.52ms, 620.97 req/s, 77.74MB/s
requests: 512 total, 512 started, 512 done, 512 succeeded, 0 failed, 0 errored, 0 timeout
status codes: 512 2xx, 0 3xx, 0 4xx, 0 5xx
traffic: 67214848 bytes total, 83968 bytes headers (space savings 0.00%), 67108864 bytes data
                     min         max         mean         sd        +/- sd
time for request:      644us    817.31ms     65.52ms    169.73ms    91.41%
time for connect:      895us      1.88ms      1.37ms       237us    65.63%
time to 1st byte:     2.61ms    817.41ms    253.66ms    260.45ms    87.50%
