h2load http://node-0:8080/128kb -p http/1.1 -t 1 -c 256 -m 1 -n 512 -T 30m
starting benchmark...
spawning thread #0: 256 total client(s). 512 total requests
Application protocol: http/1.1
progress: 9% done
progress: 19% done
progress: 29% done
progress: 39% done
progress: 49% done
progress: 59% done
progress: 69% done
progress: 79% done
progress: 89% done
progress: 99% done

finished in 13.09s, 38.34 req/s, 4.80MB/s
requests: 512 total, 512 started, 512 done, 502 succeeded, 10 failed, 10 errored, 0 timeout
status codes: 502 2xx, 0 3xx, 0 4xx, 0 5xx
traffic: 65902058 bytes total, 82328 bytes headers (space savings 0.00%), 65798144 bytes data
                     min         max         mean         sd        +/- sd
time for request:      675us      13.09s    650.40ms       2.13s    93.03%
time for connect:     1.63ms      3.63ms      2.57ms       496us    64.45%
time to 1st byte:     5.53ms      13.09s       1.27s       2.86s    90.63%
