h2load http://node-0:8080/8mb -p http/1.1 -t 1 -c 64 -m 1 -n 512 -T 30m
starting benchmark...
spawning thread #0: 64 total client(s). 512 total requests
Application protocol: http/1.1
progress: 9% done
progress: 19% done
progress: 29% done
progress: 39% done
progress: 49% done
progress: 59% done
progress: 69% done
progress: 79% done
progress: 89% done
progress: 99% done

finished in 3.48s, 147.31 req/s, 1.15GB/s
requests: 512 total, 512 started, 512 done, 512 succeeded, 0 failed, 0 errored, 0 timeout
status codes: 512 2xx, 0 3xx, 0 4xx, 0 5xx
traffic: 4295074304 bytes total, 84992 bytes headers (space savings 0.00%), 4294967296 bytes data
                     min         max         mean         sd        +/- sd
time for request:    34.97ms       2.06s    374.07ms    256.35ms    87.30%
time for connect:      297us       992us       622us       195us    57.81%
time to 1st byte:     1.71ms       1.64s    413.95ms    485.19ms    90.63%
