h2load http://node-0:8080/64mb -p http/1.1 -t 1 -c 512 -m 1 -n 512 -T 30m
starting benchmark...
spawning thread #0: 512 total client(s). 512 total requests
Application protocol: http/1.1
progress: 9% done
progress: 19% done
progress: 29% done
progress: 39% done
progress: 49% done
progress: 59% done
progress: 69% done
progress: 79% done
progress: 89% done
progress: 99% done

finished in 32.28s, 15.86 req/s, 1015.26MB/s
requests: 512 total, 512 started, 512 done, 512 succeeded, 0 failed, 0 errored, 0 timeout
status codes: 512 2xx, 0 3xx, 0 4xx, 0 5xx
traffic: 34359846400 bytes total, 86016 bytes headers (space savings 0.00%), 34359738368 bytes data
                     min         max         mean         sd        +/- sd
time for request:   398.58ms      26.99s      18.14s       6.41s    61.72%
time for connect:     3.44ms      31.07s       2.39s       6.80s    92.38%
time to 1st byte:     8.14ms      31.28s       3.70s       7.14s    85.55%
