h2load http://node-0:8080/16kb -p http/1.1 -t 1 -c 256 -m 1 -n 512 -T 30m
starting benchmark...
spawning thread #0: 256 total client(s). 512 total requests
Application protocol: http/1.1
progress: 9% done
progress: 19% done
progress: 29% done
progress: 39% done
progress: 49% done
progress: 59% done
progress: 69% done
progress: 79% done
progress: 89% done
progress: 99% done

finished in 416.24ms, 1177.20 req/s, 18.62MB/s
requests: 512 total, 512 started, 512 done, 490 succeeded, 22 failed, 22 errored, 0 timeout
status codes: 490 2xx, 0 3xx, 0 4xx, 0 5xx
traffic: 8128610 bytes total, 79380 bytes headers (space savings 0.00%), 8028160 bytes data
                     min         max         mean         sd        +/- sd
time for request:      318us    408.94ms     85.94ms    127.00ms    92.65%
time for connect:     1.66ms      3.61ms      2.58ms       498us    64.06%
time to 1st byte:     5.46ms    410.98ms    165.35ms    135.17ms    50.39%
