h2load http://node-0:8080/1kb -p http/1.1 -t 1 -c 1 -m 1 -n 512 -T 30m
starting benchmark...
spawning thread #0: 1 total client(s). 512 total requests
Application protocol: http/1.1
progress: 9% done
progress: 19% done
progress: 29% done
progress: 39% done
progress: 49% done
progress: 59% done
progress: 69% done
progress: 79% done
progress: 89% done
progress: 99% done

finished in 124.79ms, 4103.02 req/s, 4.75MB/s
requests: 512 total, 512 started, 512 done, 512 succeeded, 0 failed, 0 errored, 0 timeout
status codes: 512 2xx, 0 3xx, 0 4xx, 0 5xx
traffic: 622089 bytes total, 81995 bytes headers (space savings 0.00%), 524288 bytes data
                     min         max         mean         sd        +/- sd
time for request:      120us     30.86ms       219us      1.36ms    99.80%
time for connect:     9.58ms      9.58ms      9.58ms         0us   100.00%
time to 1st byte:    40.45ms     40.45ms     40.45ms         0us   100.00%
