h2load http://node-0:8080/1kb -p http/1.1 -t 1 -c 4 -m 1 -n 512 -T 30m
starting benchmark...
spawning thread #0: 4 total client(s). 512 total requests
Application protocol: http/1.1
progress: 9% done
progress: 19% done
progress: 29% done
progress: 39% done
progress: 49% done
progress: 59% done
progress: 69% done
progress: 79% done
progress: 89% done
progress: 99% done

finished in 36.05ms, 14203.68 req/s, 16.49MB/s
requests: 512 total, 512 started, 512 done, 512 succeeded, 0 failed, 0 errored, 0 timeout
status codes: 512 2xx, 0 3xx, 0 4xx, 0 5xx
traffic: 623316 bytes total, 81980 bytes headers (space savings 0.00%), 524288 bytes data
                     min         max         mean         sd        +/- sd
time for request:      118us       537us       244us        54us    77.54%
time for connect:      195us       266us       222us        26us    50.00%
time to 1st byte:      613us       727us       662us        41us    50.00%
