h2load http://node-0:8080/16kb -p http/1.1 -t 1 -c 4 -m 1 -n 512 -T 30m
starting benchmark...
spawning thread #0: 4 total client(s). 512 total requests
Application protocol: http/1.1
progress: 9% done
progress: 19% done
progress: 29% done
progress: 39% done
progress: 49% done
progress: 59% done
progress: 69% done
progress: 79% done
progress: 89% done
progress: 99% done

finished in 48.72ms, 10508.38 req/s, 166.09MB/s
requests: 512 total, 512 started, 512 done, 512 succeeded, 0 failed, 0 errored, 0 timeout
status codes: 512 2xx, 0 3xx, 0 4xx, 0 5xx
traffic: 8485312 bytes total, 83004 bytes headers (space savings 0.00%), 8388608 bytes data
                     min         max         mean         sd        +/- sd
time for request:      186us       636us       346us        58us    72.07%
time for connect:      199us       256us       219us        21us    75.00%
time to 1st byte:      756us       780us       762us        10us    75.00%
