h2load http://node-0:8080/128kb -p http/1.1 -t 1 -c 512 -m 1 -n 512 -T 30m
starting benchmark...
spawning thread #0: 512 total client(s). 512 total requests
Application protocol: http/1.1
progress: 9% done
progress: 19% done
progress: 29% done
progress: 39% done
progress: 49% done
progress: 59% done
progress: 69% done
progress: 79% done
progress: 89% done
progress: 99% done

finished in 52.34s, 9.78 req/s, 1.22MB/s
requests: 512 total, 512 started, 512 done, 512 succeeded, 0 failed, 0 errored, 0 timeout
status codes: 512 2xx, 0 3xx, 0 4xx, 0 5xx
traffic: 67214848 bytes total, 83968 bytes headers (space savings 0.00%), 67108864 bytes data
                     min         max         mean         sd        +/- sd
time for request:      753us      52.33s       4.57s      12.96s    91.41%
time for connect:     2.70ms    999.80ms    121.35ms    319.36ms    88.28%
time to 1st byte:    11.76ms      52.33s       4.69s      12.93s    91.41%
