h2load http://node-1:8080/128kb -p h2c -t 1 -c 1 -m 64 -n 128 -T 30m
starting benchmark...
spawning thread #0: 1 total client(s). 128 total requests
Application protocol: h2c
progress: 9% done
progress: 18% done
progress: 28% done
progress: 37% done
progress: 46% done
progress: 56% done
progress: 65% done
progress: 75% done
progress: 84% done
progress: 93% done

finished in 841.93ms, 152.03 req/s, 19.02MB/s
requests: 128 total, 128 started, 128 done, 128 succeeded, 0 failed, 0 errored, 0 timeout
status codes: 128 2xx, 0 3xx, 0 4xx, 0 5xx
traffic: 16791656 bytes total, 4036 bytes headers (space savings 81.88%), 16777216 bytes data
                     min         max         mean         sd        +/- sd
time for request:    64.05ms    522.94ms    356.65ms    162.49ms    48.44%
time for connect:    35.39ms     35.39ms     35.39ms         0us   100.00%
time to 1st byte:    99.59ms     99.59ms     99.59ms         0us   100.00%
