h2load http://node-1:8080/16kb -p h2c -t 1 -c 1 -m 4 -n 128 -T 30m
starting benchmark...
spawning thread #0: 1 total client(s). 128 total requests
Application protocol: h2c
progress: 9% done
progress: 18% done
progress: 28% done
progress: 37% done
progress: 46% done
progress: 56% done
progress: 65% done
progress: 75% done
progress: 84% done
progress: 93% done

finished in 1.25s, 102.32 req/s, 1.60MB/s
requests: 128 total, 128 started, 128 done, 128 succeeded, 0 failed, 0 errored, 0 timeout
status codes: 128 2xx, 0 3xx, 0 4xx, 0 5xx
traffic: 2103423 bytes total, 3931 bytes headers (space savings 82.14%), 2097152 bytes data
                     min         max         mean         sd        +/- sd
time for request:    35.43ms    106.30ms     37.61ms     10.15ms    96.09%
time for connect:    35.42ms     35.42ms     35.42ms         0us   100.00%
time to 1st byte:    71.48ms     71.48ms     71.48ms         0us   100.00%
