h2load http://node-1:8080/128kb -p h2c -t 1 -c 1 -m 2 -n 128 -T 30m
starting benchmark...
spawning thread #0: 1 total client(s). 128 total requests
Application protocol: h2c
progress: 9% done
progress: 18% done
progress: 28% done
progress: 37% done
progress: 46% done
progress: 56% done
progress: 65% done
progress: 75% done
progress: 84% done
progress: 93% done

finished in 2.52s, 50.89 req/s, 6.37MB/s
requests: 128 total, 128 started, 128 done, 128 succeeded, 0 failed, 0 errored, 0 timeout
status codes: 128 2xx, 0 3xx, 0 4xx, 0 5xx
traffic: 16791702 bytes total, 4082 bytes headers (space savings 81.67%), 16777216 bytes data
                     min         max         mean         sd        +/- sd
time for request:    35.75ms    176.38ms     38.71ms     17.88ms    96.88%
time for connect:    35.42ms     35.42ms     35.42ms         0us   100.00%
time to 1st byte:    71.37ms     71.37ms     71.37ms         0us   100.00%
