h2load http://node-0:8080/8mb -p http/1.1 -t 1 -c 16 -m 1 -n 512
starting benchmark...
spawning thread #0: 16 total client(s). 512 total requests
Application protocol: http/1.1
progress: 9% done
progress: 19% done
progress: 29% done
progress: 39% done
progress: 49% done
progress: 59% done
progress: 69% done
progress: 79% done
progress: 89% done
progress: 99% done

finished in 3.48s, 147.08 req/s, 1.15GB/s
requests: 512 total, 512 started, 512 done, 512 succeeded, 0 failed, 0 errored, 0 timeout
status codes: 512 2xx, 0 3xx, 0 4xx, 0 5xx
traffic: 4295074304 bytes total, 84992 bytes headers (space savings 0.00%), 4294967296 bytes data
                     min         max         mean         sd        +/- sd
time for request:    10.42ms    303.94ms     95.01ms     38.68ms    69.34%
time for connect:      152us       307us       209us        38us    75.00%
time to 1st byte:      783us      1.94ms       998us       279us    93.75%
