h2load http://node-0:8080/1kb -p http/1.1 -t 1 -c 64 -m 1 -n 512
starting benchmark...
spawning thread #0: 64 total client(s). 512 total requests
Application protocol: http/1.1
progress: 9% done
progress: 19% done
progress: 29% done
progress: 39% done
progress: 49% done
progress: 59% done
progress: 69% done
progress: 79% done
progress: 89% done
progress: 99% done

finished in 1.21s, 424.68 req/s, 508.87KB/s
requests: 512 total, 512 started, 512 done, 512 succeeded, 0 failed, 0 errored, 0 timeout
status codes: 512 2xx, 0 3xx, 0 4xx, 0 5xx
traffic: 628224 bytes total, 81920 bytes headers (space savings 0.00%), 524288 bytes data
                     min         max         mean         sd        +/- sd
time for request:      153us    405.48ms     18.68ms     71.33ms    93.16%
time for connect:      328us    997.07ms     31.76ms    173.37ms    96.88%
time to 1st byte:     1.64ms    997.53ms    158.93ms    213.52ms    79.69%
