h2load http://node-0:8080/1kb -p http/1.1 -t 1 -c 1 -m 1 -n 512
starting benchmark...
spawning thread #0: 1 total client(s). 512 total requests
Application protocol: http/1.1
progress: 9% done
progress: 19% done
progress: 29% done
progress: 39% done
progress: 49% done
progress: 59% done
progress: 69% done
progress: 79% done
progress: 89% done
progress: 99% done

finished in 1.10s, 465.41 req/s, 552.22KB/s
requests: 512 total, 512 started, 512 done, 512 succeeded, 0 failed, 0 errored, 0 timeout
status codes: 512 2xx, 0 3xx, 0 4xx, 0 5xx
traffic: 622089 bytes total, 81995 bytes headers (space savings 0.00%), 524288 bytes data
                     min         max         mean         sd        +/- sd
time for request:      118us    204.05ms      2.14ms     19.89ms    99.02%
time for connect:      281us       281us       281us         0us   100.00%
time to 1st byte:     1.25ms      1.25ms      1.25ms         0us   100.00%
