h2load http://node-1:8080/1mb -p h2c -t 1 -c 4 -m 32 -n 128 -T 30m
starting benchmark...
spawning thread #0: 4 total client(s). 128 total requests
Application protocol: h2c
progress: 9% done
progress: 18% done
progress: 28% done
progress: 37% done
progress: 46% done
progress: 56% done
progress: 65% done
progress: 75% done
progress: 84% done
progress: 93% done

finished in 991.13ms, 129.15 req/s, 129.22MB/s
requests: 128 total, 128 started, 128 done, 128 succeeded, 0 failed, 0 errored, 0 timeout
status codes: 128 2xx, 0 3xx, 0 4xx, 0 5xx
traffic: 134297120 bytes total, 4368 bytes headers (space savings 80.61%), 134217728 bytes data
                     min         max         mean         sd        +/- sd
time for request:   931.28ms    954.49ms    938.29ms      8.00ms    71.88%
time for connect:    35.29ms     35.31ms     35.30ms         8us    75.00%
time to 1st byte:    83.35ms     85.79ms     84.40ms      1.06ms    75.00%
