h2load http://node-1:8080/128mb -p h2c -t 1 -c 2 -m 64 -n 128 -T 30m
starting benchmark...
spawning thread #0: 2 total client(s). 128 total requests
Application protocol: h2c
progress: 9% done
progress: 18% done
progress: 28% done
progress: 37% done
progress: 46% done
progress: 56% done
progress: 65% done
progress: 75% done
progress: 84% done
progress: 93% done

finished in 102.43s, 1.25 req/s, 160.05MB/s
requests: 128 total, 128 started, 128 done, 128 succeeded, 0 failed, 0 errored, 0 timeout
status codes: 128 2xx, 0 3xx, 0 4xx, 0 5xx
traffic: 17189312366 bytes total, 4639 bytes headers (space savings 79.75%), 17179869184 bytes data
                     min         max         mean         sd        +/- sd
time for request:    100.77s     102.39s     101.55s    757.07ms    50.00%
time for connect:    35.35ms     35.37ms     35.36ms         7us    50.00%
time to 1st byte:    88.12ms     97.71ms     92.91ms      4.79ms    50.00%
