h2load http://node-1:8080/128mb -p h2c -t 1 -c 8 -m 16 -n 128 -T 30m
starting benchmark...
spawning thread #0: 8 total client(s). 128 total requests
Application protocol: h2c
progress: 9% done
progress: 18% done
progress: 28% done
progress: 37% done
progress: 46% done
progress: 56% done
progress: 65% done
progress: 75% done
progress: 84% done
progress: 93% done

finished in 26.83s, 4.77 req/s, 611.01MB/s
requests: 128 total, 128 started, 128 done, 128 succeeded, 0 failed, 0 errored, 0 timeout
status codes: 128 2xx, 0 3xx, 0 4xx, 0 5xx
traffic: 17189312832 bytes total, 5024 bytes headers (space savings 78.07%), 17179869184 bytes data
                     min         max         mean         sd        +/- sd
time for request:      4.29s      26.79s      16.38s       6.81s    53.91%
time for connect:    35.28ms     35.35ms     35.30ms        17us    75.00%
time to 1st byte:    74.27ms     77.82ms     76.52ms      1.24ms    62.50%
