h2load http://node-1:8080/64mb -p h2c -t 1 -c 2 -m 64 -n 128 -T 30m
starting benchmark...
spawning thread #0: 2 total client(s). 128 total requests
Application protocol: h2c
progress: 9% done
progress: 18% done
progress: 28% done
progress: 37% done
progress: 46% done
progress: 56% done
progress: 65% done
progress: 75% done
progress: 84% done
progress: 93% done

finished in 51.60s, 2.48 req/s, 158.86MB/s
requests: 128 total, 128 started, 128 done, 128 succeeded, 0 failed, 0 errored, 0 timeout
status codes: 128 2xx, 0 3xx, 0 4xx, 0 5xx
traffic: 8594659096 bytes total, 4616 bytes headers (space savings 79.74%), 8589934592 bytes data
                     min         max         mean         sd        +/- sd
time for request:     51.52s      51.56s      51.54s     14.35ms    42.19%
time for connect:    35.29ms     35.34ms     35.32ms        24us    50.00%
time to 1st byte:    87.79ms     88.56ms     88.17ms       384us   100.00%
