h2load http://node-0:8080/128mb -p h2c -t 1 -c 32 -m 16 -n 512
starting benchmark...
spawning thread #0: 32 total client(s). 512 total requests
Application protocol: h2c
progress: 9% done
progress: 19% done
progress: 29% done
progress: 39% done
progress: 49% done
progress: 59% done
progress: 69% done
progress: 79% done
progress: 89% done
progress: 99% done

finished in 55.59s, 9.21 req/s, 1.15GB/s
requests: 512 total, 512 started, 512 done, 512 succeeded, 0 failed, 0 errored, 0 timeout
status codes: 512 2xx, 0 3xx, 0 4xx, 0 5xx
traffic: 68757252013 bytes total, 20763 bytes headers (space savings 77.34%), 68719476736 bytes data
                     min         max         mean         sd        +/- sd
time for request:      6.04s      55.59s      35.24s      14.57s    57.03%
time for connect:      515us       635us       562us        24us    71.88%
time to 1st byte:     3.07ms     28.34ms     16.93ms      6.38ms    65.63%
