h2load http://node-0:8080/128kb -p h2c -t 1 -c 4 -m 128 -n 512
starting benchmark...
spawning thread #0: 4 total client(s). 512 total requests
Application protocol: h2c
progress: 9% done
progress: 19% done
progress: 29% done
progress: 39% done
progress: 49% done
progress: 59% done
progress: 69% done
progress: 79% done
progress: 89% done
progress: 99% done

finished in 105.61ms, 4847.93 req/s, 606.51MB/s
requests: 512 total, 512 started, 512 done, 512 succeeded, 0 failed, 0 errored, 0 timeout
status codes: 512 2xx, 0 3xx, 0 4xx, 0 5xx
traffic: 67166624 bytes total, 16144 bytes headers (space savings 81.88%), 67108864 bytes data
                     min         max         mean         sd        +/- sd
time for request:    73.33ms    102.90ms     89.52ms     11.51ms    50.00%
time for connect:      267us       389us       326us        46us    50.00%
time to 1st byte:    48.55ms     60.76ms     54.27ms      5.28ms    50.00%
