h2load http://node-0:8080/1kb -p h2c -t 1 -c 2 -m 256 -n 512
starting benchmark...
spawning thread #0: 2 total client(s). 512 total requests
Application protocol: h2c
progress: 9% done
progress: 19% done
progress: 29% done
progress: 39% done
progress: 49% done
progress: 59% done
progress: 69% done
progress: 79% done
progress: 89% done
progress: 99% done

finished in 28.09ms, 18224.53 req/s, 18.62MB/s
requests: 512 total, 512 started, 512 done, 512 succeeded, 0 failed, 0 errored, 0 timeout
status codes: 512 2xx, 0 3xx, 0 4xx, 0 5xx
traffic: 548562 bytes total, 14986 bytes headers (space savings 82.78%), 524288 bytes data
                     min         max         mean         sd        +/- sd
time for request:    22.77ms     25.56ms     24.11ms      1.25ms    51.17%
time for connect:      258us       342us       300us        42us   100.00%
time to 1st byte:    23.74ms     25.67ms     24.70ms       961us   100.00%
