h2load http://node-0:8080/64mb -p h2c -t 1 -c 8 -m 64 -n 512
starting benchmark...
spawning thread #0: 8 total client(s). 512 total requests
Application protocol: h2c
progress: 9% done
progress: 19% done
progress: 29% done
progress: 39% done
progress: 49% done
progress: 59% done
progress: 69% done
progress: 79% done
progress: 89% done
progress: 99% done

finished in 29.85s, 17.15 req/s, 1.07GB/s
requests: 512 total, 512 started, 512 done, 512 succeeded, 0 failed, 0 errored, 0 timeout
status codes: 512 2xx, 0 3xx, 0 4xx, 0 5xx
traffic: 34378636036 bytes total, 18098 bytes headers (space savings 80.14%), 34359738368 bytes data
                     min         max         mean         sd        +/- sd
time for request:     12.77s      29.85s      21.66s       5.16s    63.28%
time for connect:      253us       355us       302us        32us    62.50%
time to 1st byte:    15.75ms     31.61ms     23.12ms      6.14ms    37.50%
