h2load http://node-0:8080/8mb -p h2c -t 1 -c 64 -m 8 -n 512
starting benchmark...
spawning thread #0: 64 total client(s). 512 total requests
Application protocol: h2c
progress: 9% done
progress: 19% done
progress: 29% done
progress: 39% done
progress: 49% done
progress: 59% done
progress: 69% done
progress: 79% done
progress: 89% done
progress: 99% done

finished in 3.49s, 146.79 req/s, 1.15GB/s
requests: 512 total, 512 started, 512 done, 512 succeeded, 0 failed, 0 errored, 0 timeout
status codes: 512 2xx, 0 3xx, 0 4xx, 0 5xx
traffic: 4297355333 bytes total, 21829 bytes headers (space savings 75.78%), 4294967296 bytes data
                     min         max         mean         sd        +/- sd
time for request:   236.03ms       3.48s       2.30s    848.32ms    53.91%
time for connect:      754us      1.52ms      1.07ms       285us    57.81%
time to 1st byte:     3.78ms       1.02s     38.81ms    126.03ms    96.88%
