h2load http://node-0:8080/128kb -p h2c -t 1 -c 2 -m 256 -n 512
starting benchmark...
spawning thread #0: 2 total client(s). 512 total requests
Application protocol: h2c
progress: 9% done
progress: 19% done
progress: 29% done
progress: 39% done
progress: 49% done
progress: 59% done
progress: 69% done
progress: 79% done
progress: 89% done
progress: 99% done

finished in 172.47ms, 2968.63 req/s, 371.40MB/s
requests: 512 total, 512 started, 512 done, 512 succeeded, 0 failed, 0 errored, 0 timeout
status codes: 512 2xx, 0 3xx, 0 4xx, 0 5xx
traffic: 67166416 bytes total, 16008 bytes headers (space savings 82.03%), 67108864 bytes data
                     min         max         mean         sd        +/- sd
time for request:   161.92ms    169.84ms    166.62ms      2.16ms    60.94%
time for connect:      308us       394us       351us        43us   100.00%
time to 1st byte:   115.06ms    117.01ms    116.04ms       973us   100.00%
