h2load http://node-0:8080/128mb -p h2c -t 1 -c 2 -m 256 -n 512
starting benchmark...
spawning thread #0: 2 total client(s). 512 total requests
Application protocol: h2c
progress: 9% done
progress: 19% done
progress: 29% done
progress: 39% done
progress: 49% done
progress: 59% done
progress: 69% done
progress: 79% done
progress: 89% done
progress: 99% done

finished in 104.33s, 4.91 req/s, 628.51MB/s
requests: 512 total, 512 started, 512 done, 512 succeeded, 0 failed, 0 errored, 0 timeout
status codes: 512 2xx, 0 3xx, 0 4xx, 0 5xx
traffic: 68757250161 bytes total, 19091 bytes headers (space savings 79.17%), 68719476736 bytes data
                     min         max         mean         sd        +/- sd
time for request:      3.39s     104.33s      57.66s      28.94s    54.88%
time for connect:      331us       416us       373us        42us    50.00%
time to 1st byte:    32.13ms     32.38ms     32.25ms       124us    50.00%
