h2load http://node-0:8080/1mb -p h2c -t 1 -c 16 -m 32 -n 512
starting benchmark...
spawning thread #0: 16 total client(s). 512 total requests
Application protocol: h2c
progress: 9% done
progress: 19% done
progress: 29% done
progress: 39% done
progress: 49% done
progress: 59% done
progress: 69% done
progress: 79% done
progress: 89% done
progress: 99% done

finished in 446.79ms, 1145.95 req/s, 1.12GB/s
requests: 512 total, 512 started, 512 done, 512 succeeded, 0 failed, 0 errored, 0 timeout
status codes: 512 2xx, 0 3xx, 0 4xx, 0 5xx
traffic: 537189008 bytes total, 18000 bytes headers (space savings 80.02%), 536870912 bytes data
                     min         max         mean         sd        +/- sd
time for request:   161.31ms    443.84ms    370.50ms     75.36ms    78.52%
time for connect:      342us       401us       363us        17us    68.75%
time to 1st byte:    10.38ms     17.05ms     14.07ms      2.29ms    56.25%
