h2load http://node-0:8080/128kb -p h2c -t 1 -c 64 -m 8 -n 512
starting benchmark...
spawning thread #0: 64 total client(s). 512 total requests
Application protocol: h2c
progress: 9% done
progress: 19% done
progress: 29% done
progress: 39% done
progress: 49% done
progress: 59% done
progress: 69% done
progress: 79% done
progress: 89% done
progress: 99% done

finished in 211.73ms, 2418.20 req/s, 302.56MB/s
requests: 512 total, 512 started, 512 done, 512 succeeded, 0 failed, 0 errored, 0 timeout
status codes: 512 2xx, 0 3xx, 0 4xx, 0 5xx
traffic: 67172864 bytes total, 20224 bytes headers (space savings 77.30%), 67108864 bytes data
                     min         max         mean         sd        +/- sd
time for request:     6.34ms    207.35ms     44.17ms     32.90ms    90.63%
time for connect:      740us      1.11ms       928us       117us    53.13%
time to 1st byte:     3.94ms    206.73ms     22.89ms     33.77ms    96.88%
