h2load http://node-0:8080/1kb -p h2c -t 1 -c 512 -m 1 -n 512
starting benchmark...
spawning thread #0: 512 total client(s). 512 total requests
Application protocol: h2c
progress: 9% done
progress: 19% done
progress: 29% done
progress: 39% done
progress: 49% done
progress: 59% done
progress: 69% done
progress: 79% done
progress: 89% done
progress: 99% done

finished in 13.11s, 39.05 req/s, 44.84KB/s
requests: 512 total, 512 started, 512 done, 512 succeeded, 0 failed, 0 errored, 0 timeout
status codes: 512 2xx, 0 3xx, 0 4xx, 0 5xx
traffic: 602112 bytes total, 50176 bytes headers (space savings 42.35%), 524288 bytes data
                     min         max         mean         sd        +/- sd
time for request:      512us      13.09s    570.58ms       2.00s    93.75%
time for connect:     6.27ms       3.00s    275.36ms    588.07ms    78.13%
time to 1st byte:    14.02ms      13.10s    850.21ms       2.02s    91.21%
