h2load http://node-0:8080/16kb -p h2c -t 1 -c 8 -m 64 -n 512
starting benchmark...
spawning thread #0: 8 total client(s). 512 total requests
Application protocol: h2c
progress: 9% done
progress: 19% done
progress: 29% done
progress: 39% done
progress: 49% done
progress: 59% done
progress: 69% done
progress: 79% done
progress: 89% done
progress: 99% done

finished in 19.77ms, 25901.76 req/s, 405.97MB/s
requests: 512 total, 512 started, 512 done, 512 succeeded, 0 failed, 0 errored, 0 timeout
status codes: 512 2xx, 0 3xx, 0 4xx, 0 5xx
traffic: 8414528 bytes total, 16416 bytes headers (space savings 81.36%), 8388608 bytes data
                     min         max         mean         sd        +/- sd
time for request:     9.22ms     17.25ms     13.21ms      2.02ms    59.18%
time for connect:      252us       352us       296us        34us    62.50%
time to 1st byte:    10.48ms     15.02ms     11.97ms      1.44ms    75.00%
