h2load http://node-0:8080/16kb -p h2c -t 1 -c 512 -m 1 -n 512 -T 30m
starting benchmark...
spawning thread #0: 512 total client(s). 512 total requests
Application protocol: h2c
progress: 9% done
progress: 19% done
progress: 29% done
progress: 39% done
progress: 49% done
progress: 59% done
progress: 69% done
progress: 79% done
progress: 89% done
progress: 99% done

finished in 32.43s, 15.75 req/s, 254.43KB/s
requests: 512 total, 512 started, 512 done, 511 succeeded, 1 failed, 1 errored, 0 timeout
status codes: 511 2xx, 0 3xx, 0 4xx, 0 5xx
traffic: 8450407 bytes total, 50589 bytes headers (space savings 42.44%), 8372224 bytes data
                     min         max         mean         sd        +/- sd
time for request:    50.67ms      32.37s       2.13s       6.20s    94.52%
time for connect:    50.41ms       1.05s     63.39ms     87.31ms    99.22%
time to 1st byte:   102.98ms      32.43s       2.18s       6.20s    94.52%
