h2load http://node-0:8080/8mb -p h2c -t 1 -c 4 -m 128 -n 512 -T 30m
starting benchmark...
spawning thread #0: 4 total client(s). 512 total requests
Application protocol: h2c
progress: 9% done
progress: 19% done
progress: 29% done
progress: 39% done
progress: 49% done
progress: 59% done
progress: 69% done
progress: 79% done
progress: 89% done
progress: 99% done

finished in 18.59s, 27.54 req/s, 220.43MB/s
requests: 512 total, 512 started, 512 done, 512 succeeded, 0 failed, 0 errored, 0 timeout
status codes: 512 2xx, 0 3xx, 0 4xx, 0 5xx
traffic: 4297349346 bytes total, 18002 bytes headers (space savings 80.02%), 4294967296 bytes data
                     min         max         mean         sd        +/- sd
time for request:      5.01s      18.54s      11.80s       4.87s    53.13%
time for connect:    50.34ms     50.44ms     50.38ms        41us    50.00%
time to 1st byte:   113.21ms    116.39ms    114.69ms      1.39ms    50.00%
