h2load http://node-0:8080/16kb -p h2c -t 1 -c 256 -m 2 -n 512 -T 30m
starting benchmark...
spawning thread #0: 256 total client(s). 512 total requests
Application protocol: h2c
progress: 9% done
progress: 19% done
progress: 29% done
progress: 39% done
progress: 49% done
progress: 59% done
progress: 69% done
progress: 79% done
progress: 89% done
progress: 99% done

finished in 1.17s, 438.47 req/s, 6.89MB/s
requests: 512 total, 512 started, 512 done, 512 succeeded, 0 failed, 0 errored, 0 timeout
status codes: 512 2xx, 0 3xx, 0 4xx, 0 5xx
traffic: 8440320 bytes total, 33280 bytes headers (space savings 62.21%), 8388608 bytes data
                     min         max         mean         sd        +/- sd
time for request:    50.68ms       1.11s    177.65ms    177.68ms    93.16%
time for connect:    50.48ms       1.05s     65.58ms    107.03ms    98.83%
time to 1st byte:   102.11ms       1.11s    219.72ms    199.88ms    92.19%
