h2load http://node-0:8080/128mb -p h2c -t 1 -c 16 -m 32 -n 512 -T 30m
starting benchmark...
spawning thread #0: 16 total client(s). 512 total requests
Application protocol: h2c
progress: 9% done
progress: 19% done
progress: 29% done
progress: 39% done
progress: 49% done
progress: 59% done
progress: 69% done
progress: 79% done
progress: 89% done
progress: 99% done

finished in 119.39s, 4.29 req/s, 549.23MB/s
requests: 512 total, 512 started, 512 done, 512 succeeded, 0 failed, 0 errored, 0 timeout
status codes: 512 2xx, 0 3xx, 0 4xx, 0 5xx
traffic: 68757251080 bytes total, 19974 bytes headers (space savings 78.21%), 68719476736 bytes data
                     min         max         mean         sd        +/- sd
time for request:      5.36s     118.34s      63.35s      18.50s    84.57%
time for connect:    50.31ms       1.05s    112.68ms    241.29ms    93.75%
time to 1st byte:   110.12ms      46.99s       3.05s      11.35s    93.75%
