h2load http://node-0:8080/1mb -p h2c -t 1 -c 2 -m 256 -n 512 -T 30m
starting benchmark...
spawning thread #0: 2 total client(s). 512 total requests
Application protocol: h2c
progress: 9% done
progress: 19% done
progress: 29% done
progress: 39% done
progress: 49% done
progress: 59% done
progress: 69% done
progress: 79% done
progress: 89% done
progress: 99% done

finished in 4.00s, 102.43 req/s, 102.49MB/s
requests: 512 total, 512 started, 512 done, 512 succeeded, 0 failed, 0 errored, 0 timeout
status codes: 512 2xx, 0 3xx, 0 4xx, 0 5xx
traffic: 537187745 bytes total, 17241 bytes headers (space savings 80.87%), 536870912 bytes data
                     min         max         mean         sd        +/- sd
time for request:   955.76ms       4.95s       2.97s       1.28s    57.62%
time for connect:    50.29ms     50.37ms     50.33ms        39us   100.00%
time to 1st byte:   115.18ms    115.31ms    115.24ms        65us   100.00%
