h2load http://node-0:8080/8mb -p h2c -t 1 -c 256 -m 2 -n 512 -T 30m
starting benchmark...
spawning thread #0: 256 total client(s). 512 total requests
Application protocol: h2c
progress: 9% done
progress: 19% done
progress: 29% done
progress: 39% done
progress: 49% done
progress: 59% done
progress: 69% done
progress: 79% done
progress: 89% done
progress: 99% done

finished in 8.68s, 58.97 req/s, 472.02MB/s
requests: 512 total, 512 started, 512 done, 512 succeeded, 0 failed, 0 errored, 0 timeout
status codes: 512 2xx, 0 3xx, 0 4xx, 0 5xx
traffic: 4297375232 bytes total, 34816 bytes headers (space savings 61.36%), 4294967296 bytes data
                     min         max         mean         sd        +/- sd
time for request:      1.09s       8.62s       3.16s       1.57s    73.63%
time for connect:    50.21ms       1.06s     68.37ms    125.15ms    98.44%
time to 1st byte:   101.45ms       2.37s    406.77ms    576.09ms    85.94%
