h2load http://node-0:8080/1mb -p h2c -t 1 -c 4 -m 128 -n 512 -T 30m
starting benchmark...
spawning thread #0: 4 total client(s). 512 total requests
Application protocol: h2c
progress: 9% done
progress: 19% done
progress: 29% done
progress: 39% done
progress: 49% done
progress: 59% done
progress: 69% done
progress: 79% done
progress: 89% done
progress: 99% done

finished in 2.82s, 181.37 req/s, 181.48MB/s
requests: 512 total, 512 started, 512 done, 512 succeeded, 0 failed, 0 errored, 0 timeout
status codes: 512 2xx, 0 3xx, 0 4xx, 0 5xx
traffic: 537187886 bytes total, 17310 bytes headers (space savings 80.79%), 536870912 bytes data
                     min         max         mean         sd        +/- sd
time for request:      1.01s       2.77s       1.99s    587.89ms    51.76%
time for connect:    50.35ms     50.46ms     50.40ms        43us    50.00%
time to 1st byte:   113.27ms    116.79ms    115.06ms      1.49ms    50.00%
