h2load http://node-0:8080/64mb -p h2c -t 1 -c 128 -m 4 -n 512 -T 30m
starting benchmark...
spawning thread #0: 128 total client(s). 512 total requests
Application protocol: h2c
progress: 9% done
progress: 19% done
progress: 29% done
progress: 39% done
progress: 49% done
progress: 59% done
progress: 69% done
progress: 79% done
progress: 89% done
progress: 99% done

finished in 42.52s, 12.04 req/s, 771.04MB/s
requests: 512 total, 512 started, 512 done, 512 succeeded, 0 failed, 0 errored, 0 timeout
status codes: 512 2xx, 0 3xx, 0 4xx, 0 5xx
traffic: 34378648064 bytes total, 26112 bytes headers (space savings 71.35%), 34359738368 bytes data
                     min         max         mean         sd        +/- sd
time for request:      6.28s      42.47s      20.32s       6.88s    63.09%
time for connect:    50.40ms       1.56s     63.54ms    132.71ms    99.22%
time to 1st byte:   103.44ms       1.62s    286.89ms    302.87ms    85.94%
