h2load http://node-0:8080/16kb -p h2c -t 1 -c 2 -m 256 -n 512 -T 30m
starting benchmark...
spawning thread #0: 2 total client(s). 512 total requests
Application protocol: h2c
progress: 9% done
progress: 19% done
progress: 29% done
progress: 39% done
progress: 49% done
progress: 59% done
progress: 69% done
progress: 79% done
progress: 89% done
progress: 99% done

finished in 536.75ms, 953.88 req/s, 14.95MB/s
requests: 512 total, 512 started, 512 done, 512 succeeded, 0 failed, 0 errored, 0 timeout
status codes: 512 2xx, 0 3xx, 0 4xx, 0 5xx
traffic: 8413904 bytes total, 16008 bytes headers (space savings 81.82%), 8388608 bytes data
                     min         max         mean         sd        +/- sd
time for request:    80.80ms    483.78ms    372.99ms     77.67ms    73.44%
time for connect:    50.32ms     50.40ms     50.36ms        43us    50.00%
time to 1st byte:   131.41ms    134.19ms    132.80ms      1.39ms   100.00%
