h2load http://node-0:8080/1mb -p h2c -t 1 -c 128 -m 4 -n 512 -T 30m
starting benchmark...
spawning thread #0: 128 total client(s). 512 total requests
Application protocol: h2c
progress: 9% done
progress: 19% done
progress: 29% done
progress: 39% done
progress: 49% done
progress: 59% done
progress: 69% done
progress: 79% done
progress: 89% done
progress: 99% done

finished in 1.92s, 266.23 req/s, 266.40MB/s
requests: 512 total, 512 started, 512 done, 512 succeeded, 0 failed, 0 errored, 0 timeout
status codes: 512 2xx, 0 3xx, 0 4xx, 0 5xx
traffic: 537200768 bytes total, 25728 bytes headers (space savings 71.45%), 536870912 bytes data
                     min         max         mean         sd        +/- sd
time for request:   302.44ms       1.87s    611.17ms    248.31ms    88.28%
time for connect:    50.32ms       1.05s     75.01ms    150.90ms    97.66%
time to 1st byte:   101.75ms       1.10s    187.67ms    204.58ms    92.97%
