h2load http://node-0:8080/128kb -p h2c -t 1 -c 8 -m 64 -n 512 -T 30m
starting benchmark...
spawning thread #0: 8 total client(s). 512 total requests
Application protocol: h2c
progress: 9% done
progress: 19% done
progress: 29% done
progress: 39% done
progress: 49% done
progress: 59% done
progress: 69% done
progress: 79% done
progress: 89% done
progress: 99% done

finished in 691.05ms, 740.90 req/s, 92.69MB/s
requests: 512 total, 512 started, 512 done, 512 succeeded, 0 failed, 0 errored, 0 timeout
status codes: 512 2xx, 0 3xx, 0 4xx, 0 5xx
traffic: 67167040 bytes total, 16416 bytes headers (space savings 81.57%), 67108864 bytes data
                     min         max         mean         sd        +/- sd
time for request:   514.73ms    638.17ms    560.92ms     29.78ms    72.07%
time for connect:    50.36ms     50.53ms     50.43ms        56us    50.00%
time to 1st byte:   126.53ms    137.91ms    133.80ms      4.16ms    75.00%
