h2load http://node-0:8080/8mb -p h2c -t 1 -c 4 -m 128 -n 512
starting benchmark...
spawning thread #0: 4 total client(s). 512 total requests
Application protocol: h2c
progress: 9% done
progress: 19% done
progress: 29% done
progress: 39% done
progress: 49% done
progress: 59% done
progress: 69% done
progress: 79% done
progress: 89% done
progress: 99% done

finished in 4.21s, 121.50 req/s, 972.55MB/s
requests: 512 total, 512 started, 512 done, 512 succeeded, 0 failed, 0 errored, 0 timeout
status codes: 512 2xx, 0 3xx, 0 4xx, 0 5xx
traffic: 4297349323 bytes total, 17979 bytes headers (space savings 80.05%), 4294967296 bytes data
                     min         max         mean         sd        +/- sd
time for request:   567.76ms       4.21s       2.44s       1.08s    66.60%
time for connect:      263us       383us       321us        45us    50.00%
time to 1st byte:    13.73ms     23.21ms     16.65ms      3.82ms    75.00%
