h2load http://node-0:8080/1kb -p h2c -t 1 -c 128 -m 4 -n 512
starting benchmark...
spawning thread #0: 128 total client(s). 512 total requests
Application protocol: h2c
progress: 9% done
progress: 19% done
progress: 29% done
progress: 39% done
progress: 49% done
progress: 59% done
progress: 69% done
progress: 79% done
progress: 89% done
progress: 99% done

finished in 1.00s, 511.25 req/s, 547.82KB/s
requests: 512 total, 512 started, 512 done, 512 succeeded, 0 failed, 0 errored, 0 timeout
status codes: 512 2xx, 0 3xx, 0 4xx, 0 5xx
traffic: 561792 bytes total, 23680 bytes headers (space savings 72.79%), 524288 bytes data
                     min         max         mean         sd        +/- sd
time for request:      774us    814.63ms     87.94ms    196.53ms    88.28%
time for connect:     1.50ms    997.48ms     33.38ms    173.16ms    96.88%
time to 1st byte:     4.49ms    998.41ms    122.49ms    251.27ms    85.16%
