h2load http://node-0:8080/1mb -p h2c -t 1 -c 512 -m 1 -n 512
starting benchmark...
spawning thread #0: 512 total client(s). 512 total requests
Application protocol: h2c
progress: 9% done
progress: 19% done
progress: 29% done
progress: 39% done
progress: 49% done
progress: 59% done
progress: 69% done
progress: 79% done
progress: 89% done
progress: 99% done

finished in 26.21s, 19.53 req/s, 19.55MB/s
requests: 512 total, 512 started, 512 done, 512 succeeded, 0 failed, 0 errored, 0 timeout
status codes: 512 2xx, 0 3xx, 0 4xx, 0 5xx
traffic: 537241088 bytes total, 52224 bytes headers (space savings 42.05%), 536870912 bytes data
                     min         max         mean         sd        +/- sd
time for request:    13.77ms      26.19s       1.15s       3.80s    93.95%
time for connect:     6.45ms       3.00s    306.90ms    706.44ms    95.12%
time to 1st byte:    14.85ms      26.20s       1.35s       3.82s    93.95%
