h2load http://node-0:8080/16kb -p h2c -t 1 -c 256 -m 2 -n 512
starting benchmark...
spawning thread #0: 256 total client(s). 512 total requests
Application protocol: h2c
progress: 9% done
progress: 19% done
progress: 29% done
progress: 39% done
progress: 49% done
progress: 59% done
progress: 69% done
progress: 79% done
progress: 89% done
progress: 99% done

finished in 3.28s, 156.02 req/s, 2.45MB/s
requests: 512 total, 512 started, 512 done, 512 succeeded, 0 failed, 0 errored, 0 timeout
status codes: 512 2xx, 0 3xx, 0 4xx, 0 5xx
traffic: 8440320 bytes total, 33280 bytes headers (space savings 62.21%), 8388608 bytes data
                     min         max         mean         sd        +/- sd
time for request:      497us       3.27s    315.01ms    724.39ms    91.80%
time for connect:     3.18ms    998.09ms      8.50ms     61.99ms    99.61%
time to 1st byte:    10.29ms       3.28s    326.51ms    724.48ms    91.80%
