h2load http://node-0:8080/1mb -p h2c -t 1 -c 16 -m 32 -n 512
starting benchmark...
spawning thread #0: 16 total client(s). 512 total requests
Application protocol: h2c
progress: 9% done
progress: 19% done
progress: 29% done
progress: 39% done
progress: 49% done
progress: 59% done
progress: 69% done
progress: 79% done
progress: 89% done
progress: 99% done

finished in 445.50ms, 1149.28 req/s, 1.12GB/s
requests: 512 total, 512 started, 512 done, 512 succeeded, 0 failed, 0 errored, 0 timeout
status codes: 512 2xx, 0 3xx, 0 4xx, 0 5xx
traffic: 537189008 bytes total, 18000 bytes headers (space savings 80.02%), 536870912 bytes data
                     min         max         mean         sd        +/- sd
time for request:    92.17ms    443.16ms    337.15ms     93.41ms    55.86%
time for connect:      318us       388us       351us        26us    50.00%
time to 1st byte:     8.61ms     17.35ms     13.53ms      2.52ms    56.25%
