h2load http://node-0:8080/16kb -p h2c -t 1 -c 32 -m 16 -n 512
starting benchmark...
spawning thread #0: 32 total client(s). 512 total requests
Application protocol: h2c
progress: 9% done
progress: 19% done
progress: 29% done
progress: 39% done
progress: 49% done
progress: 59% done
progress: 69% done
progress: 79% done
progress: 89% done
progress: 99% done

finished in 212.29ms, 2411.75 req/s, 37.81MB/s
requests: 512 total, 512 started, 512 done, 512 succeeded, 0 failed, 0 errored, 0 timeout
status codes: 512 2xx, 0 3xx, 0 4xx, 0 5xx
traffic: 8417024 bytes total, 18048 bytes headers (space savings 79.51%), 8388608 bytes data
                     min         max         mean         sd        +/- sd
time for request:     3.35ms    210.14ms     13.70ms     30.49ms    97.66%
time for connect:      475us       611us       505us        29us    84.38%
time to 1st byte:     4.50ms     12.99ms      9.54ms      2.10ms    62.50%
