h2load http://node-0:8080/1mb -p h2c -t 1 -c 8 -m 64 -n 512
starting benchmark...
spawning thread #0: 8 total client(s). 512 total requests
Application protocol: h2c
progress: 9% done
progress: 19% done
progress: 29% done
progress: 39% done
progress: 49% done
progress: 59% done
progress: 69% done
progress: 79% done
progress: 89% done
progress: 99% done

finished in 465.74ms, 1099.34 req/s, 1.07GB/s
requests: 512 total, 512 started, 512 done, 512 succeeded, 0 failed, 0 errored, 0 timeout
status codes: 512 2xx, 0 3xx, 0 4xx, 0 5xx
traffic: 537188283 bytes total, 17563 bytes headers (space savings 80.51%), 536870912 bytes data
                     min         max         mean         sd        +/- sd
time for request:    95.52ms    463.60ms    326.56ms    112.93ms    55.66%
time for connect:      256us       358us       301us        35us    62.50%
time to 1st byte:    12.68ms     21.58ms     16.52ms      2.95ms    62.50%
