h2load http://node-0:8080/64mb -p h2c -t 1 -c 1 -m 512 -n 512
starting benchmark...
spawning thread #0: 1 total client(s). 512 total requests
Application protocol: h2c
progress: 9% done
progress: 19% done
progress: 29% done
progress: 39% done
progress: 49% done
progress: 59% done
progress: 69% done
progress: 79% done
progress: 89% done
progress: 99% done

finished in 84.30s, 6.07 req/s, 388.93MB/s
requests: 512 total, 512 started, 512 done, 512 succeeded, 0 failed, 0 errored, 0 timeout
status codes: 512 2xx, 0 3xx, 0 4xx, 0 5xx
traffic: 34378635341 bytes total, 17637 bytes headers (space savings 80.65%), 34359738368 bytes data
                     min         max         mean         sd        +/- sd
time for request:     11.71s      84.29s      47.69s      23.60s    51.56%
time for connect:      323us       323us       323us         0us   100.00%
time to 1st byte:    38.14ms     38.14ms     38.14ms         0us   100.00%
