h2load http://node-0:8080/1kb -p h2c -t 1 -c 16 -m 32 -n 512
starting benchmark...
spawning thread #0: 16 total client(s). 512 total requests
Application protocol: h2c
progress: 9% done
progress: 19% done
progress: 29% done
progress: 39% done
progress: 49% done
progress: 59% done
progress: 69% done
progress: 79% done
progress: 89% done
progress: 99% done

finished in 15.28ms, 33512.24 req/s, 34.33MB/s
requests: 512 total, 512 started, 512 done, 512 succeeded, 0 failed, 0 errored, 0 timeout
status codes: 512 2xx, 0 3xx, 0 4xx, 0 5xx
traffic: 550032 bytes total, 15952 bytes headers (space savings 81.67%), 524288 bytes data
                     min         max         mean         sd        +/- sd
time for request:     4.70ms     13.06ms      8.42ms      3.07ms    45.51%
time for connect:      322us       391us       352us        25us    56.25%
time to 1st byte:     5.64ms     13.91ms      9.35ms      2.98ms    50.00%
