h2load http://node-0:8080/8mb -p h2c -t 1 -c 512 -m 1 -n 512
starting benchmark...
spawning thread #0: 512 total client(s). 512 total requests
Application protocol: h2c
progress: 9% done
progress: 19% done
progress: 29% done
progress: 39% done
progress: 49% done
progress: 59% done
progress: 69% done
progress: 79% done
progress: 89% done
progress: 99% done

finished in 4.18s, 122.52 req/s, 980.70MB/s
requests: 512 total, 512 started, 512 done, 512 succeeded, 0 failed, 0 errored, 0 timeout
status codes: 512 2xx, 0 3xx, 0 4xx, 0 5xx
traffic: 4297401856 bytes total, 52224 bytes headers (space savings 42.05%), 4294967296 bytes data
                     min         max         mean         sd        +/- sd
time for request:   255.85ms       4.16s       2.15s       1.04s    54.88%
time for connect:     6.36ms       3.01s    271.21ms    745.36ms    93.95%
time to 1st byte:    14.20ms       3.42s    772.73ms    894.75ms    79.30%
