h2load http://node-0:8080/1mb -p h2c -t 1 -c 4 -m 128 -n 512
starting benchmark...
spawning thread #0: 4 total client(s). 512 total requests
Application protocol: h2c
progress: 9% done
progress: 19% done
progress: 29% done
progress: 39% done
progress: 49% done
progress: 59% done
progress: 69% done
progress: 79% done
progress: 89% done
progress: 99% done

finished in 534.02ms, 958.77 req/s, 959.33MB/s
requests: 512 total, 512 started, 512 done, 512 succeeded, 0 failed, 0 errored, 0 timeout
status codes: 512 2xx, 0 3xx, 0 4xx, 0 5xx
traffic: 537187748 bytes total, 17172 bytes headers (space savings 80.94%), 536870912 bytes data
                     min         max         mean         sd        +/- sd
time for request:    92.02ms    531.51ms    313.11ms    135.01ms    64.65%
time for connect:      288us       399us       336us        42us    50.00%
time to 1st byte:    13.08ms     17.15ms     15.02ms      1.44ms    50.00%
