h2load http://node-1:8080/64mb -p h2c -t 1 -c 2 -m 64 -n 128 -T 30m
starting benchmark...
spawning thread #0: 2 total client(s). 128 total requests
Application protocol: h2c
progress: 9% done
progress: 18% done
progress: 28% done
progress: 37% done
progress: 46% done
progress: 56% done
progress: 65% done
progress: 75% done
progress: 84% done
progress: 93% done

finished in 14.96s, 8.56 req/s, 547.99MB/s
requests: 128 total, 128 started, 128 done, 128 succeeded, 0 failed, 0 errored, 0 timeout
status codes: 128 2xx, 0 3xx, 0 4xx, 0 5xx
traffic: 8594659096 bytes total, 4616 bytes headers (space savings 79.74%), 8589934592 bytes data
                     min         max         mean         sd        +/- sd
time for request:     14.87s      14.96s      14.91s     40.66ms    46.88%
time for connect:      283us       310us       296us        13us    50.00%
time to 1st byte:    17.20ms     18.40ms     17.80ms       595us    50.00%
