h2load http://node-1:8080/1kb -p h2c -t 1 -c 1 -m 2 -n 512 -T 30m
starting benchmark...
spawning thread #0: 1 total client(s). 512 total requests
Application protocol: h2c
progress: 9% done
progress: 19% done
progress: 29% done
progress: 39% done
progress: 49% done
progress: 59% done
progress: 69% done
progress: 79% done
progress: 89% done
progress: 99% done

finished in 13.01s, 39.35 req/s, 41.18KB/s
requests: 512 total, 512 started, 512 done, 512 succeeded, 0 failed, 0 errored, 0 timeout
status codes: 512 2xx, 0 3xx, 0 4xx, 0 5xx
traffic: 548755 bytes total, 15215 bytes headers (space savings 82.52%), 524288 bytes data
                     min         max         mean         sd        +/- sd
time for request:    50.44ms     50.91ms     50.61ms        48us    77.54%
time for connect:    50.36ms     50.36ms     50.36ms         0us   100.00%
time to 1st byte:   101.33ms    101.33ms    101.33ms         0us   100.00%
