h2load http://node-1:8080/128kb -p h2c -t 1 -c 1 -m 1 -n 512 -T 30m
starting benchmark...
spawning thread #0: 1 total client(s). 512 total requests
Application protocol: h2c
progress: 9% done
progress: 19% done
progress: 29% done
progress: 39% done
progress: 49% done
progress: 59% done
progress: 69% done
progress: 79% done
progress: 89% done
progress: 99% done

finished in 26.34s, 19.44 req/s, 2.43MB/s
requests: 512 total, 512 started, 512 done, 512 succeeded, 0 failed, 0 errored, 0 timeout
status codes: 512 2xx, 0 3xx, 0 4xx, 0 5xx
traffic: 67166910 bytes total, 16538 bytes headers (space savings 81.44%), 67108864 bytes data
                     min         max         mean         sd        +/- sd
time for request:    50.70ms    201.36ms     51.33ms      6.99ms    99.61%
time for connect:    50.41ms     50.41ms     50.41ms         0us   100.00%
time to 1st byte:   101.35ms    101.35ms    101.35ms         0us   100.00%
