h2load http://node-1:8080/8mb -p h2c -t 1 -c 1 -m 512 -n 512 -T 30m
starting benchmark...
spawning thread #0: 1 total client(s). 512 total requests
Application protocol: h2c
progress: 9% done
progress: 19% done
progress: 29% done
progress: 39% done
progress: 49% done
progress: 59% done
progress: 69% done
progress: 79% done
progress: 89% done
progress: 99% done

finished in 73.18s, 7.00 req/s, 56.00MB/s
requests: 512 total, 512 started, 512 done, 512 succeeded, 0 failed, 0 errored, 0 timeout
status codes: 512 2xx, 0 3xx, 0 4xx, 0 5xx
traffic: 4297348919 bytes total, 17683 bytes headers (space savings 80.38%), 4294967296 bytes data
                     min         max         mean         sd        +/- sd
time for request:     10.54s      73.13s      41.70s      20.39s    51.56%
time for connect:    50.41ms     50.41ms     50.41ms         0us   100.00%
time to 1st byte:   134.16ms    134.16ms    134.16ms         0us   100.00%
