h2load http://node-1:8080/16kb -p h2c -t 1 -c 1 -m 64 -n 512 -T 30m
starting benchmark...
spawning thread #0: 1 total client(s). 512 total requests
Application protocol: h2c
progress: 9% done
progress: 19% done
progress: 29% done
progress: 39% done
progress: 49% done
progress: 59% done
progress: 69% done
progress: 79% done
progress: 89% done
progress: 99% done

finished in 2.17s, 235.84 req/s, 3.70MB/s
requests: 512 total, 512 started, 512 done, 512 succeeded, 0 failed, 0 errored, 0 timeout
status codes: 512 2xx, 0 3xx, 0 4xx, 0 5xx
traffic: 8413334 bytes total, 15474 bytes headers (space savings 82.43%), 8388608 bytes data
                     min         max         mean         sd        +/- sd
time for request:   108.52ms    502.18ms    255.34ms     59.29ms    90.43%
time for connect:    50.38ms     50.38ms     50.38ms         0us   100.00%
time to 1st byte:   108.96ms    108.96ms    108.96ms         0us   100.00%
