h2load http://node-1:8080/1mb -p h2c -t 1 -c 1 -m 256 -n 512 -T 30m
starting benchmark...
spawning thread #0: 1 total client(s). 512 total requests
Application protocol: h2c
progress: 9% done
progress: 19% done
progress: 29% done
progress: 39% done
progress: 49% done
progress: 59% done
progress: 69% done
progress: 79% done
progress: 89% done
progress: 99% done

finished in 10.40s, 49.25 req/s, 49.28MB/s
requests: 512 total, 512 started, 512 done, 512 succeeded, 0 failed, 0 errored, 0 timeout
status codes: 512 2xx, 0 3xx, 0 4xx, 0 5xx
traffic: 537187104 bytes total, 16636 bytes headers (space savings 81.54%), 536870912 bytes data
                     min         max         mean         sd        +/- sd
time for request:      2.21s       6.00s       4.31s       1.04s    75.78%
time for connect:    50.39ms     50.39ms     50.39ms         0us   100.00%
time to 1st byte:   125.02ms    125.02ms    125.02ms         0us   100.00%
