h2load http://node-1:8080/128kb -p h2c -t 1 -c 1 -m 32 -n 512 -T 30m
starting benchmark...
spawning thread #0: 1 total client(s). 512 total requests
Application protocol: h2c
progress: 9% done
progress: 19% done
progress: 29% done
progress: 39% done
progress: 49% done
progress: 59% done
progress: 69% done
progress: 79% done
progress: 89% done
progress: 99% done

finished in 3.73s, 137.30 req/s, 17.18MB/s
requests: 512 total, 512 started, 512 done, 512 succeeded, 0 failed, 0 errored, 0 timeout
status codes: 512 2xx, 0 3xx, 0 4xx, 0 5xx
traffic: 67166404 bytes total, 16032 bytes headers (space savings 82.00%), 67108864 bytes data
                     min         max         mean         sd        +/- sd
time for request:    89.59ms    613.48ms    226.59ms    110.31ms    87.70%
time for connect:    50.38ms     50.38ms     50.38ms         0us   100.00%
time to 1st byte:   111.19ms    111.19ms    111.19ms         0us   100.00%
