h2load http://node-0:8080/1mb -p h2c -t 1 -c 1 -m 1 -n 512 -T 9999999s
starting benchmark...
spawning thread #0: 1 total client(s). 512 total requests
Application protocol: h2c
progress: 9% done
progress: 19% done
progress: 29% done
progress: 39% done
progress: 49% done
progress: 59% done
progress: 69% done
progress: 79% done
progress: 89% done
progress: 99% done

finished in 1.43s, 358.58 req/s, 358.79MB/s
requests: 512 total, 512 started, 512 done, 512 succeeded, 0 failed, 0 errored, 0 timeout
status codes: 512 2xx, 0 3xx, 0 4xx, 0 5xx
traffic: 537187479 bytes total, 17011 bytes headers (space savings 81.12%), 536870912 bytes data
                     min         max         mean         sd        +/- sd
time for request:     1.24ms    204.70ms      2.78ms     15.41ms    99.41%
time for connect:      311us       311us       311us         0us   100.00%
time to 1st byte:     1.03ms      1.03ms      1.03ms         0us   100.00%
