h2load http://node-0:8080/128kb -p h2c -t 1 -c 1 -m 256 -n 512 -T 9999999s
starting benchmark...
spawning thread #0: 1 total client(s). 512 total requests
Application protocol: h2c
progress: 9% done
progress: 19% done
progress: 29% done
progress: 39% done
progress: 49% done
progress: 59% done
progress: 69% done
progress: 79% done
progress: 89% done
progress: 99% done

finished in 199.54ms, 2565.93 req/s, 321.02MB/s
requests: 512 total, 512 started, 512 done, 512 succeeded, 0 failed, 0 errored, 0 timeout
status codes: 512 2xx, 0 3xx, 0 4xx, 0 5xx
traffic: 67166312 bytes total, 15940 bytes headers (space savings 82.11%), 67108864 bytes data
                     min         max         mean         sd        +/- sd
time for request:     4.95ms    112.61ms     95.45ms     20.45ms    97.07%
time for connect:      277us       277us       277us         0us   100.00%
time to 1st byte:    85.11ms     85.11ms     85.11ms         0us   100.00%
