h2load http://node-0:8080/1kb -p h2c -t 1 -c 1 -m 128 -n 512 -T 9999999s
starting benchmark...
spawning thread #0: 1 total client(s). 512 total requests
Application protocol: h2c
progress: 9% done
progress: 19% done
progress: 29% done
progress: 39% done
progress: 49% done
progress: 59% done
progress: 69% done
progress: 79% done
progress: 89% done
progress: 99% done

finished in 43.05ms, 11893.42 req/s, 12.15MB/s
requests: 512 total, 512 started, 512 done, 512 succeeded, 0 failed, 0 errored, 0 timeout
status codes: 512 2xx, 0 3xx, 0 4xx, 0 5xx
traffic: 548457 bytes total, 14917 bytes headers (space savings 82.86%), 524288 bytes data
                     min         max         mean         sd        +/- sd
time for request:     8.58ms     13.59ms      9.98ms      1.00ms    75.00%
time for connect:      273us       273us       273us         0us   100.00%
time to 1st byte:    13.77ms     13.77ms     13.77ms         0us   100.00%
