h2load http://node-0:8080/64mb -p h2c -t 1 -c 1 -m 16 -n 512 -T 9999999s
starting benchmark...
spawning thread #0: 1 total client(s). 512 total requests
Application protocol: h2c
progress: 9% done
progress: 19% done
progress: 29% done
progress: 39% done
progress: 49% done
progress: 59% done
progress: 69% done
progress: 79% done
progress: 89% done
progress: 99% done

finished in 43.83s, 11.68 req/s, 748.00MB/s
requests: 512 total, 512 started, 512 done, 512 succeeded, 0 failed, 0 errored, 0 timeout
status codes: 512 2xx, 0 3xx, 0 4xx, 0 5xx
traffic: 34378635845 bytes total, 18465 bytes headers (space savings 79.74%), 34359738368 bytes data
                     min         max         mean         sd        +/- sd
time for request:   236.79ms       6.66s       1.35s       1.67s    81.25%
time for connect:      319us       319us       319us         0us   100.00%
time to 1st byte:     5.06ms      5.06ms      5.06ms         0us   100.00%
