h2load http://node-0:8080/16kb -p h2c -t 1 -c 1 -m 4 -n 512 -T 9999999s
starting benchmark...
spawning thread #0: 1 total client(s). 512 total requests
Application protocol: h2c
progress: 9% done
progress: 19% done
progress: 29% done
progress: 39% done
progress: 49% done
progress: 59% done
progress: 69% done
progress: 79% done
progress: 89% done
progress: 99% done

finished in 89.45ms, 5724.00 req/s, 89.71MB/s
requests: 512 total, 512 started, 512 done, 512 succeeded, 0 failed, 0 errored, 0 timeout
status codes: 512 2xx, 0 3xx, 0 4xx, 0 5xx
traffic: 8413800 bytes total, 15940 bytes headers (space savings 81.90%), 8388608 bytes data
                     min         max         mean         sd        +/- sd
time for request:      335us      8.56ms       675us       807us    96.09%
time for connect:      243us       243us       243us         0us   100.00%
time to 1st byte:     1.13ms      1.13ms      1.13ms         0us   100.00%
