h2load http://node-0:8080/128mb -p h2c -t 1 -c 1 -m 32 -n 512 -T 9999999s
starting benchmark...
spawning thread #0: 1 total client(s). 512 total requests
Application protocol: h2c
progress: 9% done
progress: 19% done
progress: 29% done
progress: 39% done
progress: 49% done
progress: 59% done
progress: 69% done
progress: 79% done
progress: 89% done
progress: 99% done

finished in 177.43s, 2.89 req/s, 369.57MB/s
requests: 512 total, 512 started, 512 done, 512 succeeded, 0 failed, 0 errored, 0 timeout
status codes: 512 2xx, 0 3xx, 0 4xx, 0 5xx
traffic: 68757250383 bytes total, 19322 bytes headers (space savings 78.92%), 68719476736 bytes data
                     min         max         mean         sd        +/- sd
time for request:   284.30ms      15.09s      11.02s       1.85s    86.33%
time for connect:      297us       297us       297us         0us   100.00%
time to 1st byte:    10.49ms     10.49ms     10.49ms         0us   100.00%
