h2load http://node-0:8080/1kb -p h2c -t 1 -c 1 -m 2 -n 512 -T 9999999s
starting benchmark...
spawning thread #0: 1 total client(s). 512 total requests
Application protocol: h2c
progress: 9% done
progress: 19% done
progress: 29% done
progress: 39% done
progress: 49% done
progress: 59% done
progress: 69% done
progress: 79% done
progress: 89% done
progress: 99% done

finished in 76.24ms, 6715.46 req/s, 6.86MB/s
requests: 512 total, 512 started, 512 done, 512 succeeded, 0 failed, 0 errored, 0 timeout
status codes: 512 2xx, 0 3xx, 0 4xx, 0 5xx
traffic: 548480 bytes total, 14940 bytes headers (space savings 82.84%), 524288 bytes data
                     min         max         mean         sd        +/- sd
time for request:      166us      2.18ms       285us       136us    97.85%
time for connect:      287us       287us       287us         0us   100.00%
time to 1st byte:      841us       841us       841us         0us   100.00%
