h2load http://node-0:8080/8mb -p h2c -t 1 -c 1 -m 2 -n 512 -T 9999999s
starting benchmark...
spawning thread #0: 1 total client(s). 512 total requests
Application protocol: h2c
progress: 9% done
progress: 19% done
progress: 29% done
progress: 39% done
progress: 49% done
progress: 59% done
progress: 69% done
progress: 79% done
progress: 89% done
progress: 99% done

finished in 4.97s, 103.05 req/s, 824.85MB/s
requests: 512 total, 512 started, 512 done, 512 succeeded, 0 failed, 0 errored, 0 timeout
status codes: 512 2xx, 0 3xx, 0 4xx, 0 5xx
traffic: 4297348827 bytes total, 17591 bytes headers (space savings 80.48%), 4294967296 bytes data
                     min         max         mean         sd        +/- sd
time for request:     8.56ms     35.01ms     19.38ms      3.27ms    69.14%
time for connect:      301us       301us       301us         0us   100.00%
time to 1st byte:     1.11ms      1.11ms      1.11ms         0us   100.00%
