h2load http://node-0:8080/128mb -p h2c -t 1 -c 1 -m 8 -n 512 -T 9999999s
starting benchmark...
spawning thread #0: 1 total client(s). 512 total requests
Application protocol: h2c
progress: 9% done
progress: 19% done
progress: 29% done
progress: 39% done
progress: 49% done
progress: 59% done
progress: 69% done
progress: 79% done
progress: 89% done
progress: 99% done

finished in 60.68s, 8.44 req/s, 1.06GB/s
requests: 512 total, 512 started, 512 done, 512 succeeded, 0 failed, 0 errored, 0 timeout
status codes: 512 2xx, 0 3xx, 0 4xx, 0 5xx
traffic: 68757249484 bytes total, 19368 bytes headers (space savings 78.87%), 68719476736 bytes data
                     min         max         mean         sd        +/- sd
time for request:   251.45ms       5.02s    942.36ms    673.30ms    88.28%
time for connect:      308us       308us       308us         0us   100.00%
time to 1st byte:     1.91ms      1.91ms      1.91ms         0us   100.00%
