h2load http://node-0:8080/16kb -p h2c -t 1 -c 1 -m 64 -n 512 -T 9999999s
starting benchmark...
spawning thread #0: 1 total client(s). 512 total requests
Application protocol: h2c
progress: 9% done
progress: 19% done
progress: 29% done
progress: 39% done
progress: 49% done
progress: 59% done
progress: 69% done
progress: 79% done
progress: 89% done
progress: 99% done

finished in 56.86ms, 9004.26 req/s, 141.11MB/s
requests: 512 total, 512 started, 512 done, 512 succeeded, 0 failed, 0 errored, 0 timeout
status codes: 512 2xx, 0 3xx, 0 4xx, 0 5xx
traffic: 8413800 bytes total, 15940 bytes headers (space savings 81.90%), 8388608 bytes data
                     min         max         mean         sd        +/- sd
time for request:     4.26ms     10.30ms      6.57ms      1.39ms    67.19%
time for connect:      279us       279us       279us         0us   100.00%
time to 1st byte:     8.90ms      8.90ms      8.90ms         0us   100.00%
