h2load http://node-0:8080/64mb -p h2c -t 1 -c 1 -m 256 -n 512 -T 9999999s
starting benchmark...
spawning thread #0: 1 total client(s). 512 total requests
Application protocol: h2c
progress: 9% done
progress: 19% done
progress: 29% done
progress: 39% done
progress: 49% done
progress: 59% done
progress: 69% done
progress: 79% done
progress: 89% done
progress: 99% done

finished in 99.94s, 5.12 req/s, 328.06MB/s
requests: 512 total, 512 started, 512 done, 512 succeeded, 0 failed, 0 errored, 0 timeout
status codes: 512 2xx, 0 3xx, 0 4xx, 0 5xx
traffic: 34378635346 bytes total, 17660 bytes headers (space savings 80.62%), 34359738368 bytes data
                     min         max         mean         sd        +/- sd
time for request:     13.23s      51.82s      40.54s      13.65s    74.22%
time for connect:      318us       318us       318us         0us   100.00%
time to 1st byte:    28.53ms     28.53ms     28.53ms         0us   100.00%
