h2load http://node-0:8080/16kb -p h2c -t 1 -c 1 -m 1 -n 512
starting benchmark...
spawning thread #0: 1 total client(s). 512 total requests
Application protocol: h2c
progress: 9% done
progress: 19% done
progress: 29% done
progress: 39% done
progress: 49% done
progress: 59% done
progress: 69% done
progress: 79% done
progress: 89% done
progress: 99% done

finished in 26.90s, 19.03 req/s, 305.48KB/s
requests: 512 total, 512 started, 512 done, 512 succeeded, 0 failed, 0 errored, 0 timeout
status codes: 512 2xx, 0 3xx, 0 4xx, 0 5xx
traffic: 8414421 bytes total, 16561 bytes headers (space savings 81.19%), 8388608 bytes data
                     min         max         mean         sd        +/- sd
time for request:    50.39ms    300.24ms     52.43ms     21.67ms    99.22%
time for connect:    50.27ms     50.27ms     50.27ms         0us   100.00%
time to 1st byte:   100.89ms    100.89ms    100.89ms         0us   100.00%
