h2load http://node-0:8080/8mb -p h2c -t 1 -c 1 -m 4 -n 512
starting benchmark...
spawning thread #0: 1 total client(s). 512 total requests
Application protocol: h2c
progress: 9% done
progress: 19% done
progress: 29% done
progress: 39% done
progress: 49% done
progress: 59% done
progress: 69% done
progress: 79% done
progress: 89% done
progress: 99% done

finished in 71.34s, 7.18 req/s, 57.44MB/s
requests: 512 total, 512 started, 512 done, 512 succeeded, 0 failed, 0 errored, 0 timeout
status codes: 512 2xx, 0 3xx, 0 4xx, 0 5xx
traffic: 4297350367 bytes total, 19131 bytes headers (space savings 78.77%), 4294967296 bytes data
                     min         max         mean         sd        +/- sd
time for request:   408.50ms    958.08ms    555.65ms     33.98ms    90.04%
time for connect:    50.34ms     50.34ms     50.34ms         0us   100.00%
time to 1st byte:   101.45ms    101.45ms    101.45ms         0us   100.00%
