h2load http://node-0:8080/8mb -p h2c -t 1 -c 1 -m 256 -n 512
starting benchmark...
spawning thread #0: 1 total client(s). 512 total requests
Application protocol: h2c
progress: 9% done
progress: 19% done
progress: 29% done
progress: 39% done
progress: 49% done
progress: 59% done
progress: 69% done
progress: 79% done
progress: 89% done
progress: 99% done

finished in 72.16s, 7.09 req/s, 56.79MB/s
requests: 512 total, 512 started, 512 done, 512 succeeded, 0 failed, 0 errored, 0 timeout
status codes: 512 2xx, 0 3xx, 0 4xx, 0 5xx
traffic: 4297348896 bytes total, 17660 bytes headers (space savings 80.40%), 4294967296 bytes data
                     min         max         mean         sd        +/- sd
time for request:      9.65s      37.42s      29.22s       9.68s    74.22%
time for connect:    50.30ms     50.30ms     50.30ms         0us   100.00%
time to 1st byte:   132.53ms    132.53ms    132.53ms         0us   100.00%
