h2load http://node-0:8080/16kb -p h2c -t 1 -c 1 -m 64 -n 512
starting benchmark...
spawning thread #0: 1 total client(s). 512 total requests
Application protocol: h2c
progress: 9% done
progress: 19% done
progress: 29% done
progress: 39% done
progress: 49% done
progress: 59% done
progress: 69% done
progress: 79% done
progress: 89% done
progress: 99% done

finished in 2.37s, 216.15 req/s, 3.39MB/s
requests: 512 total, 512 started, 512 done, 512 succeeded, 0 failed, 0 errored, 0 timeout
status codes: 512 2xx, 0 3xx, 0 4xx, 0 5xx
traffic: 8413823 bytes total, 15963 bytes headers (space savings 81.87%), 8388608 bytes data
                     min         max         mean         sd        +/- sd
time for request:    55.03ms    359.26ms    161.80ms     56.45ms    62.89%
time for connect:      1.05s       1.05s       1.05s         0us   100.00%
time to 1st byte:      1.11s       1.11s       1.11s         0us   100.00%
