h2load http://node-0:8080/128mb -p h2c -t 1 -c 1 -m 64 -n 512
starting benchmark...
spawning thread #0: 1 total client(s). 512 total requests
Application protocol: h2c
progress: 9% done
progress: 19% done
progress: 29% done
progress: 39% done
progress: 49% done
progress: 59% done
progress: 69% done
progress: 79% done
progress: 89% done
progress: 99% done

finished in 1143.98s, 0.45 req/s, 57.32MB/s
requests: 512 total, 512 started, 512 done, 512 succeeded, 0 failed, 0 errored, 0 timeout
status codes: 512 2xx, 0 3xx, 0 4xx, 0 5xx
traffic: 68757249434 bytes total, 18310 bytes headers (space savings 80.02%), 68719476736 bytes data
                     min         max         mean         sd        +/- sd
time for request:      2.25s     144.85s     142.72s       6.28s    99.80%
time for connect:    50.39ms     50.39ms     50.39ms         0us   100.00%
time to 1st byte:   125.02ms    125.02ms    125.02ms         0us   100.00%
