h2load http://node-1:8080/128mb -p h2c -t 1 -c 1 -m 32 -n 128 -T 30m
starting benchmark...
spawning thread #0: 1 total client(s). 128 total requests
Application protocol: h2c
progress: 9% done
progress: 18% done
progress: 28% done
progress: 37% done
progress: 46% done
progress: 56% done
progress: 65% done
progress: 75% done
progress: 84% done
progress: 93% done

finished in 206.40s, 0.62 req/s, 79.42MB/s
requests: 128 total, 128 started, 128 done, 128 succeeded, 0 failed, 0 errored, 0 timeout
status codes: 128 2xx, 0 3xx, 0 4xx, 0 5xx
traffic: 17189312449 bytes total, 4686 bytes headers (space savings 79.55%), 17179869184 bytes data
                     min         max         mean         sd        +/- sd
time for request:      3.16s      53.60s      50.83s       6.20s    98.44%
time for connect:    35.40ms     35.40ms     35.40ms         0us   100.00%
time to 1st byte:    86.06ms     86.06ms     86.06ms         0us   100.00%
