h2load http://node-1:8080/64mb -p h2c -t 1 -c 1 -m 16 -n 128 -T 30m
starting benchmark...
spawning thread #0: 1 total client(s). 128 total requests
Application protocol: h2c
progress: 9% done
progress: 18% done
progress: 28% done
progress: 37% done
progress: 46% done
progress: 56% done
progress: 65% done
progress: 75% done
progress: 84% done
progress: 93% done

finished in 102.06s, 1.25 req/s, 80.31MB/s
requests: 128 total, 128 started, 128 done, 128 succeeded, 0 failed, 0 errored, 0 timeout
status codes: 128 2xx, 0 3xx, 0 4xx, 0 5xx
traffic: 8594659582 bytes total, 5192 bytes headers (space savings 77.21%), 8589934592 bytes data
                     min         max         mean         sd        +/- sd
time for request:      1.95s      28.23s      12.11s       5.47s    62.50%
time for connect:    35.34ms     35.34ms     35.34ms         0us   100.00%
time to 1st byte:    76.76ms     76.76ms     76.76ms         0us   100.00%
