h2load http://node-1:8080/128mb -p h2c -t 1 -c 1 -m 128 -n 128 -T 30m
starting benchmark...
spawning thread #0: 1 total client(s). 128 total requests
Application protocol: h2c
progress: 9% done
progress: 18% done
progress: 28% done
progress: 37% done
progress: 46% done
progress: 56% done
progress: 65% done
progress: 75% done
progress: 84% done
progress: 93% done

finished in 203.40s, 0.63 req/s, 80.59MB/s
requests: 128 total, 128 started, 128 done, 128 succeeded, 0 failed, 0 errored, 0 timeout
status codes: 128 2xx, 0 3xx, 0 4xx, 0 5xx
traffic: 17189312280 bytes total, 4571 bytes headers (space savings 80.05%), 17179869184 bytes data
                     min         max         mean         sd        +/- sd
time for request:    104.81s     203.37s     152.55s      49.25s    51.56%
time for connect:    35.40ms     35.40ms     35.40ms         0us   100.00%
time to 1st byte:    92.82ms     92.82ms     92.82ms         0us   100.00%
