h2load http://node-1:8080/128mb -p http/1.1 -t 1 -c 1 -m 1 -n 128 -T 30m
starting benchmark...
spawning thread #0: 1 total client(s). 128 total requests
Application protocol: http/1.1
progress: 9% done
progress: 18% done
progress: 28% done
progress: 37% done
progress: 46% done
progress: 56% done
progress: 65% done
progress: 75% done
progress: 84% done
progress: 93% done

finished in 16.56s, 7.73 req/s, 989.12MB/s
requests: 128 total, 128 started, 128 done, 128 succeeded, 0 failed, 0 errored, 0 timeout
status codes: 128 2xx, 0 3xx, 0 4xx, 0 5xx
traffic: 17179892764 bytes total, 21647 bytes headers (space savings 0.00%), 17179869184 bytes data
                     min         max         mean         sd        +/- sd
time for request:   116.87ms    174.40ms    129.39ms      6.32ms    85.16%
time for connect:      277us       277us       277us         0us   100.00%
time to 1st byte:     1.01ms      1.01ms      1.01ms         0us   100.00%
