h2load http://node-1:8080/128mb -p http/1.1 -t 1 -c 2 -m 1 -n 128 -T 30m
starting benchmark...
spawning thread #0: 2 total client(s). 128 total requests
Application protocol: http/1.1
progress: 9% done
progress: 18% done
progress: 28% done
progress: 37% done
progress: 46% done
progress: 56% done
progress: 65% done
progress: 75% done
progress: 84% done
progress: 93% done

finished in 15.28s, 8.38 req/s, 1.05GB/s
requests: 128 total, 128 started, 128 done, 128 succeeded, 0 failed, 0 errored, 0 timeout
status codes: 128 2xx, 0 3xx, 0 4xx, 0 5xx
traffic: 17179896320 bytes total, 21632 bytes headers (space savings 0.00%), 17179869184 bytes data
                     min         max         mean         sd        +/- sd
time for request:   151.26ms    256.10ms    235.92ms     12.77ms    91.41%
time for connect:      173us       228us       200us        27us    50.00%
time to 1st byte:      902us       921us       911us         9us    50.00%
