h2load http://node-0:8080/64mb -p h2c -t 1 -c 2 -m 256 -n 512 -T 30m
starting benchmark...
spawning thread #0: 2 total client(s). 512 total requests
Application protocol: h2c
progress: 9% done
progress: 19% done
progress: 29% done
progress: 39% done
progress: 49% done
progress: 59% done
progress: 69% done
progress: 79% done
progress: 89% done
progress: 99% done

finished in 507.39s, 1.01 req/s, 64.62MB/s
requests: 512 total, 512 started, 512 done, 512 succeeded, 0 failed, 0 errored, 0 timeout
status codes: 512 2xx, 0 3xx, 0 4xx, 0 5xx
traffic: 34378636301 bytes total, 18579 bytes headers (space savings 79.61%), 34359738368 bytes data
                     min         max         mean         sd        +/- sd
time for request:     74.28s     506.34s     285.46s     135.99s    49.22%
time for connect:    50.33ms       1.05s    549.47ms    499.14ms    50.00%
time to 1st byte:   134.51ms     221.45s     110.79s     110.66s    50.00%
