h2load http://node-0:8080/128kb -p h2c -t 1 -c 32 -m 16 -n 512 -T 30m
starting benchmark...
spawning thread #0: 32 total client(s). 512 total requests
Application protocol: h2c
progress: 9% done
progress: 19% done
progress: 29% done
progress: 39% done
progress: 49% done
progress: 59% done
progress: 69% done
progress: 79% done
progress: 89% done
progress: 99% done

finished in 1.41s, 364.03 req/s, 45.55MB/s
requests: 512 total, 512 started, 512 done, 512 succeeded, 0 failed, 0 errored, 0 timeout
status codes: 512 2xx, 0 3xx, 0 4xx, 0 5xx
traffic: 67169766 bytes total, 18278 bytes headers (space savings 79.48%), 67108864 bytes data
                     min         max         mean         sd        +/- sd
time for request:   208.54ms    695.02ms    383.33ms     80.94ms    84.38%
time for connect:    50.41ms       1.05s     81.68ms    173.78ms    96.88%
time to 1st byte:   102.09ms       1.10s    161.06ms    179.10ms    90.63%
