h2load http://node-0:8080/64mb -p h2c -t 1 -c 32 -m 16 -n 512 -T 30m
starting benchmark...
spawning thread #0: 32 total client(s). 512 total requests
Application protocol: h2c
progress: 9% done
progress: 19% done
progress: 29% done
progress: 39% done
progress: 49% done
progress: 59% done
progress: 69% done
progress: 79% done
progress: 89% done
progress: 99% done

finished in 28.58s, 17.91 req/s, 1.12GB/s
requests: 512 total, 512 started, 512 done, 512 succeeded, 0 failed, 0 errored, 0 timeout
status codes: 512 2xx, 0 3xx, 0 4xx, 0 5xx
traffic: 34378639138 bytes total, 20642 bytes headers (space savings 77.35%), 34359738368 bytes data
                     min         max         mean         sd        +/- sd
time for request:      3.87s      28.53s      18.32s       7.34s    58.40%
time for connect:    50.27ms     50.49ms     50.41ms        78us    62.50%
time to 1st byte:   106.54ms    122.90ms    114.66ms      4.97ms    59.38%
