h2load http://node-0:8080/1mb -p h2c -t 1 -c 64 -m 8 -n 512 -T 30m
starting benchmark...
spawning thread #0: 64 total client(s). 512 total requests
Application protocol: h2c
progress: 9% done
progress: 19% done
progress: 29% done
progress: 39% done
progress: 49% done
progress: 59% done
progress: 69% done
progress: 79% done
progress: 89% done
progress: 99% done

finished in 1.65s, 309.90 req/s, 310.08MB/s
requests: 512 total, 512 started, 512 done, 512 succeeded, 0 failed, 0 errored, 0 timeout
status codes: 512 2xx, 0 3xx, 0 4xx, 0 5xx
traffic: 537194761 bytes total, 22025 bytes headers (space savings 75.56%), 536870912 bytes data
                     min         max         mean         sd        +/- sd
time for request:   366.59ms    946.39ms    621.73ms     98.71ms    75.20%
time for connect:    50.36ms       1.05s     66.37ms    123.52ms    98.44%
time to 1st byte:   102.67ms       1.10s    128.51ms    122.27ms    98.44%
