h2load http://node-0:8080/1mb -p h2c -t 1 -c 512 -m 1 -n 512 -T 30m
starting benchmark...
spawning thread #0: 512 total client(s). 512 total requests
Application protocol: h2c
progress: 9% done
progress: 19% done
progress: 29% done
progress: 39% done
progress: 49% done
progress: 59% done
progress: 69% done
progress: 79% done
progress: 89% done
progress: 99% done

finished in 8.98s, 54.69 req/s, 54.73MB/s
requests: 512 total, 512 started, 512 done, 491 succeeded, 21 failed, 21 errored, 0 timeout
status codes: 491 2xx, 0 3xx, 0 4xx, 0 5xx
traffic: 515205809 bytes total, 50082 bytes headers (space savings 42.05%), 514850816 bytes data
                     min         max         mean         sd        +/- sd
time for request:   301.11ms       8.91s       1.45s       1.38s    91.65%
time for connect:    50.40ms     58.89ms     55.60ms      2.45ms    58.04%
time to 1st byte:   102.95ms       8.68s       1.03s       1.43s    90.43%
