h2load http://node-0:8080/1kb -p h2c -t 1 -c 512 -m 1 -n 512 -T 30m
starting benchmark...
spawning thread #0: 512 total client(s). 512 total requests
Application protocol: h2c
progress: 9% done
progress: 19% done
progress: 29% done
progress: 39% done
progress: 49% done
progress: 59% done
progress: 69% done
progress: 79% done
progress: 89% done

finished in 64.77s, 7.72 req/s, 8.86KB/s
requests: 512 total, 512 started, 512 done, 500 succeeded, 12 failed, 12 errored, 0 timeout
status codes: 500 2xx, 0 3xx, 0 4xx, 0 5xx
traffic: 588000 bytes total, 49000 bytes headers (space savings 42.35%), 512000 bytes data
                     min         max         mean         sd        +/- sd
time for request:    50.53ms      32.36s       4.15s       9.68s    87.80%
time for connect:    50.47ms     61.45ms     56.32ms      2.56ms    73.40%
time to 1st byte:   102.08ms      32.42s       4.22s       9.68s    87.80%
