h2load http://node-0:8080/1mb -p h2c -t 1 -c 128 -m 4 -n 512 -T 30m
starting benchmark...
spawning thread #0: 128 total client(s). 512 total requests
Application protocol: h2c
progress: 9% done
progress: 19% done
progress: 29% done
progress: 39% done
progress: 49% done
progress: 59% done
progress: 69% done
progress: 79% done
progress: 89% done
progress: 99% done

finished in 1.70s, 300.86 req/s, 301.05MB/s
requests: 512 total, 512 started, 512 done, 512 succeeded, 0 failed, 0 errored, 0 timeout
status codes: 512 2xx, 0 3xx, 0 4xx, 0 5xx
traffic: 537200768 bytes total, 25728 bytes headers (space savings 71.45%), 536870912 bytes data
                     min         max         mean         sd        +/- sd
time for request:   260.84ms       1.26s    588.37ms    192.44ms    83.59%
time for connect:    50.37ms       1.05s     67.18ms    123.24ms    98.44%
time to 1st byte:   101.49ms       1.10s    184.79ms    192.00ms    93.75%
