h2load http://node-0:8080/64mb -p h2c -t 1 -c 512 -m 1 -n 512 -T 30m
starting benchmark...
spawning thread #0: 512 total client(s). 512 total requests
Application protocol: h2c
progress: 9% done
progress: 19% done
progress: 29% done
progress: 39% done
progress: 49% done
progress: 59% done
progress: 69% done
progress: 79% done
progress: 89% done

finished in 74.83s, 6.82 req/s, 436.44MB/s
requests: 512 total, 512 started, 512 done, 510 succeeded, 2 failed, 2 errored, 0 timeout
status codes: 512 2xx, 0 3xx, 0 4xx, 0 5xx
traffic: 34246397458 bytes total, 52224 bytes headers (space savings 42.70%), 34227520447 bytes data
                     min         max         mean         sd        +/- sd
time for request:      4.04s      74.77s      21.11s      12.95s    67.06%
time for connect:    50.43ms       7.06s    104.67ms    469.43ms    98.83%
time to 1st byte:   101.85ms       9.65s       2.02s       2.69s    82.62%
