h2load http://node-0:8080/128mb -p h2c -t 1 -c 512 -m 1 -n 512 -T 30m
starting benchmark...
spawning thread #0: 512 total client(s). 512 total requests
Application protocol: h2c
progress: 9% done
progress: 19% done
progress: 29% done
progress: 39% done
progress: 49% done
progress: 59% done
progress: 69% done
progress: 79% done

finished in 100.72s, 4.62 req/s, 591.79MB/s
requests: 512 total, 512 started, 512 done, 465 succeeded, 47 failed, 47 errored, 0 timeout
status codes: 504 2xx, 0 3xx, 0 4xx, 0 5xx
traffic: 62502208905 bytes total, 51912 bytes headers (space savings 42.46%), 62467819518 bytes data
                     min         max         mean         sd        +/- sd
time for request:      9.30s     100.65s      38.08s      21.90s    62.80%
time for connect:    50.52ms       1.55s     62.26ms     91.39ms    99.40%
time to 1st byte:   103.59ms      17.86s       3.63s       5.49s    79.37%
