h2load http://node-0:8080/64mb -p h2c -t 1 -c 64 -m 8 -n 512 -T 30m
starting benchmark...
spawning thread #0: 64 total client(s). 512 total requests
Application protocol: h2c
progress: 9% done
progress: 19% done
progress: 29% done
progress: 39% done
progress: 49% done
progress: 59% done
progress: 69% done
progress: 79% done
progress: 89% done
progress: 99% done

finished in 28.46s, 17.99 req/s, 1.12GB/s
requests: 512 total, 512 started, 512 done, 512 succeeded, 0 failed, 0 errored, 0 timeout
status codes: 512 2xx, 0 3xx, 0 4xx, 0 5xx
traffic: 34378641408 bytes total, 21760 bytes headers (space savings 76.12%), 34359738368 bytes data
                     min         max         mean         sd        +/- sd
time for request:      6.85s      28.41s      17.60s       7.43s    53.13%
time for connect:    50.24ms     51.15ms     50.59ms       372us    65.63%
time to 1st byte:   102.40ms    615.39ms    222.94ms    175.96ms    87.50%
