h2load http://node-0:8080/16kb -p h2c -t 1 -c 8 -m 64 -n 512 -T 30m
starting benchmark...
spawning thread #0: 8 total client(s). 512 total requests
Application protocol: h2c
progress: 9% done
progress: 19% done
progress: 29% done
progress: 39% done
progress: 49% done
progress: 59% done
progress: 69% done
progress: 79% done
progress: 89% done
progress: 99% done

finished in 378.76ms, 1351.80 req/s, 21.19MB/s
requests: 512 total, 512 started, 512 done, 512 succeeded, 0 failed, 0 errored, 0 timeout
status codes: 512 2xx, 0 3xx, 0 4xx, 0 5xx
traffic: 8414528 bytes total, 16416 bytes headers (space savings 81.36%), 8388608 bytes data
                     min         max         mean         sd        +/- sd
time for request:    59.68ms    326.48ms    254.01ms     59.44ms    69.14%
time for connect:    50.31ms     50.45ms     50.37ms        48us    50.00%
time to 1st byte:   110.74ms    126.96ms    120.34ms      6.00ms    50.00%
