h2load http://node-0:8080/128kb -p http/1.1 -t 1 -c 1 -m 1 -n 512 -T 30m
starting benchmark...
spawning thread #0: 1 total client(s). 512 total requests
Application protocol: http/1.1
progress: 9% done
progress: 19% done
progress: 29% done
progress: 39% done
progress: 49% done
progress: 59% done
progress: 69% done
progress: 79% done
progress: 89% done
progress: 99% done

finished in 28.74s, 17.82 req/s, 2.23MB/s
requests: 512 total, 512 started, 512 done, 512 succeeded, 0 failed, 0 errored, 0 timeout
status codes: 512 2xx, 0 3xx, 0 4xx, 0 5xx
traffic: 67190997 bytes total, 84043 bytes headers (space savings 0.00%), 67108864 bytes data
                     min         max         mean         sd        +/- sd
time for request:    50.40ms    352.32ms     55.52ms     29.33ms    94.92%
time for connect:    50.22ms     50.22ms     50.22ms         0us   100.00%
time to 1st byte:   100.52ms    100.52ms    100.52ms         0us   100.00%
