h2load http://node-0:8080/64mb -p http/1.1 -t 1 -c 2 -m 1 -n 512 -T 30m
starting benchmark...
spawning thread #0: 2 total client(s). 512 total requests
Application protocol: http/1.1
progress: 9% done
progress: 19% done
progress: 29% done
progress: 39% done
progress: 49% done
progress: 59% done
progress: 69% done
progress: 79% done
progress: 89% done
progress: 99% done

finished in 298.54s, 1.72 req/s, 109.76MB/s
requests: 512 total, 512 started, 512 done, 512 succeeded, 0 failed, 0 errored, 0 timeout
status codes: 512 2xx, 0 3xx, 0 4xx, 0 5xx
traffic: 34359831076 bytes total, 86076 bytes headers (space savings 0.00%), 34359738368 bytes data
                     min         max         mean         sd        +/- sd
time for request:      1.12s       1.56s       1.17s     45.60ms    98.24%
time for connect:    50.23ms     50.27ms     50.25ms        22us   100.00%
time to 1st byte:   100.86ms    100.89ms    100.87ms        17us    50.00%
