h2load http://node-0:8080/16kb -p http/1.1 -t 1 -c 4 -m 1 -n 512 -T 30m
starting benchmark...
spawning thread #0: 4 total client(s). 512 total requests
Application protocol: http/1.1
progress: 9% done
progress: 19% done
progress: 29% done
progress: 39% done
progress: 49% done
progress: 59% done
progress: 69% done
progress: 79% done
progress: 89% done
progress: 99% done

finished in 7.05s, 72.62 req/s, 1.15MB/s
requests: 512 total, 512 started, 512 done, 512 succeeded, 0 failed, 0 errored, 0 timeout
status codes: 512 2xx, 0 3xx, 0 4xx, 0 5xx
traffic: 8492748 bytes total, 83004 bytes headers (space savings 0.00%), 8388608 bytes data
                     min         max         mean         sd        +/- sd
time for request:    50.30ms    300.43ms     53.31ms     26.51ms    98.83%
time for connect:    50.22ms     50.29ms     50.25ms        25us    75.00%
time to 1st byte:   100.66ms    100.74ms    100.71ms        34us    50.00%
