h2load http://node-0:8080/128mb -p http/1.1 -t 1 -c 256 -m 1 -n 512 -T 30m
starting benchmark...
spawning thread #0: 256 total client(s). 512 total requests
Application protocol: http/1.1
progress: 9% done
progress: 19% done
progress: 29% done
progress: 39% done
progress: 49% done
progress: 59% done
progress: 69% done
progress: 79% done
progress: 89% done

finished in 82.08s, 6.03 req/s, 771.94MB/s
requests: 512 total, 508 started, 512 done, 495 succeeded, 17 failed, 17 errored, 0 timeout
status codes: 499 2xx, 0 3xx, 0 4xx, 0 5xx
traffic: 66439374616 bytes total, 84331 bytes headers (space savings 0.00%), 66439268828 bytes data
                     min         max         mean         sd        +/- sd
time for request:      2.27s      73.93s      21.20s      16.17s    68.48%
time for connect:    50.24ms       3.06s     72.12ms    244.09ms    99.22%
time to 1st byte:   101.32ms      11.21s       2.02s       2.66s    83.98%
