h2load http://node-0:8080/16kb -p http/1.1 -t 1 -c 512 -m 1 -n 512 -T 30m
starting benchmark...
spawning thread #0: 512 total client(s). 512 total requests
Application protocol: http/1.1
progress: 9% done
progress: 19% done
progress: 29% done
progress: 39% done
progress: 49% done
progress: 59% done
progress: 69% done
progress: 79% done
progress: 99% done

finished in 16.26s, 29.95 req/s, 485.19KB/s
requests: 512 total, 512 started, 512 done, 487 succeeded, 25 failed, 25 errored, 0 timeout
status codes: 487 2xx, 0 3xx, 0 4xx, 0 5xx
traffic: 8078843 bytes total, 78894 bytes headers (space savings 0.00%), 7979008 bytes data
                     min         max         mean         sd        +/- sd
time for request:    50.41ms      16.20s    962.43ms       2.20s    91.17%
time for connect:    50.32ms     53.15ms     52.24ms       758us    77.21%
time to 1st byte:   101.01ms      16.25s       1.00s       2.20s    91.17%
