h2load http://node-0:8080/128mb -p http/1.1 -t 1 -c 512 -m 1 -n 512 -T 30m
starting benchmark...
spawning thread #0: 512 total client(s). 512 total requests
Application protocol: http/1.1
progress: 9% done
progress: 19% done
progress: 29% done
progress: 39% done
progress: 49% done
progress: 59% done
progress: 69% done
progress: 79% done
progress: 89% done

finished in 1800.11s, 0.24 req/s, 31.04MB/s
requests: 512 total, 512 started, 512 done, 435 succeeded, 77 failed, 77 errored, 3 timeout
status codes: 474 2xx, 0 3xx, 0 4xx, 0 5xx
traffic: 58582217760 bytes total, 80106 bytes headers (space savings 0.00%), 58582117272 bytes data
                     min         max         mean         sd        +/- sd
time for request:      9.71s     108.47s      37.86s      21.87s    66.67%
time for connect:    50.21ms     52.16ms     51.12ms       497us    61.60%
time to 1st byte:   101.15ms      11.04s       1.81s       2.58s    89.66%
