h2load http://node-0:8080/1mb -p http/1.1 -t 1 -c 512 -m 1 -n 512 -T 30m
starting benchmark...
spawning thread #0: 512 total client(s). 512 total requests
Application protocol: http/1.1
progress: 9% done
progress: 19% done
progress: 29% done
progress: 39% done
progress: 49% done
progress: 59% done
progress: 69% done
progress: 79% done

finished in 65.23s, 6.56 req/s, 6.56MB/s
requests: 512 total, 512 started, 512 done, 428 succeeded, 84 failed, 84 errored, 0 timeout
status codes: 428 2xx, 0 3xx, 0 4xx, 0 5xx
traffic: 448879980 bytes total, 71048 bytes headers (space savings 0.00%), 448790528 bytes data
                     min         max         mean         sd        +/- sd
time for request:   301.73ms      17.01s       1.26s       1.48s    91.82%
time for connect:    50.13ms     51.47ms     50.78ms       337us    60.98%
time to 1st byte:   100.96ms      16.76s    863.11ms       1.47s    92.76%
