h2load http://node-0:8080/128mb -p http/1.1 -t 1 -c 4 -m 1 -n 512 -T 30m
starting benchmark...
spawning thread #0: 4 total client(s). 512 total requests
Application protocol: http/1.1
progress: 9% done
progress: 19% done
progress: 29% done
progress: 39% done
progress: 49% done
progress: 59% done
progress: 69% done
progress: 79% done
progress: 89% done
progress: 99% done

finished in 292.11s, 1.75 req/s, 224.35MB/s
requests: 512 total, 512 started, 512 done, 512 succeeded, 0 failed, 0 errored, 0 timeout
status codes: 512 2xx, 0 3xx, 0 4xx, 0 5xx
traffic: 68719573755 bytes total, 86588 bytes headers (space savings 0.00%), 68719476736 bytes data
                     min         max         mean         sd        +/- sd
time for request:      2.26s       2.72s       2.28s     53.17ms    98.44%
time for connect:    50.23ms     50.29ms     50.25ms        21us    75.00%
time to 1st byte:   100.90ms    100.94ms    100.92ms        19us    50.00%
