h2load http://node-0:8080/1mb -p http/1.1 -t 1 -c 256 -m 1 -n 512 -T 30m
starting benchmark...
spawning thread #0: 256 total client(s). 512 total requests
Application protocol: http/1.1
progress: 9% done
progress: 19% done
progress: 29% done
progress: 39% done
progress: 49% done
progress: 59% done
progress: 69% done
progress: 79% done
progress: 89% done
progress: 99% done

finished in 16.62s, 30.50 req/s, 30.51MB/s
requests: 512 total, 512 started, 512 done, 507 succeeded, 5 failed, 5 errored, 0 timeout
status codes: 507 2xx, 0 3xx, 0 4xx, 0 5xx
traffic: 531733995 bytes total, 84162 bytes headers (space savings 0.00%), 531628032 bytes data
                     min         max         mean         sd        +/- sd
time for request:   101.12ms      16.46s    995.30ms       2.61s    93.49%
time for connect:    50.23ms       1.05s     62.40ms    107.24ms    98.83%
time to 1st byte:   100.95ms      16.26s       1.62s       3.48s    91.41%
