h2load http://node-0:8080/8mb -p http/1.1 -t 1 -c 512 -m 1 -n 512 -T 30m
starting benchmark...
spawning thread #0: 512 total client(s). 512 total requests
Application protocol: http/1.1
progress: 9% done
progress: 19% done
progress: 29% done
progress: 39% done
progress: 69% done
progress: 79% done
progress: 89% done
progress: 99% done

finished in 11.55s, 41.81 req/s, 334.52MB/s
requests: 512 total, 512 started, 512 done, 483 succeeded, 29 failed, 29 errored, 0 timeout
status codes: 483 2xx, 0 3xx, 0 4xx, 0 5xx
traffic: 4051798611 bytes total, 80178 bytes headers (space savings 0.00%), 4051697664 bytes data
                     min         max         mean         sd        +/- sd
time for request:   561.26ms      11.50s       3.39s       2.08s    67.08%
time for connect:    50.25ms     51.99ms     51.05ms       432us    66.46%
time to 1st byte:   101.40ms       3.63s    827.80ms    869.51ms    84.27%
