h2load http://node-0:8080/16kb -p http/1.1 -t 1 -c 8 -m 1 -n 512 -T 30m
starting benchmark...
spawning thread #0: 8 total client(s). 512 total requests
Application protocol: http/1.1
progress: 9% done
progress: 19% done
progress: 29% done
progress: 39% done
progress: 49% done
progress: 59% done
progress: 69% done
progress: 79% done
progress: 89% done
progress: 99% done

finished in 3.77s, 135.83 req/s, 2.15MB/s
requests: 512 total, 512 started, 512 done, 512 succeeded, 0 failed, 0 errored, 0 timeout
status codes: 512 2xx, 0 3xx, 0 4xx, 0 5xx
traffic: 8493568 bytes total, 82944 bytes headers (space savings 0.00%), 8388608 bytes data
                     min         max         mean         sd        +/- sd
time for request:    50.26ms    302.21ms     52.84ms     24.32ms    99.02%
time for connect:    50.18ms     50.27ms     50.22ms        26us    75.00%
time to 1st byte:   100.75ms    100.87ms    100.83ms        37us    75.00%
