h2load http://node-0:8080/1mb -p http/1.1 -t 1 -c 32 -m 1 -n 512 -T 30m
starting benchmark...
spawning thread #0: 32 total client(s). 512 total requests
Application protocol: http/1.1
progress: 9% done
progress: 19% done
progress: 29% done
progress: 39% done
progress: 49% done
progress: 59% done
progress: 69% done
progress: 79% done
progress: 89% done
progress: 99% done

finished in 2.42s, 211.71 req/s, 211.75MB/s
requests: 512 total, 512 started, 512 done, 512 succeeded, 0 failed, 0 errored, 0 timeout
status codes: 512 2xx, 0 3xx, 0 4xx, 0 5xx
traffic: 536977920 bytes total, 84992 bytes headers (space savings 0.00%), 536870912 bytes data
                     min         max         mean         sd        +/- sd
time for request:   100.55ms    852.84ms    122.57ms     86.85ms    93.36%
time for connect:    50.13ms     50.27ms     50.19ms        27us    68.75%
time to 1st byte:   100.86ms    601.83ms    218.06ms    139.00ms    96.88%
