h2load http://node-0:8080/16kb -p http/1.1 -t 1 -c 256 -m 1 -n 512 -T 30m
starting benchmark...
spawning thread #0: 256 total client(s). 512 total requests
Application protocol: http/1.1
progress: 9% done
progress: 19% done
progress: 29% done
progress: 39% done
progress: 49% done
progress: 59% done
progress: 69% done
progress: 79% done
progress: 89% done
progress: 99% done

finished in 32.46s, 15.77 req/s, 255.54KB/s
requests: 512 total, 512 started, 512 done, 512 succeeded, 0 failed, 0 errored, 0 timeout
status codes: 512 2xx, 0 3xx, 0 4xx, 0 5xx
traffic: 8493568 bytes total, 82944 bytes headers (space savings 0.00%), 8388608 bytes data
                     min         max         mean         sd        +/- sd
time for request:    50.24ms      32.35s       1.26s       4.31s    94.34%
time for connect:    50.20ms       1.05s     54.68ms     62.15ms    99.61%
time to 1st byte:   100.97ms      32.40s       2.53s       5.85s    93.36%
