h2load http://node-0:8080/1kb -p http/1.1 -t 1 -c 4 -m 1 -n 512 -T 30m
starting benchmark...
spawning thread #0: 4 total client(s). 512 total requests
Application protocol: http/1.1
progress: 9% done
progress: 19% done
progress: 29% done
progress: 39% done
progress: 49% done
progress: 59% done
progress: 69% done
progress: 79% done
progress: 89% done
progress: 99% done

finished in 7.80s, 65.62 req/s, 78.01KB/s
requests: 512 total, 512 started, 512 done, 512 succeeded, 0 failed, 0 errored, 0 timeout
status codes: 512 2xx, 0 3xx, 0 4xx, 0 5xx
traffic: 623316 bytes total, 81980 bytes headers (space savings 0.00%), 524288 bytes data
                     min         max         mean         sd        +/- sd
time for request:    50.26ms    301.57ms     52.35ms     21.82ms    99.22%
time for connect:    50.26ms       1.05s    299.45ms    431.56ms    75.00%
time to 1st byte:   100.75ms       1.10s    349.95ms    431.54ms    75.00%
