h2load http://node-0:8080/128mb -p http/1.1 -t 1 -c 256 -m 1 -n 512 -T 30m
starting benchmark...
spawning thread #0: 256 total client(s). 512 total requests
Application protocol: http/1.1
progress: 9% done
progress: 19% done
progress: 29% done
progress: 39% done
progress: 49% done
progress: 59% done
progress: 69% done
progress: 79% done
progress: 89% done

finished in 88.34s, 5.58 req/s, 714.39MB/s
requests: 512 total, 505 started, 512 done, 493 succeeded, 19 failed, 19 errored, 0 timeout
status codes: 500 2xx, 0 3xx, 0 4xx, 0 5xx
traffic: 66172603064 bytes total, 84500 bytes headers (space savings 0.00%), 66172497064 bytes data
                     min         max         mean         sd        +/- sd
time for request:      2.27s      77.68s      20.41s      15.28s    65.92%
time for connect:    50.17ms       4.06s    121.18ms    500.56ms    98.05%
time to 1st byte:   100.98ms       5.15s       1.14s       1.47s    79.30%
