h2load http://node-0:8080/1mb -p http/1.1 -t 1 -c 16 -m 1 -n 512 -T 30m
starting benchmark...
spawning thread #0: 16 total client(s). 512 total requests
Application protocol: http/1.1
progress: 9% done
progress: 19% done
progress: 29% done
progress: 39% done
progress: 49% done
progress: 59% done
progress: 69% done
progress: 79% done
progress: 89% done
progress: 99% done

finished in 4.24s, 120.86 req/s, 120.89MB/s
requests: 512 total, 512 started, 512 done, 512 succeeded, 0 failed, 0 errored, 0 timeout
status codes: 512 2xx, 0 3xx, 0 4xx, 0 5xx
traffic: 536977920 bytes total, 84992 bytes headers (space savings 0.00%), 536870912 bytes data
                     min         max         mean         sd        +/- sd
time for request:    51.82ms    554.42ms    109.22ms     59.65ms    95.90%
time for connect:    50.16ms     50.25ms     50.20ms        29us    56.25%
time to 1st byte:   100.82ms    352.60ms    179.47ms    116.56ms    68.75%
