h2load http://node-0:8080/1kb -p http/1.1 -t 1 -c 128 -m 1 -n 512 -T 30m
starting benchmark...
spawning thread #0: 128 total client(s). 512 total requests
Application protocol: http/1.1
progress: 9% done
progress: 19% done
progress: 29% done
progress: 39% done
progress: 49% done
progress: 59% done
progress: 69% done
progress: 79% done
progress: 89% done
progress: 99% done

finished in 2.51s, 203.71 req/s, 244.09KB/s
requests: 512 total, 512 started, 512 done, 512 succeeded, 0 failed, 0 errored, 0 timeout
status codes: 512 2xx, 0 3xx, 0 4xx, 0 5xx
traffic: 628224 bytes total, 81920 bytes headers (space savings 0.00%), 524288 bytes data
                     min         max         mean         sd        +/- sd
time for request:    50.14ms       2.06s    133.38ms    301.66ms    92.58%
time for connect:    50.22ms       1.05s     73.89ms    150.93ms    97.66%
time to 1st byte:   101.01ms       2.11s    446.69ms    540.26ms    78.91%
