h2load http://node-0:8080/128mb -p http/1.1 -t 1 -c 1 -m 1 -n 512 -T 30m
starting benchmark...
spawning thread #0: 1 total client(s). 512 total requests
Application protocol: http/1.1
progress: 9% done
progress: 19% done
progress: 29% done
progress: 39% done
progress: 49% done
progress: 59% done
progress: 69% done
progress: 79% done
progress: 89% done
progress: 99% done

finished in 1171.79s, 0.44 req/s, 55.93MB/s
requests: 512 total, 512 started, 512 done, 512 succeeded, 0 failed, 0 errored, 0 timeout
status codes: 512 2xx, 0 3xx, 0 4xx, 0 5xx
traffic: 68719557039 bytes total, 86603 bytes headers (space savings 0.00%), 68719476736 bytes data
                     min         max         mean         sd        +/- sd
time for request:      2.27s       5.29s       2.29s    141.46ms    97.85%
time for connect:    50.24ms     50.24ms     50.24ms         0us   100.00%
time to 1st byte:   100.86ms    100.86ms    100.86ms         0us   100.00%
