h2load http://node-0:8080/8mb -p h2c -t 1 -c 4 -m 128 -n 512 -T 30m
starting benchmark...
spawning thread #0: 4 total client(s). 512 total requests
Application protocol: h2c
progress: 9% done
progress: 19% done
progress: 29% done
progress: 39% done
progress: 49% done
progress: 59% done
progress: 69% done
progress: 79% done
progress: 89% done
progress: 99% done

finished in 18.56s, 27.58 req/s, 220.79MB/s
requests: 512 total, 512 started, 512 done, 512 succeeded, 0 failed, 0 errored, 0 timeout
status codes: 512 2xx, 0 3xx, 0 4xx, 0 5xx
traffic: 4297349415 bytes total, 18071 bytes headers (space savings 79.95%), 4294967296 bytes data
                     min         max         mean         sd        +/- sd
time for request:      3.62s      18.51s      11.83s       5.04s    52.73%
time for connect:    50.36ms     50.48ms     50.41ms        46us    50.00%
time to 1st byte:   115.71ms    129.35ms    125.45ms      5.64ms    75.00%
