h2load http://node-0:8080/64mb -p h2c -t 1 -c 2 -m 256 -n 512 -T 30m
starting benchmark...
spawning thread #0: 2 total client(s). 512 total requests
Application protocol: h2c
progress: 9% done
progress: 19% done
progress: 29% done
progress: 39% done
progress: 49% done
progress: 59% done
progress: 69% done
progress: 79% done
progress: 89% done
progress: 99% done

finished in 286.19s, 1.79 req/s, 114.56MB/s
requests: 512 total, 512 started, 512 done, 512 succeeded, 0 failed, 0 errored, 0 timeout
status codes: 512 2xx, 0 3xx, 0 4xx, 0 5xx
traffic: 34378635450 bytes total, 17728 bytes headers (space savings 80.55%), 34359738368 bytes data
                     min         max         mean         sd        +/- sd
time for request:     74.01s     286.14s     178.98s      78.40s    51.56%
time for connect:    50.38ms     50.46ms     50.42ms        39us    50.00%
time to 1st byte:   121.09ms    122.93ms    122.01ms       919us    50.00%
