h2load http://node-0:8080/8mb -p h2c -t 1 -c 8 -m 64 -n 512 -T 30m
starting benchmark...
spawning thread #0: 8 total client(s). 512 total requests
Application protocol: h2c
progress: 9% done
progress: 19% done
progress: 29% done
progress: 39% done
progress: 49% done
progress: 59% done
progress: 69% done
progress: 79% done
progress: 89% done
progress: 99% done

finished in 9.61s, 53.27 req/s, 426.42MB/s
requests: 512 total, 512 started, 512 done, 512 succeeded, 0 failed, 0 errored, 0 timeout
status codes: 512 2xx, 0 3xx, 0 4xx, 0 5xx
traffic: 4297349808 bytes total, 18320 bytes headers (space savings 79.67%), 4294967296 bytes data
                     min         max         mean         sd        +/- sd
time for request:      3.37s       9.56s       7.26s       2.35s    72.66%
time for connect:    50.36ms     50.50ms     50.42ms        47us    62.50%
time to 1st byte:   113.25ms    118.13ms    114.89ms      1.60ms    62.50%
