h2load http://node-0:8080/64mb -p h2c -t 1 -c 4 -m 128 -n 512 -T 30m
starting benchmark...
spawning thread #0: 4 total client(s). 512 total requests
Application protocol: h2c
progress: 9% done
progress: 19% done
progress: 29% done
progress: 39% done
progress: 49% done
progress: 59% done
progress: 69% done
progress: 79% done
progress: 89% done
progress: 99% done

finished in 143.51s, 3.57 req/s, 228.46MB/s
requests: 512 total, 512 started, 512 done, 512 succeeded, 0 failed, 0 errored, 0 timeout
status codes: 512 2xx, 0 3xx, 0 4xx, 0 5xx
traffic: 34378635584 bytes total, 17772 bytes headers (space savings 80.50%), 34359738368 bytes data
                     min         max         mean         sd        +/- sd
time for request:     74.10s     143.46s     107.70s      34.60s    51.56%
time for connect:    50.33ms     50.48ms     50.40ms        58us    50.00%
time to 1st byte:   119.59ms    132.98ms    124.66ms      5.53ms    75.00%
