h2load http://node-0:8080/64mb -p h2c -t 1 -c 8 -m 64 -n 512 -T 30m
starting benchmark...
spawning thread #0: 8 total client(s). 512 total requests
Application protocol: h2c
progress: 9% done
progress: 19% done
progress: 29% done
progress: 39% done
progress: 49% done
progress: 59% done
progress: 69% done
progress: 79% done
progress: 89% done
progress: 99% done

finished in 72.55s, 7.06 req/s, 451.88MB/s
requests: 512 total, 512 started, 512 done, 512 succeeded, 0 failed, 0 errored, 0 timeout
status codes: 512 2xx, 0 3xx, 0 4xx, 0 5xx
traffic: 34378637020 bytes total, 19217 bytes headers (space savings 78.91%), 34359738368 bytes data
                     min         max         mean         sd        +/- sd
time for request:      5.05s      72.50s      53.42s      18.57s    44.92%
time for connect:    50.32ms     50.61ms     50.45ms        97us    50.00%
time to 1st byte:   118.11ms    129.42ms    126.51ms      3.45ms    87.50%
