h2load http://node-0:8080/1kb -p h2c -t 1 -c 4 -m 128 -n 512 -T 30m
starting benchmark...
spawning thread #0: 4 total client(s). 512 total requests
Application protocol: h2c
progress: 9% done
progress: 19% done
progress: 29% done
progress: 39% done
progress: 49% done
progress: 59% done
progress: 69% done
progress: 79% done
progress: 89% done
progress: 99% done

finished in 227.18ms, 2253.74 req/s, 2.30MB/s
requests: 512 total, 512 started, 512 done, 512 succeeded, 0 failed, 0 errored, 0 timeout
status codes: 512 2xx, 0 3xx, 0 4xx, 0 5xx
traffic: 548772 bytes total, 15124 bytes headers (space savings 82.62%), 524288 bytes data
                     min         max         mean         sd        +/- sd
time for request:    62.71ms    174.73ms    136.74ms     34.79ms    61.72%
time for connect:    50.33ms     50.48ms     50.39ms        58us    50.00%
time to 1st byte:   113.78ms    125.65ms    121.96ms      4.80ms    75.00%
