h2load http://node-0:8080/16kb -p h2c -t 1 -c 256 -m 2 -n 512 -T 30m
starting benchmark...
spawning thread #0: 256 total client(s). 512 total requests
Application protocol: h2c
progress: 9% done
progress: 19% done
progress: 29% done
progress: 39% done
progress: 49% done
progress: 59% done
progress: 69% done
progress: 79% done
progress: 89% done
progress: 99% done

finished in 2.14s, 238.91 req/s, 3.76MB/s
requests: 512 total, 512 started, 512 done, 512 succeeded, 0 failed, 0 errored, 0 timeout
status codes: 512 2xx, 0 3xx, 0 4xx, 0 5xx
traffic: 8440320 bytes total, 33280 bytes headers (space savings 62.21%), 8388608 bytes data
                     min         max         mean         sd        +/- sd
time for request:    50.65ms       2.08s    216.60ms    262.30ms    89.06%
time for connect:    50.25ms     55.25ms     53.14ms      1.59ms    60.16%
time to 1st byte:   101.31ms       2.09s    246.04ms    260.86ms    89.06%
