h2load http://node-0:8080/1kb -p h2c -t 1 -c 32 -m 16 -n 512
starting benchmark...
spawning thread #0: 32 total client(s). 512 total requests
Application protocol: h2c
progress: 9% done
progress: 19% done
progress: 29% done
progress: 39% done
progress: 49% done
progress: 59% done
progress: 69% done
progress: 79% done
progress: 89% done
progress: 99% done

finished in 114.33ms, 4478.30 req/s, 4.60MB/s
requests: 512 total, 512 started, 512 done, 512 succeeded, 0 failed, 0 errored, 0 timeout
status codes: 512 2xx, 0 3xx, 0 4xx, 0 5xx
traffic: 551712 bytes total, 17056 bytes headers (space savings 80.40%), 524288 bytes data
                     min         max         mean         sd        +/- sd
time for request:    53.09ms     61.76ms     58.01ms      2.58ms    56.25%
time for connect:    50.27ms     50.53ms     50.42ms        89us    37.50%
time to 1st byte:   104.07ms    112.99ms    109.11ms      2.62ms    62.50%
