h2load http://node-0:8080/1kb -p h2c -t 1 -c 8 -m 64 -n 512
starting benchmark...
spawning thread #0: 8 total client(s). 512 total requests
Application protocol: h2c
progress: 9% done
progress: 19% done
progress: 29% done
progress: 39% done
progress: 49% done
progress: 59% done
progress: 69% done
progress: 79% done
progress: 89% done
progress: 99% done

finished in 164.60ms, 3110.61 req/s, 3.18MB/s
requests: 512 total, 512 started, 512 done, 512 succeeded, 0 failed, 0 errored, 0 timeout
status codes: 512 2xx, 0 3xx, 0 4xx, 0 5xx
traffic: 549192 bytes total, 15400 bytes headers (space savings 82.31%), 524288 bytes data
                     min         max         mean         sd        +/- sd
time for request:    57.77ms    111.67ms     92.55ms     23.79ms    65.63%
time for connect:    50.35ms     50.49ms     50.41ms        48us    50.00%
time to 1st byte:   108.46ms    112.77ms    110.71ms      1.68ms    50.00%
