h2load http://node-0:8080/8mb -p h2c -t 1 -c 8 -m 64 -n 512
starting benchmark...
spawning thread #0: 8 total client(s). 512 total requests
Application protocol: h2c
progress: 9% done
progress: 19% done
progress: 29% done
progress: 39% done
progress: 49% done
progress: 59% done
progress: 69% done
progress: 79% done
progress: 89% done
progress: 99% done

finished in 9.74s, 52.59 req/s, 420.97MB/s
requests: 512 total, 512 started, 512 done, 512 succeeded, 0 failed, 0 errored, 0 timeout
status codes: 512 2xx, 0 3xx, 0 4xx, 0 5xx
traffic: 4297349670 bytes total, 18182 bytes headers (space savings 79.82%), 4294967296 bytes data
                     min         max         mean         sd        +/- sd
time for request:      3.30s       9.68s       7.77s       2.14s    80.47%
time for connect:    50.37ms     50.51ms     50.42ms        45us    62.50%
time to 1st byte:   114.69ms    122.64ms    117.50ms      2.53ms    75.00%
