h2load http://node-0:8080/1kb -p h2c -t 1 -c 128 -m 4 -n 512
starting benchmark...
spawning thread #0: 128 total client(s). 512 total requests
Application protocol: h2c
progress: 9% done
progress: 19% done
progress: 29% done
progress: 39% done
progress: 49% done
progress: 59% done
progress: 69% done
progress: 79% done
progress: 89% done
progress: 99% done

finished in 2.12s, 241.48 req/s, 258.75KB/s
requests: 512 total, 512 started, 512 done, 512 succeeded, 0 failed, 0 errored, 0 timeout
status codes: 512 2xx, 0 3xx, 0 4xx, 0 5xx
traffic: 561792 bytes total, 23680 bytes headers (space savings 72.79%), 524288 bytes data
                     min         max         mean         sd        +/- sd
time for request:    50.73ms       2.06s    239.48ms    377.79ms    89.84%
time for connect:    50.25ms     53.10ms     51.63ms      1.01ms    40.63%
time to 1st byte:   101.56ms       2.12s    292.06ms    377.97ms    89.84%
