h2load http://node-0:8080/128mb -p h2c -t 1 -c 1 -m 512 -n 512
starting benchmark...
spawning thread #0: 1 total client(s). 512 total requests
Application protocol: h2c
progress: 9% done
progress: 19% done
progress: 29% done
progress: 39% done
progress: 49% done
progress: 59% done
progress: 69% done
progress: 79% done
progress: 89% done
progress: 99% done

finished in 1143.10s, 0.45 req/s, 57.36MB/s
requests: 512 total, 512 started, 512 done, 512 succeeded, 0 failed, 0 errored, 0 timeout
status codes: 512 2xx, 0 3xx, 0 4xx, 0 5xx
traffic: 68757248890 bytes total, 18198 bytes headers (space savings 80.14%), 68719476736 bytes data
                     min         max         mean         sd        +/- sd
time for request:    147.92s    1143.05s     643.42s     324.27s    51.56%
time for connect:    50.35ms     50.35ms     50.35ms         0us   100.00%
time to 1st byte:   130.10ms    130.10ms    130.10ms         0us   100.00%
