h2load http://node-0:8080/128kb -p h2c -t 1 -c 128 -m 4 -n 512
starting benchmark...
spawning thread #0: 128 total client(s). 512 total requests
Application protocol: h2c
progress: 9% done
progress: 19% done
progress: 29% done
progress: 39% done
progress: 49% done
progress: 59% done
progress: 69% done
progress: 79% done
progress: 89% done
progress: 99% done

finished in 1.37s, 374.52 req/s, 46.86MB/s
requests: 512 total, 512 started, 512 done, 512 succeeded, 0 failed, 0 errored, 0 timeout
status codes: 512 2xx, 0 3xx, 0 4xx, 0 5xx
traffic: 67179520 bytes total, 24576 bytes headers (space savings 72.41%), 67108864 bytes data
                     min         max         mean         sd        +/- sd
time for request:   150.89ms       1.31s    375.55ms    244.04ms    85.94%
time for connect:    50.25ms     53.19ms     51.68ms      1.05ms    42.97%
time to 1st byte:   101.13ms       1.13s    237.77ms    239.28ms    85.94%
