h2load http://node-0:8080/64mb -p h2c -t 1 -c 8 -m 64 -n 512
starting benchmark...
spawning thread #0: 8 total client(s). 512 total requests
Application protocol: h2c
progress: 9% done
progress: 19% done
progress: 29% done
progress: 39% done
progress: 49% done
progress: 59% done
progress: 69% done
progress: 79% done
progress: 89% done
progress: 99% done

finished in 72.50s, 7.06 req/s, 452.21MB/s
requests: 512 total, 512 started, 512 done, 512 succeeded, 0 failed, 0 errored, 0 timeout
status codes: 512 2xx, 0 3xx, 0 4xx, 0 5xx
traffic: 34378636060 bytes total, 18113 bytes headers (space savings 80.13%), 34359738368 bytes data
                     min         max         mean         sd        +/- sd
time for request:     35.31s      72.45s      63.29s      14.72s    73.44%
time for connect:    50.38ms     50.49ms     50.43ms        36us    62.50%
time to 1st byte:   113.13ms    123.38ms    119.02ms      3.39ms    50.00%
