h2load http://node-0:8080/128kb -p h2c -t 1 -c 64 -m 8 -n 512
starting benchmark...
spawning thread #0: 64 total client(s). 512 total requests
Application protocol: h2c
progress: 9% done
progress: 19% done
progress: 29% done
progress: 39% done
progress: 49% done
progress: 59% done
progress: 69% done
progress: 79% done
progress: 89% done
progress: 99% done

finished in 729.33ms, 702.01 req/s, 87.84MB/s
requests: 512 total, 512 started, 512 done, 512 succeeded, 0 failed, 0 errored, 0 timeout
status codes: 512 2xx, 0 3xx, 0 4xx, 0 5xx
traffic: 67173232 bytes total, 20592 bytes headers (space savings 76.89%), 67108864 bytes data
                     min         max         mean         sd        +/- sd
time for request:   151.10ms    674.81ms    358.11ms    108.02ms    77.54%
time for connect:    50.39ms     51.57ms     50.87ms       459us    60.94%
time to 1st byte:   101.99ms    428.28ms    162.41ms     96.23ms    79.69%
