h2load http://node-0:8080/64mb -p h2c -t 1 -c 512 -m 1 -n 512
starting benchmark...
spawning thread #0: 512 total client(s). 512 total requests
Application protocol: h2c
progress: 9% done
progress: 19% done
progress: 29% done
progress: 39% done
progress: 49% done
progress: 59% done
progress: 69% done
progress: 79% done
progress: 89% done
progress: 99% done

finished in 71.05s, 7.01 req/s, 448.83MB/s
requests: 512 total, 512 started, 512 done, 498 succeeded, 14 failed, 14 errored, 0 timeout
status codes: 498 2xx, 0 3xx, 0 4xx, 0 5xx
traffic: 33438645750 bytes total, 50796 bytes headers (space savings 42.70%), 33420214272 bytes data
                     min         max         mean         sd        +/- sd
time for request:      4.71s      70.98s      21.45s      13.34s    66.67%
time for connect:    50.43ms     58.25ms     55.33ms      2.26ms    59.64%
time to 1st byte:   101.78ms       8.96s       2.03s       2.55s    80.32%
