h2load http://node-0:8080/128kb -p h2c -t 1 -c 2 -m 256 -n 512
starting benchmark...
spawning thread #0: 2 total client(s). 512 total requests
Application protocol: h2c
progress: 9% done
progress: 19% done
progress: 29% done
progress: 39% done
progress: 49% done
progress: 59% done
progress: 69% done
progress: 79% done
progress: 89% done
progress: 99% done

finished in 1.39s, 367.93 req/s, 46.03MB/s
requests: 512 total, 512 started, 512 done, 512 succeeded, 0 failed, 0 errored, 0 timeout
status codes: 512 2xx, 0 3xx, 0 4xx, 0 5xx
traffic: 67166416 bytes total, 16008 bytes headers (space savings 82.03%), 67108864 bytes data
                     min         max         mean         sd        +/- sd
time for request:      1.24s       1.34s       1.28s     30.13ms    54.49%
time for connect:    50.36ms     50.43ms     50.39ms        32us    50.00%
time to 1st byte:   184.66ms    193.78ms    189.22ms      4.56ms    50.00%
