h2load http://node-0:8080/16kb -p h2c -t 1 -c 512 -m 1 -n 512
starting benchmark...
spawning thread #0: 512 total client(s). 512 total requests
Application protocol: h2c
progress: 9% done
progress: 19% done
progress: 29% done
progress: 39% done
progress: 49% done
progress: 59% done
progress: 69% done
progress: 79% done
progress: 89% done

finished in 4.15s, 117.98 req/s, 1.86MB/s
requests: 512 total, 512 started, 512 done, 490 succeeded, 22 failed, 22 errored, 0 timeout
status codes: 490 2xx, 0 3xx, 0 4xx, 0 5xx
traffic: 8103130 bytes total, 48510 bytes headers (space savings 42.44%), 8028160 bytes data
                     min         max         mean         sd        +/- sd
time for request:    50.70ms       4.08s    306.89ms    520.80ms    90.20%
time for connect:    50.48ms     58.88ms     55.70ms      2.38ms    58.57%
time to 1st byte:   101.87ms       4.14s    340.39ms    521.61ms    90.20%
