h2load http://node-0:8080/1kb -p h2c -t 1 -c 256 -m 2 -n 512
starting benchmark...
spawning thread #0: 256 total client(s). 512 total requests
Application protocol: h2c
progress: 9% done
progress: 19% done
progress: 29% done
progress: 39% done
progress: 49% done
progress: 59% done
progress: 69% done
progress: 79% done
progress: 89% done
progress: 99% done

finished in 2.09s, 244.51 req/s, 268.27KB/s
requests: 512 total, 512 started, 512 done, 512 succeeded, 0 failed, 0 errored, 0 timeout
status codes: 512 2xx, 0 3xx, 0 4xx, 0 5xx
traffic: 575232 bytes total, 32512 bytes headers (space savings 62.65%), 524288 bytes data
                     min         max         mean         sd        +/- sd
time for request:    50.63ms       2.03s    357.07ms    516.75ms    83.59%
time for connect:    50.40ms     55.46ms     53.12ms      1.65ms    57.42%
time to 1st byte:   101.70ms       2.09s    411.71ms    516.69ms    83.59%
