h2load http://node-0:8080/8mb -p h2c -t 1 -c 1 -m 512 -n 512
starting benchmark...
spawning thread #0: 1 total client(s). 512 total requests
Application protocol: h2c
progress: 9% done
progress: 19% done
progress: 29% done
progress: 39% done
progress: 49% done
progress: 59% done
progress: 69% done
progress: 79% done
progress: 89% done
progress: 99% done

finished in 74.94s, 6.83 req/s, 54.69MB/s
requests: 512 total, 512 started, 512 done, 512 succeeded, 0 failed, 0 errored, 0 timeout
status codes: 512 2xx, 0 3xx, 0 4xx, 0 5xx
traffic: 4297348896 bytes total, 17660 bytes headers (space savings 80.40%), 4294967296 bytes data
                     min         max         mean         sd        +/- sd
time for request:     12.53s      74.89s      43.60s      20.32s    51.56%
time for connect:    50.37ms     50.37ms     50.37ms         0us   100.00%
time to 1st byte:   122.77ms    122.77ms    122.77ms         0us   100.00%
