h2load http://node-0:8080/8mb -p h2c -t 1 -c 2 -m 256 -n 512
starting benchmark...
spawning thread #0: 2 total client(s). 512 total requests
Application protocol: h2c
progress: 9% done
progress: 19% done
progress: 29% done
progress: 39% done
progress: 49% done
progress: 59% done
progress: 69% done
progress: 79% done
progress: 89% done
progress: 99% done

finished in 36.34s, 14.09 req/s, 112.79MB/s
requests: 512 total, 512 started, 512 done, 512 succeeded, 0 failed, 0 errored, 0 timeout
status codes: 512 2xx, 0 3xx, 0 4xx, 0 5xx
traffic: 4297348954 bytes total, 17682 bytes headers (space savings 80.38%), 4294967296 bytes data
                     min         max         mean         sd        +/- sd
time for request:      9.76s      36.28s      22.90s       9.80s    51.56%
time for connect:    50.36ms     50.45ms     50.41ms        43us   100.00%
time to 1st byte:   118.09ms    119.22ms    118.65ms       564us    50.00%
