h2load http://node-0:8080/8mb -p h2c -t 1 -c 8 -m 64 -n 512
starting benchmark...
spawning thread #0: 8 total client(s). 512 total requests
Application protocol: h2c
progress: 9% done
progress: 19% done
progress: 29% done
progress: 39% done
progress: 49% done
progress: 59% done
progress: 69% done
progress: 79% done
progress: 89% done
progress: 99% done

finished in 9.64s, 53.12 req/s, 425.20MB/s
requests: 512 total, 512 started, 512 done, 512 succeeded, 0 failed, 0 errored, 0 timeout
status codes: 512 2xx, 0 3xx, 0 4xx, 0 5xx
traffic: 4297349578 bytes total, 18090 bytes headers (space savings 79.92%), 4294967296 bytes data
                     min         max         mean         sd        +/- sd
time for request:      4.88s       9.59s       8.40s       1.85s    73.44%
time for connect:    50.31ms     50.44ms     50.37ms        47us    50.00%
time to 1st byte:   115.48ms    130.14ms    121.29ms      6.40ms    62.50%
