h2load http://node-0:8080/1kb -p h2c -t 1 -c 2 -m 256 -n 512
starting benchmark...
spawning thread #0: 2 total client(s). 512 total requests
Application protocol: h2c
progress: 9% done
progress: 19% done
progress: 29% done
progress: 39% done
progress: 49% done
progress: 59% done
progress: 69% done
progress: 79% done
progress: 89% done
progress: 99% done

finished in 277.61ms, 1844.31 req/s, 1.88MB/s
requests: 512 total, 512 started, 512 done, 512 succeeded, 0 failed, 0 errored, 0 timeout
status codes: 512 2xx, 0 3xx, 0 4xx, 0 5xx
traffic: 548562 bytes total, 14986 bytes headers (space savings 82.78%), 524288 bytes data
                     min         max         mean         sd        +/- sd
time for request:    75.24ms    225.43ms    178.47ms     42.26ms    64.06%
time for connect:    50.32ms     50.40ms     50.36ms        38us    50.00%
time to 1st byte:   126.24ms    126.79ms    126.51ms       278us   100.00%
