h2load http://node-0:8080/16kb -p h2c -t 1 -c 32 -m 16 -n 512
starting benchmark...
spawning thread #0: 32 total client(s). 512 total requests
Application protocol: h2c
progress: 9% done
progress: 19% done
progress: 29% done
progress: 39% done
progress: 49% done
progress: 59% done
progress: 69% done
progress: 79% done
progress: 89% done
progress: 99% done

finished in 266.33ms, 1922.43 req/s, 30.14MB/s
requests: 512 total, 512 started, 512 done, 512 succeeded, 0 failed, 0 errored, 0 timeout
status codes: 512 2xx, 0 3xx, 0 4xx, 0 5xx
traffic: 8417024 bytes total, 18048 bytes headers (space savings 79.51%), 8388608 bytes data
                     min         max         mean         sd        +/- sd
time for request:    50.95ms    213.97ms    151.60ms     43.77ms    52.93%
time for connect:    50.44ms     50.51ms     50.49ms        15us    78.13%
time to 1st byte:   102.17ms    114.48ms    109.15ms      3.44ms    62.50%
