h2load http://node-0:8080/1mb -p h2c -t 1 -c 1 -m 512 -n 512
starting benchmark...
spawning thread #0: 1 total client(s). 512 total requests
Application protocol: h2c
progress: 9% done
progress: 19% done
progress: 29% done
progress: 39% done
progress: 49% done
progress: 59% done
progress: 69% done
progress: 79% done
progress: 89% done
progress: 99% done

finished in 9.43s, 54.31 req/s, 54.34MB/s
requests: 512 total, 512 started, 512 done, 512 succeeded, 0 failed, 0 errored, 0 timeout
status codes: 512 2xx, 0 3xx, 0 4xx, 0 5xx
traffic: 537187617 bytes total, 17149 bytes headers (space savings 80.97%), 536870912 bytes data
                     min         max         mean         sd        +/- sd
time for request:      1.55s       9.37s       5.45s       2.55s    51.56%
time for connect:    50.40ms     50.40ms     50.40ms         0us   100.00%
time to 1st byte:   124.15ms    124.15ms    124.15ms         0us   100.00%
