h2load http://node-0:8080/128kb -p h2c -t 1 -c 32 -m 16 -n 512
starting benchmark...
spawning thread #0: 32 total client(s). 512 total requests
Application protocol: h2c
progress: 9% done
progress: 19% done
progress: 29% done
progress: 39% done
progress: 49% done
progress: 59% done
progress: 69% done
progress: 79% done
progress: 89% done
progress: 99% done

finished in 699.41ms, 732.05 req/s, 91.59MB/s
requests: 512 total, 512 started, 512 done, 512 succeeded, 0 failed, 0 errored, 0 timeout
status codes: 512 2xx, 0 3xx, 0 4xx, 0 5xx
traffic: 67169651 bytes total, 18163 bytes headers (space savings 79.61%), 67108864 bytes data
                     min         max         mean         sd        +/- sd
time for request:   240.29ms    646.90ms    414.35ms     81.96ms    83.20%
time for connect:    50.43ms     50.51ms     50.47ms        26us    65.63%
time to 1st byte:   104.47ms    357.08ms    146.23ms     72.18ms    84.38%
