h2load http://node-0:8080/128mb -p h2c -t 1 -c 4 -m 128 -n 512
starting benchmark...
spawning thread #0: 4 total client(s). 512 total requests
Application protocol: h2c
progress: 9% done
progress: 19% done
progress: 29% done
progress: 39% done
progress: 49% done
progress: 59% done
progress: 69% done
progress: 79% done
progress: 89% done
progress: 99% done

finished in 287.42s, 1.78 req/s, 228.14MB/s
requests: 512 total, 512 started, 512 done, 512 succeeded, 0 failed, 0 errored, 0 timeout
status codes: 512 2xx, 0 3xx, 0 4xx, 0 5xx
traffic: 68757251333 bytes total, 20515 bytes headers (space savings 77.62%), 68719476736 bytes data
                     min         max         mean         sd        +/- sd
time for request:      5.73s     287.36s     161.41s      81.16s    61.91%
time for connect:    50.28ms     50.40ms     50.33ms        47us    50.00%
time to 1st byte:   127.80ms    129.57ms    128.78ms       631us    50.00%
