h2load http://node-0:8080/1mb -p h2c -t 1 -c 32 -m 16 -n 512
starting benchmark...
spawning thread #0: 32 total client(s). 512 total requests
Application protocol: h2c
progress: 9% done
progress: 19% done
progress: 29% done
progress: 39% done
progress: 49% done
progress: 59% done
progress: 69% done
progress: 79% done
progress: 89% done
progress: 99% done

finished in 1.08s, 475.68 req/s, 475.96MB/s
requests: 512 total, 512 started, 512 done, 512 succeeded, 0 failed, 0 errored, 0 timeout
status codes: 512 2xx, 0 3xx, 0 4xx, 0 5xx
traffic: 537191033 bytes total, 19449 bytes headers (space savings 78.42%), 536870912 bytes data
                     min         max         mean         sd        +/- sd
time for request:   391.56ms       1.02s    742.91ms    106.77ms    71.48%
time for connect:    50.35ms     50.73ms     50.44ms        79us    87.50%
time to 1st byte:   103.65ms    355.84ms    119.94ms     42.53ms    96.88%
