h2load http://node-0:8080/64mb -p h2c -t 1 -c 2 -m 256 -n 512
starting benchmark...
spawning thread #0: 2 total client(s). 512 total requests
Application protocol: h2c
progress: 9% done
progress: 19% done
progress: 29% done
progress: 39% done
progress: 49% done
progress: 59% done
progress: 69% done
progress: 79% done
progress: 89% done
progress: 99% done

finished in 287.19s, 1.78 req/s, 114.16MB/s
requests: 512 total, 512 started, 512 done, 512 succeeded, 0 failed, 0 errored, 0 timeout
status codes: 512 2xx, 0 3xx, 0 4xx, 0 5xx
traffic: 34378635720 bytes total, 17935 bytes headers (space savings 80.32%), 34359738368 bytes data
                     min         max         mean         sd        +/- sd
time for request:     37.48s     287.13s     162.46s      81.35s    53.13%
time for connect:    50.29ms     50.36ms     50.32ms        36us   100.00%
time to 1st byte:   133.07ms    133.36ms    133.22ms       147us   100.00%
