h2load http://node-0:8080/128mb -p h2c -t 1 -c 16 -m 32 -n 512
starting benchmark...
spawning thread #0: 16 total client(s). 512 total requests
Application protocol: h2c
progress: 9% done
progress: 19% done
progress: 29% done
progress: 39% done
progress: 49% done
progress: 59% done
progress: 69% done
progress: 79% done
progress: 89% done
progress: 99% done

finished in 73.42s, 6.97 req/s, 893.14MB/s
requests: 512 total, 512 started, 512 done, 512 succeeded, 0 failed, 0 errored, 0 timeout
status codes: 512 2xx, 0 3xx, 0 4xx, 0 5xx
traffic: 68757250825 bytes total, 19629 bytes headers (space savings 78.58%), 68719476736 bytes data
                     min         max         mean         sd        +/- sd
time for request:      6.45s      73.36s      64.39s      13.30s    85.35%
time for connect:    50.33ms     50.48ms     50.40ms        49us    56.25%
time to 1st byte:   110.29ms    119.71ms    116.07ms      3.13ms    62.50%
