h2load http://node-0:8080/16kb -p h2c -t 1 -c 32 -m 16 -n 512 -T 30m
starting benchmark...
spawning thread #0: 32 total client(s). 512 total requests
Application protocol: h2c
progress: 9% done
progress: 19% done
progress: 29% done
progress: 39% done
progress: 49% done
progress: 59% done
progress: 69% done
progress: 79% done
progress: 89% done
progress: 99% done

finished in 1.29s, 397.22 req/s, 6.23MB/s
requests: 512 total, 512 started, 512 done, 512 succeeded, 0 failed, 0 errored, 0 timeout
status codes: 512 2xx, 0 3xx, 0 4xx, 0 5xx
traffic: 8417024 bytes total, 18048 bytes headers (space savings 79.51%), 8388608 bytes data
                     min         max         mean         sd        +/- sd
time for request:    52.20ms    240.13ms    167.44ms     46.72ms    64.45%
time for connect:    50.41ms       1.05s     81.61ms    173.38ms    96.88%
time to 1st byte:   104.34ms       1.10s    144.90ms    171.54ms    96.88%
