h2load http://node-0:8080/1mb -p h2c -t 1 -c 512 -m 1 -n 512 -T 30m
starting benchmark...
spawning thread #0: 512 total client(s). 512 total requests
Application protocol: h2c
progress: 9% done
progress: 19% done
progress: 29% done
progress: 39% done
progress: 49% done
progress: 59% done
progress: 69% done
progress: 79% done
progress: 89% done
progress: 99% done

finished in 5.60s, 91.42 req/s, 91.48MB/s
requests: 512 total, 512 started, 512 done, 512 succeeded, 0 failed, 0 errored, 0 timeout
status codes: 512 2xx, 0 3xx, 0 4xx, 0 5xx
traffic: 537241088 bytes total, 52224 bytes headers (space savings 42.05%), 536870912 bytes data
                     min         max         mean         sd        +/- sd
time for request:   255.08ms       5.53s    877.44ms    464.47ms    80.47%
time for connect:    50.27ms       1.54s     64.60ms    113.68ms    99.41%
time to 1st byte:   101.19ms       1.60s    567.41ms    331.92ms    60.16%
