h2load http://node-0:8080/128mb -p h2c -t 1 -c 2 -m 256 -n 512 -T 30m
starting benchmark...
spawning thread #0: 2 total client(s). 512 total requests
Application protocol: h2c
progress: 9% done
progress: 19% done
progress: 29% done
progress: 39% done
progress: 49% done
progress: 59% done
progress: 69% done
progress: 79% done
progress: 89% done
progress: 99% done

finished in 572.00s, 0.89 req/s, 114.44MB/s
requests: 512 total, 512 started, 512 done, 512 succeeded, 0 failed, 0 errored, 0 timeout
status codes: 512 2xx, 0 3xx, 0 4xx, 0 5xx
traffic: 68757249211 bytes total, 18447 bytes headers (space savings 79.87%), 68719476736 bytes data
                     min         max         mean         sd        +/- sd
time for request:     69.81s     572.94s     324.22s     163.09s    59.18%
time for connect:    50.24ms     50.33ms     50.28ms        43us    50.00%
time to 1st byte:   114.43ms    114.48ms    114.46ms        26us   100.00%
