h2load http://node-0:8080/64mb -p h2c -t 1 -c 64 -m 8 -n 512 -T 30m
starting benchmark...
spawning thread #0: 64 total client(s). 512 total requests
Application protocol: h2c
progress: 9% done
progress: 19% done
progress: 29% done
progress: 39% done
progress: 49% done
progress: 59% done
progress: 69% done
progress: 79% done
progress: 89% done
progress: 99% done

finished in 30.88s, 16.58 req/s, 1.04GB/s
requests: 512 total, 512 started, 512 done, 512 succeeded, 0 failed, 0 errored, 0 timeout
status codes: 512 2xx, 0 3xx, 0 4xx, 0 5xx
traffic: 34378641569 bytes total, 21921 bytes headers (space savings 75.95%), 34359738368 bytes data
                     min         max         mean         sd        +/- sd
time for request:      6.94s      30.83s      17.87s       7.65s    52.34%
time for connect:    50.26ms       1.56s     74.37ms    186.69ms    98.44%
time to 1st byte:   103.55ms       7.09s    380.18ms       1.22s    95.31%
