h2load http://node-0:8080/1mb -p h2c -t 1 -c 128 -m 4 -n 512 -T 30m
starting benchmark...
spawning thread #0: 128 total client(s). 512 total requests
Application protocol: h2c
progress: 9% done
progress: 19% done
progress: 29% done
progress: 39% done
progress: 49% done
progress: 59% done
progress: 69% done
progress: 79% done
progress: 89% done
progress: 99% done

finished in 1.67s, 307.19 req/s, 307.38MB/s
requests: 512 total, 512 started, 512 done, 512 succeeded, 0 failed, 0 errored, 0 timeout
status codes: 512 2xx, 0 3xx, 0 4xx, 0 5xx
traffic: 537200768 bytes total, 25728 bytes headers (space savings 71.45%), 536870912 bytes data
                     min         max         mean         sd        +/- sd
time for request:   305.07ms       1.61s    612.99ms    221.86ms    84.96%
time for connect:    50.30ms       1.05s     59.81ms     87.67ms    99.22%
time to 1st byte:   102.05ms       1.10s    193.77ms    137.68ms    70.31%
