h2load http://node-0:8080/128mb -p h2c -t 1 -c 4 -m 128 -n 512 -T 30m
starting benchmark...
spawning thread #0: 4 total client(s). 512 total requests
Application protocol: h2c
progress: 9% done
progress: 19% done
progress: 29% done
progress: 39% done
progress: 49% done
progress: 59% done
progress: 69% done
progress: 79% done
progress: 89% done
progress: 99% done

finished in 181.56s, 2.82 req/s, 361.16MB/s
requests: 512 total, 512 started, 512 done, 512 succeeded, 0 failed, 0 errored, 0 timeout
status codes: 512 2xx, 0 3xx, 0 4xx, 0 5xx
traffic: 68757249712 bytes total, 18813 bytes headers (space savings 79.47%), 68719476736 bytes data
                     min         max         mean         sd        +/- sd
time for request:     45.40s     181.51s     140.78s      41.79s    82.42%
time for connect:    50.29ms     50.42ms     50.35ms        46us    50.00%
time to 1st byte:   115.62ms    133.50ms    120.33ms      7.61ms    75.00%
