h2load http://node-0:8080/1kb -p h2c -t 1 -c 64 -m 8 -n 512 -T 30m
starting benchmark...
spawning thread #0: 64 total client(s). 512 total requests
Application protocol: h2c
progress: 9% done
progress: 19% done
progress: 29% done
progress: 39% done
progress: 49% done
progress: 59% done
progress: 69% done
progress: 79% done
progress: 89% done
progress: 99% done

finished in 1.10s, 465.12 req/s, 492.43KB/s
requests: 512 total, 512 started, 512 done, 512 succeeded, 0 failed, 0 errored, 0 timeout
status codes: 512 2xx, 0 3xx, 0 4xx, 0 5xx
traffic: 555072 bytes total, 19264 bytes headers (space savings 77.87%), 524288 bytes data
                     min         max         mean         sd        +/- sd
time for request:    51.24ms    300.40ms     61.35ms     30.28ms    98.44%
time for connect:    50.27ms       1.05s     66.35ms    123.55ms    98.44%
time to 1st byte:   102.29ms       1.10s    128.84ms    125.82ms    96.88%
