h2load http://node-0:8080/128mb -p h2c -t 1 -c 64 -m 8 -n 512 -T 30m
starting benchmark...
spawning thread #0: 64 total client(s). 512 total requests
Application protocol: h2c
progress: 9% done
progress: 19% done
progress: 29% done
progress: 39% done
progress: 49% done
progress: 59% done
progress: 69% done
progress: 79% done
progress: 89% done
progress: 99% done

finished in 168.06s, 3.05 req/s, 390.16MB/s
requests: 512 total, 512 started, 512 done, 512 succeeded, 0 failed, 0 errored, 0 timeout
status codes: 512 2xx, 0 3xx, 0 4xx, 0 5xx
traffic: 68757255507 bytes total, 23123 bytes headers (space savings 74.77%), 68719476736 bytes data
                     min         max         mean         sd        +/- sd
time for request:      7.08s     168.01s      43.15s      35.75s    88.87%
time for connect:    50.31ms     51.34ms     50.75ms       422us    64.06%
time to 1st byte:   102.45ms     149.68s      13.87s      39.52s    89.06%
