h2load http://node-0:8080/16kb -p h2c -t 1 -c 128 -m 4 -n 512 -T 30m
starting benchmark...
spawning thread #0: 128 total client(s). 512 total requests
Application protocol: h2c
progress: 9% done
progress: 19% done
progress: 29% done
progress: 39% done
progress: 49% done
progress: 59% done
progress: 69% done
progress: 79% done
progress: 89% done
progress: 99% done

finished in 1.15s, 443.73 req/s, 6.97MB/s
requests: 512 total, 512 started, 512 done, 512 succeeded, 0 failed, 0 errored, 0 timeout
status codes: 512 2xx, 0 3xx, 0 4xx, 0 5xx
traffic: 8427261 bytes total, 24829 bytes headers (space savings 71.81%), 8388608 bytes data
                     min         max         mean         sd        +/- sd
time for request:    50.66ms    605.23ms    159.92ms    146.45ms    83.01%
time for connect:    50.39ms       1.05s     59.50ms     87.88ms    99.22%
time to 1st byte:   101.66ms       1.10s    182.89ms    166.04ms    78.91%
