h2load http://node-0:8080/8mb -p h2c -t 1 -c 256 -m 2 -n 512 -T 30m
starting benchmark...
spawning thread #0: 256 total client(s). 512 total requests
Application protocol: h2c
progress: 9% done
progress: 19% done
progress: 29% done
progress: 39% done
progress: 49% done
progress: 59% done
progress: 69% done
progress: 79% done
progress: 89% done
progress: 99% done

finished in 9.79s, 52.32 req/s, 418.81MB/s
requests: 512 total, 512 started, 512 done, 512 succeeded, 0 failed, 0 errored, 0 timeout
status codes: 512 2xx, 0 3xx, 0 4xx, 0 5xx
traffic: 4297375255 bytes total, 34839 bytes headers (space savings 61.34%), 4294967296 bytes data
                     min         max         mean         sd        +/- sd
time for request:      1.10s       9.73s       3.26s       1.89s    74.02%
time for connect:    50.37ms       1.06s     56.87ms     62.78ms    99.61%
time to 1st byte:   101.69ms       2.41s    501.58ms    643.29ms    89.45%
