h2load http://node-0:8080/64mb -p h2c -t 1 -c 512 -m 1 -n 512 -T 30m
starting benchmark...
spawning thread #0: 512 total client(s). 512 total requests
Application protocol: h2c
progress: 19% done
progress: 29% done
progress: 39% done
progress: 49% done
progress: 59% done
progress: 69% done
progress: 79% done
progress: 89% done
progress: 99% done

finished in 66.97s, 7.27 req/s, 465.65MB/s
requests: 512 total, 512 started, 512 done, 487 succeeded, 25 failed, 25 errored, 0 timeout
status codes: 487 2xx, 0 3xx, 0 4xx, 0 5xx
traffic: 32700041125 bytes total, 49674 bytes headers (space savings 42.70%), 32682016768 bytes data
                     min         max         mean         sd        +/- sd
time for request:      4.74s      66.90s      21.34s      12.55s    67.76%
time for connect:    50.31ms     58.92ms     55.71ms      2.61ms    60.16%
time to 1st byte:   101.59ms      10.87s       2.60s       2.82s    81.93%
