h2load http://node-0:8080/128kb -p h2c -t 1 -c 256 -m 2 -n 512 -T 30m
starting benchmark...
spawning thread #0: 256 total client(s). 512 total requests
Application protocol: h2c
progress: 9% done
progress: 19% done
progress: 29% done
progress: 39% done
progress: 49% done
progress: 59% done
progress: 69% done
progress: 79% done
progress: 89% done
progress: 99% done

finished in 2.28s, 224.89 req/s, 28.15MB/s
requests: 512 total, 512 started, 512 done, 512 succeeded, 0 failed, 0 errored, 0 timeout
status codes: 512 2xx, 0 3xx, 0 4xx, 0 5xx
traffic: 67192832 bytes total, 33280 bytes headers (space savings 62.64%), 67108864 bytes data
                     min         max         mean         sd        +/- sd
time for request:   150.79ms       2.22s    478.79ms    469.31ms    85.55%
time for connect:    50.28ms       1.05s     64.68ms    107.06ms    98.83%
time to 1st byte:   101.26ms       2.12s    397.18ms    474.92ms    84.38%
