h2load http://node-0:8080/8mb -p h2c -t 1 -c 512 -m 1 -n 512 -T 30m
starting benchmark...
spawning thread #0: 512 total client(s). 512 total requests
Application protocol: h2c
progress: 9% done
progress: 19% done
progress: 29% done
progress: 39% done
progress: 49% done
progress: 59% done
progress: 69% done
progress: 79% done
progress: 89% done
progress: 99% done

finished in 20.66s, 24.63 req/s, 197.19MB/s
requests: 512 total, 512 started, 512 done, 509 succeeded, 3 failed, 3 errored, 0 timeout
status codes: 509 2xx, 0 3xx, 0 4xx, 0 5xx
traffic: 4272221767 bytes total, 51918 bytes headers (space savings 42.05%), 4269801472 bytes data
                     min         max         mean         sd        +/- sd
time for request:   602.89ms      20.60s       4.60s       2.55s    74.07%
time for connect:    50.25ms       1.54s     60.51ms     79.10ms    99.61%
time to 1st byte:   101.40ms       9.10s       1.31s       1.24s    81.93%
