h2load http://node-1:8080/1kb -p h2c -t 1 -c 8 -m 16 -n 128 -T 30m
starting benchmark...
spawning thread #0: 8 total client(s). 128 total requests
Application protocol: h2c
progress: 9% done
progress: 18% done
progress: 28% done
progress: 37% done
progress: 46% done
progress: 56% done
progress: 65% done
progress: 75% done
progress: 84% done
progress: 93% done

finished in 8.13ms, 15736.42 req/s, 16.17MB/s
requests: 128 total, 128 started, 128 done, 128 succeeded, 0 failed, 0 errored, 0 timeout
status codes: 128 2xx, 0 3xx, 0 4xx, 0 5xx
traffic: 137920 bytes total, 4256 bytes headers (space savings 80.44%), 131072 bytes data
                     min         max         mean         sd        +/- sd
time for request:     2.86ms      5.38ms      4.22ms      1.03ms    37.50%
time for connect:      305us       396us       342us        26us    62.50%
time to 1st byte:     3.53ms      6.02ms      4.84ms       988us    50.00%
