h2load http://node-1:8080/128mb -p h2c -t 1 -c 16 -m 8 -n 128 -T 30m
starting benchmark...
spawning thread #0: 16 total client(s). 128 total requests
Application protocol: h2c
progress: 9% done
progress: 18% done
progress: 28% done
progress: 37% done
progress: 46% done
progress: 56% done
progress: 65% done
progress: 75% done
progress: 84% done
progress: 93% done

finished in 15.01s, 8.53 req/s, 1.07GB/s
requests: 128 total, 128 started, 128 done, 128 succeeded, 0 failed, 0 errored, 0 timeout
status codes: 128 2xx, 0 3xx, 0 4xx, 0 5xx
traffic: 17189313664 bytes total, 5568 bytes headers (space savings 75.70%), 17179869184 bytes data
                     min         max         mean         sd        +/- sd
time for request:      1.31s      15.01s       8.54s       3.88s    59.38%
time for connect:      335us       611us       448us        79us    56.25%
time to 1st byte:     2.83ms     12.18ms      7.31ms      3.22ms    50.00%
