h2load http://node-1:8080/128kb -p h2c -t 1 -c 4 -m 32 -n 128 -T 30m
starting benchmark...
spawning thread #0: 4 total client(s). 128 total requests
Application protocol: h2c
progress: 9% done
progress: 18% done
progress: 28% done
progress: 37% done
progress: 46% done
progress: 56% done
progress: 65% done
progress: 75% done
progress: 84% done
progress: 93% done

finished in 219.51ms, 583.13 req/s, 72.96MB/s
requests: 128 total, 128 started, 128 done, 128 succeeded, 0 failed, 0 errored, 0 timeout
status codes: 128 2xx, 0 3xx, 0 4xx, 0 5xx
traffic: 16791968 bytes total, 4240 bytes headers (space savings 80.96%), 16777216 bytes data
                     min         max         mean         sd        +/- sd
time for request:    15.91ms    217.29ms     72.32ms     83.71ms    75.00%
time for connect:      278us       320us       289us        17us    75.00%
time to 1st byte:     8.07ms     22.48ms     15.06ms      6.28ms    50.00%
