h2load http://node-1:8080/8mb -p h2c -t 1 -c 2 -m 64 -n 128 -T 30m
starting benchmark...
spawning thread #0: 2 total client(s). 128 total requests
Application protocol: h2c
progress: 9% done
progress: 18% done
progress: 28% done
progress: 37% done
progress: 46% done
progress: 56% done
progress: 65% done
progress: 75% done
progress: 84% done
progress: 93% done

finished in 1.87s, 68.54 req/s, 548.62MB/s
requests: 128 total, 128 started, 128 done, 128 succeeded, 0 failed, 0 errored, 0 timeout
status codes: 128 2xx, 0 3xx, 0 4xx, 0 5xx
traffic: 1074337360 bytes total, 4488 bytes headers (space savings 80.08%), 1073741824 bytes data
                     min         max         mean         sd        +/- sd
time for request:      1.86s       1.87s       1.86s      1.25ms    57.81%
time for connect:      324us       357us       340us        16us    50.00%
time to 1st byte:    16.30ms     17.46ms     16.88ms       583us   100.00%
