h2load http://node-1:8080/1mb -p h2c -t 1 -c 1 -m 64 -n 128 -T 30m
starting benchmark...
spawning thread #0: 1 total client(s). 128 total requests
Application protocol: h2c
progress: 9% done
progress: 18% done
progress: 28% done
progress: 37% done
progress: 46% done
progress: 56% done
progress: 65% done
progress: 75% done
progress: 84% done
progress: 93% done

finished in 526.23ms, 243.24 req/s, 243.38MB/s
requests: 128 total, 128 started, 128 done, 128 succeeded, 0 failed, 0 errored, 0 timeout
status codes: 128 2xx, 0 3xx, 0 4xx, 0 5xx
traffic: 134296831 bytes total, 4187 bytes headers (space savings 81.41%), 134217728 bytes data
                     min         max         mean         sd        +/- sd
time for request:     6.83ms    267.17ms    257.22ms     32.22ms    98.44%
time for connect:      257us       257us       257us         0us   100.00%
time to 1st byte:    23.69ms     23.69ms     23.69ms         0us   100.00%
