h2load http://node-1:8080/128mb -p http/1.1 -t 1 -c 4 -m 1 -n 128 -T 30m
starting benchmark...
spawning thread #0: 4 total client(s). 128 total requests
Application protocol: http/1.1
progress: 9% done
progress: 18% done
progress: 28% done
progress: 37% done
progress: 46% done
progress: 56% done
progress: 65% done
progress: 75% done
progress: 84% done
progress: 93% done

finished in 15.05s, 8.50 req/s, 1.06GB/s
requests: 128 total, 128 started, 128 done, 128 succeeded, 0 failed, 0 errored, 0 timeout
status codes: 128 2xx, 0 3xx, 0 4xx, 0 5xx
traffic: 17179896320 bytes total, 21632 bytes headers (space savings 0.00%), 17179869184 bytes data
                     min         max         mean         sd        +/- sd
time for request:   201.18ms    683.92ms    441.90ms     81.14ms    78.13%
time for connect:      208us       324us       250us        44us    75.00%
time to 1st byte:     1.11ms    205.10ms     52.13ms     88.32ms    75.00%
