h2load http://node-1:8080/1mb -p http/1.1 -t 1 -c 2 -m 1 -n 128 -T 30m
starting benchmark...
spawning thread #0: 2 total client(s). 128 total requests
Application protocol: http/1.1
progress: 9% done
progress: 18% done
progress: 28% done
progress: 37% done
progress: 46% done
progress: 56% done
progress: 65% done
progress: 75% done
progress: 84% done
progress: 93% done

finished in 373.37ms, 342.82 req/s, 342.89MB/s
requests: 128 total, 128 started, 128 done, 128 succeeded, 0 failed, 0 errored, 0 timeout
status codes: 128 2xx, 0 3xx, 0 4xx, 0 5xx
traffic: 134244480 bytes total, 21248 bytes headers (space savings 0.00%), 134217728 bytes data
                     min         max         mean         sd        +/- sd
time for request:     1.85ms    204.60ms      5.81ms     25.01ms    98.44%
time for connect:      208us       272us       240us        32us   100.00%
time to 1st byte:      912us       912us       912us         0us   100.00%
