h2load http://node-0:8080/8mb -p h2c -t 1 -c 256 -m 2 -n 512 -T 30m
starting benchmark...
spawning thread #0: 256 total client(s). 512 total requests
Application protocol: h2c
progress: 9% done
progress: 19% done
progress: 29% done
progress: 39% done
progress: 49% done
progress: 59% done
progress: 69% done
progress: 79% done
progress: 89% done
progress: 99% done

finished in 10.27s, 49.84 req/s, 398.92MB/s
requests: 512 total, 512 started, 512 done, 512 succeeded, 0 failed, 0 errored, 0 timeout
status codes: 512 2xx, 0 3xx, 0 4xx, 0 5xx
traffic: 4297375232 bytes total, 34816 bytes headers (space savings 61.36%), 4294967296 bytes data
                     min         max         mean         sd        +/- sd
time for request:      1.03s      10.22s       3.01s       1.73s    79.30%
time for connect:    50.41ms     55.48ms     53.21ms      1.66ms    58.98%
time to 1st byte:   101.85ms       4.45s    790.18ms       1.05s    80.86%
