h2load http://node-0:8080/128mb -p h2c -t 1 -c 256 -m 2 -n 512 -T 30m
starting benchmark...
spawning thread #0: 256 total client(s). 512 total requests
Application protocol: h2c
progress: 9% done
progress: 19% done
progress: 29% done
progress: 39% done
progress: 49% done
progress: 59% done
progress: 69% done
progress: 79% done
progress: 89% done
progress: 99% done

finished in 81.94s, 6.13 req/s, 784.66MB/s
requests: 512 total, 512 started, 512 done, 502 succeeded, 10 failed, 10 errored, 0 timeout
status codes: 510 2xx, 0 3xx, 0 4xx, 0 5xx
traffic: 67420016545 bytes total, 35258 bytes headers (space savings 61.38%), 67382952902 bytes data
                     min         max         mean         sd        +/- sd
time for request:     16.12s      81.88s      38.74s      13.47s    70.32%
time for connect:    50.44ms     55.63ms     53.06ms      1.54ms    66.02%
time to 1st byte:   103.43ms       4.66s    736.02ms       1.01s    85.55%
