h2load http://node-0:8080/128kb -p h2c -t 1 -c 512 -m 1 -n 512 -T 30m
starting benchmark...
spawning thread #0: 512 total client(s). 512 total requests
Application protocol: h2c
progress: 9% done
progress: 19% done
progress: 29% done
progress: 39% done
progress: 49% done
progress: 59% done
progress: 69% done
progress: 79% done
progress: 89% done

finished in 4.16s, 119.85 req/s, 15.01MB/s
requests: 512 total, 512 started, 512 done, 498 succeeded, 14 failed, 14 errored, 0 timeout
status codes: 498 2xx, 0 3xx, 0 4xx, 0 5xx
traffic: 65381424 bytes total, 49302 bytes headers (space savings 43.10%), 65273856 bytes data
                     min         max         mean         sd        +/- sd
time for request:   150.84ms       2.22s    461.01ms    338.07ms    94.58%
time for connect:    50.54ms     60.62ms     55.61ms      2.56ms    70.68%
time to 1st byte:   103.21ms       2.13s    392.43ms    343.48ms    94.58%
