h2load http://node-0:8080/8mb -p h2c -t 1 -c 128 -m 4 -n 512 -T 30m
starting benchmark...
spawning thread #0: 128 total client(s). 512 total requests
Application protocol: h2c
progress: 9% done
progress: 19% done
progress: 29% done
progress: 39% done
progress: 49% done
progress: 59% done
progress: 69% done
progress: 79% done
progress: 89% done
progress: 99% done

finished in 8.72s, 58.70 req/s, 469.83MB/s
requests: 512 total, 512 started, 512 done, 512 succeeded, 0 failed, 0 errored, 0 timeout
status codes: 512 2xx, 0 3xx, 0 4xx, 0 5xx
traffic: 4297361920 bytes total, 26112 bytes headers (space savings 71.02%), 4294967296 bytes data
                     min         max         mean         sd        +/- sd
time for request:   820.09ms       8.67s       2.81s       1.21s    91.99%
time for connect:    50.38ms     52.99ms     51.61ms       904us    42.19%
time to 1st byte:   101.69ms       1.63s    235.07ms    315.58ms    89.06%
