h2load http://node-0:8080/1kb -p h2c -t 1 -c 8 -m 64 -n 512 -T 30m
starting benchmark...
spawning thread #0: 8 total client(s). 512 total requests
Application protocol: h2c
progress: 9% done
progress: 19% done
progress: 29% done
progress: 39% done
progress: 49% done
progress: 59% done
progress: 69% done
progress: 79% done
progress: 89% done
progress: 99% done

finished in 176.33ms, 2903.70 req/s, 2.97MB/s
requests: 512 total, 512 started, 512 done, 512 succeeded, 0 failed, 0 errored, 0 timeout
status codes: 512 2xx, 0 3xx, 0 4xx, 0 5xx
traffic: 549192 bytes total, 15400 bytes headers (space savings 82.31%), 524288 bytes data
                     min         max         mean         sd        +/- sd
time for request:    55.80ms    123.87ms    100.30ms     24.77ms    65.63%
time for connect:    50.31ms     50.46ms     50.38ms        50us    50.00%
time to 1st byte:   107.08ms    124.73ms    118.45ms      7.02ms    62.50%
