h2load http://node-0:8080/64mb -p h2c -t 1 -c 8 -m 64 -n 512 -T 30m
starting benchmark...
spawning thread #0: 8 total client(s). 512 total requests
Application protocol: h2c
progress: 9% done
progress: 19% done
progress: 29% done
progress: 39% done
progress: 49% done
progress: 59% done
progress: 69% done
progress: 79% done
progress: 89% done
progress: 99% done

finished in 72.43s, 7.07 req/s, 452.67MB/s
requests: 512 total, 512 started, 512 done, 512 succeeded, 0 failed, 0 errored, 0 timeout
status codes: 512 2xx, 0 3xx, 0 4xx, 0 5xx
traffic: 34378636028 bytes total, 18090 bytes headers (space savings 80.15%), 34359738368 bytes data
                     min         max         mean         sd        +/- sd
time for request:     34.21s      72.37s      63.21s      14.66s    73.44%
time for connect:    50.34ms     50.47ms     50.40ms        46us    50.00%
time to 1st byte:   115.48ms    131.83ms    120.43ms      4.87ms    75.00%
