h2load http://node-0:8080/16kb -p h2c -t 1 -c 16 -m 32 -n 512 -T 30m
starting benchmark...
spawning thread #0: 16 total client(s). 512 total requests
Application protocol: h2c
progress: 9% done
progress: 19% done
progress: 29% done
progress: 39% done
progress: 49% done
progress: 59% done
progress: 69% done
progress: 79% done
progress: 89% done
progress: 99% done

finished in 321.39ms, 1593.09 req/s, 24.97MB/s
requests: 512 total, 512 started, 512 done, 512 succeeded, 0 failed, 0 errored, 0 timeout
status codes: 512 2xx, 0 3xx, 0 4xx, 0 5xx
traffic: 8415360 bytes total, 16960 bytes headers (space savings 80.74%), 8388608 bytes data
                     min         max         mean         sd        +/- sd
time for request:    56.31ms    268.31ms    205.57ms     55.24ms    73.63%
time for connect:    50.26ms     50.46ms     50.38ms        59us    62.50%
time to 1st byte:   107.46ms    118.90ms    112.29ms      4.60ms    50.00%
