h2load http://node-0:8080/128mb -p h2c -t 1 -c 32 -m 16 -n 512 -T 30m
starting benchmark...
spawning thread #0: 32 total client(s). 512 total requests
Application protocol: h2c
progress: 9% done
progress: 19% done
progress: 29% done
progress: 39% done
progress: 49% done
progress: 59% done
progress: 69% done
progress: 79% done
progress: 89% done
progress: 99% done

finished in 74.42s, 6.88 req/s, 881.05MB/s
requests: 512 total, 512 started, 512 done, 512 succeeded, 0 failed, 0 errored, 0 timeout
status codes: 512 2xx, 0 3xx, 0 4xx, 0 5xx
traffic: 68757253005 bytes total, 21683 bytes headers (space savings 76.34%), 68719476736 bytes data
                     min         max         mean         sd        +/- sd
time for request:      6.87s      74.37s      38.83s      14.46s    71.68%
time for connect:    50.31ms     50.51ms     50.42ms        83us    65.63%
time to 1st byte:   108.05ms    124.22ms    116.24ms      4.07ms    68.75%
