h2load http://node-0:8080/64mb -p h2c -t 1 -c 32 -m 16 -n 512 -T 30m
starting benchmark...
spawning thread #0: 32 total client(s). 512 total requests
Application protocol: h2c
progress: 9% done
progress: 19% done
progress: 29% done
progress: 39% done
progress: 49% done
progress: 59% done
progress: 69% done
progress: 79% done
progress: 89% done
progress: 99% done

finished in 28.57s, 17.92 req/s, 1.12GB/s
requests: 512 total, 512 started, 512 done, 512 succeeded, 0 failed, 0 errored, 0 timeout
status codes: 512 2xx, 0 3xx, 0 4xx, 0 5xx
traffic: 34378639598 bytes total, 21102 bytes headers (space savings 76.85%), 34359738368 bytes data
                     min         max         mean         sd        +/- sd
time for request:      3.73s      28.52s      18.32s       7.25s    60.35%
time for connect:    50.39ms     50.64ms     50.50ms        77us    68.75%
time to 1st byte:   105.81ms    476.06ms    179.93ms    141.40ms    81.25%
