h2load http://node-0:8080/1mb -p h2c -t 1 -c 256 -m 2 -n 512 -T 30m
starting benchmark...
spawning thread #0: 256 total client(s). 512 total requests
Application protocol: h2c
progress: 9% done
progress: 19% done
progress: 29% done
progress: 39% done
progress: 49% done
progress: 59% done
progress: 69% done
progress: 79% done
progress: 89% done
progress: 99% done

finished in 8.54s, 59.97 req/s, 60.01MB/s
requests: 512 total, 512 started, 512 done, 512 succeeded, 0 failed, 0 errored, 0 timeout
status codes: 512 2xx, 0 3xx, 0 4xx, 0 5xx
traffic: 537214208 bytes total, 34560 bytes headers (space savings 61.65%), 536870912 bytes data
                     min         max         mean         sd        +/- sd
time for request:   289.05ms       8.48s       1.07s       1.52s    92.97%
time for connect:    50.44ms     56.02ms     53.70ms      1.83ms    62.11%
time to 1st byte:   101.66ms       8.18s    715.54ms       1.54s    92.97%
