h2load http://node-0:8080/1mb -p h2c -t 1 -c 512 -m 1 -n 512 -T 30m
starting benchmark...
spawning thread #0: 512 total client(s). 512 total requests
Application protocol: h2c
progress: 9% done
progress: 19% done
progress: 29% done
progress: 39% done
progress: 49% done
progress: 59% done
progress: 69% done
progress: 79% done
progress: 89% done

finished in 4.65s, 105.09 req/s, 105.16MB/s
requests: 512 total, 512 started, 512 done, 489 succeeded, 23 failed, 23 errored, 0 timeout
status codes: 489 2xx, 0 3xx, 0 4xx, 0 5xx
traffic: 513107211 bytes total, 49878 bytes headers (space savings 42.05%), 512753664 bytes data
                     min         max         mean         sd        +/- sd
time for request:   290.10ms       3.53s    880.86ms    542.07ms    84.25%
time for connect:    50.39ms     58.03ms     55.14ms      2.23ms    59.51%
time to 1st byte:   101.73ms       2.63s    555.61ms    516.20ms    86.50%
