h2load http://node-0:8080/1mb -p http/1.1 -t 1 -c 256 -m 1 -n 512
starting benchmark...
spawning thread #0: 256 total client(s). 512 total requests
Application protocol: http/1.1
progress: 9% done
progress: 19% done
progress: 29% done
progress: 39% done
progress: 49% done
progress: 59% done
progress: 69% done
progress: 79% done
progress: 89% done
progress: 99% done

finished in 52.37s, 9.72 req/s, 9.72MB/s
requests: 512 total, 512 started, 512 done, 509 succeeded, 3 failed, 3 errored, 0 timeout
status codes: 509 2xx, 0 3xx, 0 4xx, 0 5xx
traffic: 533831565 bytes total, 84494 bytes headers (space savings 0.00%), 533725184 bytes data
                     min         max         mean         sd        +/- sd
time for request:     2.61ms      52.36s       2.16s       7.75s    93.71%
time for connect:     1.65ms    997.11ms     14.18ms    107.03ms    98.83%
time to 1st byte:     5.16ms      52.35s       4.24s      10.52s    92.19%
