h2load http://node-0:8080/128mb -p http/1.1 -t 1 -c 2 -m 1 -n 512
starting benchmark...
spawning thread #0: 2 total client(s). 512 total requests
Application protocol: http/1.1
progress: 9% done
progress: 19% done
progress: 29% done
progress: 39% done
progress: 49% done
progress: 59% done
progress: 69% done
progress: 79% done
progress: 89% done
progress: 99% done

finished in 55.68s, 9.20 req/s, 1.15GB/s
requests: 512 total, 512 started, 512 done, 512 succeeded, 0 failed, 0 errored, 0 timeout
status codes: 512 2xx, 0 3xx, 0 4xx, 0 5xx
traffic: 68719579788 bytes total, 86588 bytes headers (space savings 0.00%), 68719476736 bytes data
                     min         max         mean         sd        +/- sd
time for request:   108.88ms    722.96ms    201.48ms     78.75ms    80.66%
time for connect:      208us       246us       227us        19us   100.00%
time to 1st byte:      852us       890us       871us        19us   100.00%
