h2load http://node-0:8080/64mb -p http/1.1 -t 1 -c 4 -m 1 -n 512
starting benchmark...
spawning thread #0: 4 total client(s). 512 total requests
Application protocol: http/1.1
progress: 9% done
progress: 19% done
progress: 29% done
progress: 39% done
progress: 49% done
progress: 59% done
progress: 69% done
progress: 79% done
progress: 89% done
progress: 99% done

finished in 28.58s, 17.91 req/s, 1.12GB/s
requests: 512 total, 512 started, 512 done, 512 succeeded, 0 failed, 0 errored, 0 timeout
status codes: 512 2xx, 0 3xx, 0 4xx, 0 5xx
traffic: 34359835104 bytes total, 86076 bytes headers (space savings 0.00%), 34359738368 bytes data
                     min         max         mean         sd        +/- sd
time for request:    54.75ms    861.24ms    183.94ms    113.22ms    70.90%
time for connect:      187us       261us       215us        27us    50.00%
time to 1st byte:      660us       900us       758us        91us    50.00%
