h2load http://node-0:8080/8mb -p http/1.1 -t 1 -c 512 -m 1 -n 512
starting benchmark...
spawning thread #0: 512 total client(s). 512 total requests
Application protocol: http/1.1
progress: 9% done
progress: 19% done
progress: 29% done
progress: 39% done
progress: 49% done
progress: 59% done
progress: 69% done
progress: 79% done
progress: 89% done
progress: 99% done

finished in 7.03s, 71.42 req/s, 571.36MB/s
requests: 512 total, 512 started, 512 done, 502 succeeded, 10 failed, 10 errored, 0 timeout
status codes: 502 2xx, 0 3xx, 0 4xx, 0 5xx
traffic: 4211186134 bytes total, 83332 bytes headers (space savings 0.00%), 4211081216 bytes data
                     min         max         mean         sd        +/- sd
time for request:    11.04ms       6.59s       1.76s       1.06s    71.12%
time for connect:     2.50ms       3.00s    476.50ms       1.01s    87.25%
time to 1st byte:     7.28ms       7.01s    923.74ms       1.30s    83.27%
