h2load http://node-0:8080/8mb -p http/1.1 -t 1 -c 4 -m 1 -n 512
starting benchmark...
spawning thread #0: 4 total client(s). 512 total requests
Application protocol: http/1.1
progress: 9% done
progress: 19% done
progress: 29% done
progress: 39% done
progress: 49% done
progress: 59% done
progress: 69% done
progress: 79% done
progress: 89% done
progress: 99% done

finished in 3.50s, 146.28 req/s, 1.14GB/s
requests: 512 total, 512 started, 512 done, 512 succeeded, 0 failed, 0 errored, 0 timeout
status codes: 512 2xx, 0 3xx, 0 4xx, 0 5xx
traffic: 4295061692 bytes total, 85052 bytes headers (space savings 0.00%), 4294967296 bytes data
                     min         max         mean         sd        +/- sd
time for request:     7.03ms    240.93ms     23.35ms     20.16ms    87.70%
time for connect:      195us       255us       216us        22us    75.00%
time to 1st byte:      708us       767us       735us        26us    50.00%
