h2load http://node-0:8080/1kb -p http/1.1 -t 1 -c 8 -m 1 -n 512
starting benchmark...
spawning thread #0: 8 total client(s). 512 total requests
Application protocol: http/1.1
progress: 9% done
progress: 19% done
progress: 29% done
progress: 39% done
progress: 49% done
progress: 59% done
progress: 69% done
progress: 79% done
progress: 89% done
progress: 99% done

finished in 417.44ms, 1226.54 req/s, 1.44MB/s
requests: 512 total, 512 started, 512 done, 512 succeeded, 0 failed, 0 errored, 0 timeout
status codes: 512 2xx, 0 3xx, 0 4xx, 0 5xx
traffic: 628224 bytes total, 81920 bytes headers (space savings 0.00%), 524288 bytes data
                     min         max         mean         sd        +/- sd
time for request:      115us    204.31ms      1.43ms     15.55ms    99.41%
time for connect:      108us       211us       149us        31us    75.00%
time to 1st byte:      655us       776us       711us        49us    37.50%
