h2load http://node-1:8080/8mb -p h2c -t 1 -c 4 -m 32 -n 128 -T 30m
starting benchmark...
spawning thread #0: 4 total client(s). 128 total requests
Application protocol: h2c
progress: 9% done
progress: 18% done
progress: 28% done
progress: 37% done
progress: 46% done
progress: 56% done
progress: 65% done
progress: 75% done
progress: 84% done
progress: 93% done

finished in 986.90ms, 129.70 req/s, 1.01GB/s
requests: 128 total, 128 started, 128 done, 128 succeeded, 0 failed, 0 errored, 0 timeout
status codes: 128 2xx, 0 3xx, 0 4xx, 0 5xx
traffic: 1074337568 bytes total, 4624 bytes headers (space savings 79.47%), 1073741824 bytes data
                     min         max         mean         sd        +/- sd
time for request:   723.02ms    985.52ms    913.82ms     62.08ms    70.31%
time for connect:      210us       239us       219us        11us    75.00%
time to 1st byte:     7.12ms     12.58ms      9.54ms      2.17ms    50.00%
