h2load http://node-1:8080/1kb -p h2c -t 1 -c 16 -m 8 -n 128 -T 30m
starting benchmark...
spawning thread #0: 16 total client(s). 128 total requests
Application protocol: h2c
progress: 9% done
progress: 18% done
progress: 28% done
progress: 37% done
progress: 46% done
progress: 56% done
progress: 65% done
progress: 75% done
progress: 84% done
progress: 93% done

finished in 7.05ms, 18163.76 req/s, 18.78MB/s
requests: 128 total, 128 started, 128 done, 128 succeeded, 0 failed, 0 errored, 0 timeout
status codes: 128 2xx, 0 3xx, 0 4xx, 0 5xx
traffic: 138752 bytes total, 4800 bytes headers (space savings 77.94%), 131072 bytes data
                     min         max         mean         sd        +/- sd
time for request:     1.96ms      3.93ms      2.91ms       647us    45.31%
time for connect:      344us       617us       454us        75us    68.75%
time to 1st byte:     2.91ms      4.75ms      3.74ms       585us    56.25%
