h2load http://node-1:8080/16kb -p http/1.1 -t 1 -c 8 -m 1 -n 128 -T 30m
starting benchmark...
spawning thread #0: 8 total client(s). 128 total requests
Application protocol: http/1.1
progress: 9% done
progress: 18% done
progress: 28% done
progress: 37% done
progress: 46% done
progress: 56% done
progress: 65% done
progress: 75% done
progress: 84% done
progress: 93% done

finished in 640.52ms, 199.84 req/s, 3.16MB/s
requests: 128 total, 128 started, 128 done, 128 succeeded, 0 failed, 0 errored, 0 timeout
status codes: 128 2xx, 0 3xx, 0 4xx, 0 5xx
traffic: 2123392 bytes total, 20736 bytes headers (space savings 0.00%), 2097152 bytes data
                     min         max         mean         sd        +/- sd
time for request:    35.36ms     70.90ms     37.76ms      8.54ms    93.75%
time for connect:    35.20ms     35.36ms     35.26ms        57us    75.00%
time to 1st byte:    71.03ms     71.10ms     71.06ms        27us    62.50%
