h2load http://node-1:8080/128kb -p h2c -t 1 -c 2 -m 64 -n 128 -T 30m
starting benchmark...
spawning thread #0: 2 total client(s). 128 total requests
Application protocol: h2c
progress: 9% done
progress: 18% done
progress: 28% done
progress: 37% done
progress: 46% done
progress: 56% done
progress: 65% done
progress: 75% done
progress: 84% done
progress: 93% done

finished in 1.63s, 78.60 req/s, 9.83MB/s
requests: 128 total, 128 started, 128 done, 128 succeeded, 0 failed, 0 errored, 0 timeout
status codes: 128 2xx, 0 3xx, 0 4xx, 0 5xx
traffic: 16791760 bytes total, 4104 bytes headers (space savings 81.57%), 16777216 bytes data
                     min         max         mean         sd        +/- sd
time for request:      1.40s       1.59s       1.49s     50.91ms    64.06%
time for connect:    35.39ms     35.40ms     35.39ms         6us    50.00%
time to 1st byte:    95.04ms    109.98ms    102.51ms      7.47ms    50.00%
