h2load http://node-1:8080/1kb -p h2c -t 1 -c 2 -m 64 -n 128 -T 30m
starting benchmark...
spawning thread #0: 2 total client(s). 128 total requests
Application protocol: h2c
progress: 9% done
progress: 18% done
progress: 28% done
progress: 37% done
progress: 46% done
progress: 56% done
progress: 65% done
progress: 75% done
progress: 84% done
progress: 93% done

finished in 154.82ms, 826.75 req/s, 866.01KB/s
requests: 128 total, 128 started, 128 done, 128 succeeded, 0 failed, 0 errored, 0 timeout
status codes: 128 2xx, 0 3xx, 0 4xx, 0 5xx
traffic: 137296 bytes total, 3848 bytes headers (space savings 82.32%), 131072 bytes data
                     min         max         mean         sd        +/- sd
time for request:    47.83ms    118.10ms     92.16ms     23.36ms    53.13%
time for connect:    35.34ms     35.36ms     35.35ms        13us    50.00%
time to 1st byte:    83.32ms     83.59ms     83.46ms       134us    50.00%
