h2load http://node-1:8080/64mb -p h2c -t 1 -c 8 -m 16 -n 128 -T 30m
starting benchmark...
spawning thread #0: 8 total client(s). 128 total requests
Application protocol: h2c
progress: 9% done
progress: 18% done
progress: 28% done
progress: 37% done
progress: 46% done
progress: 56% done
progress: 65% done
progress: 75% done
progress: 84% done
progress: 93% done

finished in 13.68s, 9.36 req/s, 599.24MB/s
requests: 128 total, 128 started, 128 done, 128 succeeded, 0 failed, 0 errored, 0 timeout
status codes: 128 2xx, 0 3xx, 0 4xx, 0 5xx
traffic: 8594659648 bytes total, 5024 bytes headers (space savings 77.95%), 8589934592 bytes data
                     min         max         mean         sd        +/- sd
time for request:      2.65s      13.64s       9.50s       3.07s    64.06%
time for connect:    35.33ms     35.39ms     35.34ms        20us    87.50%
time to 1st byte:    76.97ms     80.76ms     78.30ms      1.38ms    87.50%
