h2load http://node-0:8080/64mb -p h2c -t 1 -c 1 -m 1 -n 512 -T 30m
starting benchmark...
spawning thread #0: 1 total client(s). 512 total requests
Application protocol: h2c
progress: 9% done
progress: 19% done
progress: 29% done
progress: 39% done
progress: 49% done
progress: 59% done
progress: 69% done
progress: 79% done
progress: 89% done
progress: 99% done

finished in 34.72s, 14.75 req/s, 944.37MB/s
requests: 512 total, 512 started, 512 done, 512 succeeded, 0 failed, 0 errored, 0 timeout
status codes: 512 2xx, 0 3xx, 0 4xx, 0 5xx
traffic: 34378635661 bytes total, 18281 bytes headers (space savings 79.94%), 34359738368 bytes data
                     min         max         mean         sd        +/- sd
time for request:    54.71ms    290.74ms     67.79ms     27.52ms    98.44%
time for connect:      316us       316us       316us         0us   100.00%
time to 1st byte:     1.18ms      1.18ms      1.18ms         0us   100.00%
