h2load http://node-0:8080/1kb -p h2c -t 1 -c 1 -m 4 -n 512 -T 30m
starting benchmark...
spawning thread #0: 1 total client(s). 512 total requests
Application protocol: h2c
progress: 9% done
progress: 19% done
progress: 29% done
progress: 39% done
progress: 49% done
progress: 59% done
progress: 69% done
progress: 79% done
progress: 89% done
progress: 99% done

finished in 58.61ms, 8735.56 req/s, 8.92MB/s
requests: 512 total, 512 started, 512 done, 512 succeeded, 0 failed, 0 errored, 0 timeout
status codes: 512 2xx, 0 3xx, 0 4xx, 0 5xx
traffic: 548457 bytes total, 14917 bytes headers (space savings 82.86%), 524288 bytes data
                     min         max         mean         sd        +/- sd
time for request:      207us      4.59ms       434us       398us    97.66%
time for connect:      256us       256us       256us         0us   100.00%
time to 1st byte:     1.92ms      1.92ms      1.92ms         0us   100.00%
