h2load http://node-0:8080/128kb -p h2c -t 1 -c 1 -m 1 -n 512 -T 30m
starting benchmark...
spawning thread #0: 1 total client(s). 512 total requests
Application protocol: h2c
progress: 9% done
progress: 19% done
progress: 29% done
progress: 39% done
progress: 49% done
progress: 59% done
progress: 69% done
progress: 79% done
progress: 89% done
progress: 99% done

finished in 1.92s, 266.50 req/s, 33.34MB/s
requests: 512 total, 512 started, 512 done, 512 succeeded, 0 failed, 0 errored, 0 timeout
status codes: 512 2xx, 0 3xx, 0 4xx, 0 5xx
traffic: 67166358 bytes total, 15986 bytes headers (space savings 82.06%), 67108864 bytes data
                     min         max         mean         sd        +/- sd
time for request:      452us    408.03ms      3.74ms     28.19ms    98.63%
time for connect:      308us       308us       308us         0us   100.00%
time to 1st byte:      982us       982us       982us         0us   100.00%
