h2load http://node-0:8080/8mb -p h2c -t 1 -c 1 -m 32 -n 512 -T 30m
starting benchmark...
spawning thread #0: 1 total client(s). 512 total requests
Application protocol: h2c
progress: 9% done
progress: 19% done
progress: 29% done
progress: 39% done
progress: 49% done
progress: 59% done
progress: 69% done
progress: 79% done
progress: 89% done
progress: 99% done

finished in 11.34s, 45.14 req/s, 361.29MB/s
requests: 512 total, 512 started, 512 done, 512 succeeded, 0 failed, 0 errored, 0 timeout
status codes: 512 2xx, 0 3xx, 0 4xx, 0 5xx
traffic: 4297348965 bytes total, 17729 bytes headers (space savings 80.33%), 4294967296 bytes data
                     min         max         mean         sd        +/- sd
time for request:    94.81ms       1.29s    698.28ms    200.10ms    66.02%
time for connect:      266us       266us       266us         0us   100.00%
time to 1st byte:    11.09ms     11.09ms     11.09ms         0us   100.00%
