h2load http://node-1:8080/8mb -p h2c -t 1 -c 8 -m 16 -n 128 -T 30m
starting benchmark...
spawning thread #0: 8 total client(s). 128 total requests
Application protocol: h2c
progress: 9% done
progress: 18% done
progress: 28% done
progress: 37% done
progress: 46% done
progress: 56% done
progress: 65% done
progress: 75% done
progress: 84% done
progress: 93% done

finished in 985.94ms, 129.83 req/s, 1.01GB/s
requests: 128 total, 128 started, 128 done, 128 succeeded, 0 failed, 0 errored, 0 timeout
status codes: 128 2xx, 0 3xx, 0 4xx, 0 5xx
traffic: 1074337984 bytes total, 4896 bytes headers (space savings 78.27%), 1073741824 bytes data
                     min         max         mean         sd        +/- sd
time for request:   123.93ms    984.13ms    690.99ms    212.05ms    75.00%
time for connect:      281us       399us       331us        33us    62.50%
time to 1st byte:     6.23ms    207.33ms     33.81ms     65.65ms    87.50%
