h2load http://node-1:8080/64mb -p h2c -t 1 -c 2 -m 64 -n 128 -T 30m
starting benchmark...
spawning thread #0: 2 total client(s). 128 total requests
Application protocol: h2c
progress: 9% done
progress: 18% done
progress: 28% done
progress: 37% done
progress: 46% done
progress: 56% done
progress: 65% done
progress: 75% done
progress: 84% done
progress: 93% done

finished in 14.90s, 8.59 req/s, 550.28MB/s
requests: 128 total, 128 started, 128 done, 128 succeeded, 0 failed, 0 errored, 0 timeout
status codes: 128 2xx, 0 3xx, 0 4xx, 0 5xx
traffic: 8594659096 bytes total, 4616 bytes headers (space savings 79.74%), 8589934592 bytes data
                     min         max         mean         sd        +/- sd
time for request:     14.53s      14.89s      14.71s    182.52ms    50.78%
time for connect:      251us       272us       261us        10us    50.00%
time to 1st byte:    18.55ms     19.85ms     19.20ms       652us   100.00%
