h2load http://node-0:8080/8mb -p http/1.1 -t 1 -c 2 -m 1 -n 512 -T 30m
starting benchmark...
spawning thread #0: 2 total client(s). 512 total requests
Application protocol: http/1.1
progress: 9% done
progress: 19% done
progress: 29% done
progress: 39% done
progress: 49% done
progress: 59% done
progress: 69% done
progress: 79% done
progress: 89% done
progress: 99% done

finished in 42.42s, 12.07 req/s, 96.55MB/s
requests: 512 total, 512 started, 512 done, 512 succeeded, 0 failed, 0 errored, 0 timeout
status codes: 512 2xx, 0 3xx, 0 4xx, 0 5xx
traffic: 4295058544 bytes total, 85052 bytes headers (space savings 0.00%), 4294967296 bytes data
                     min         max         mean         sd        +/- sd
time for request:   155.66ms    555.88ms    164.85ms     48.50ms    98.05%
time for connect:    50.19ms     50.22ms     50.20ms        16us    50.00%
time to 1st byte:   100.64ms    100.67ms    100.66ms        15us   100.00%
