h2load http://node-0:8080/1mb -p http/1.1 -t 1 -c 512 -m 1 -n 512 -T 30m
starting benchmark...
spawning thread #0: 512 total client(s). 512 total requests
Application protocol: http/1.1
progress: 9% done
progress: 19% done
progress: 29% done
progress: 39% done
progress: 49% done
progress: 59% done
progress: 69% done
progress: 79% done
progress: 99% done

finished in 16.26s, 27.43 req/s, 27.43MB/s
requests: 512 total, 512 started, 512 done, 446 succeeded, 66 failed, 66 errored, 0 timeout
status codes: 446 2xx, 0 3xx, 0 4xx, 0 5xx
traffic: 467758110 bytes total, 74036 bytes headers (space savings 0.00%), 467664896 bytes data
                     min         max         mean         sd        +/- sd
time for request:   301.28ms       8.43s       1.30s       1.14s    88.79%
time for connect:    50.15ms     51.31ms     50.64ms       267us    64.13%
time to 1st byte:   100.86ms       8.18s    775.62ms    905.36ms    91.70%
