h2load http://node-0:8080/128kb -p http/1.1 -t 1 -c 512 -m 1 -n 512 -T 30m
starting benchmark...
spawning thread #0: 512 total client(s). 512 total requests
Application protocol: http/1.1
progress: 9% done
progress: 19% done
progress: 29% done
progress: 39% done
progress: 49% done
progress: 59% done
progress: 69% done
progress: 79% done

finished in 8.18s, 56.50 req/s, 7.07MB/s
requests: 512 total, 512 started, 512 done, 462 succeeded, 50 failed, 50 errored, 0 timeout
status codes: 462 2xx, 0 3xx, 0 4xx, 0 5xx
traffic: 60650898 bytes total, 75768 bytes headers (space savings 0.00%), 60555264 bytes data
                     min         max         mean         sd        +/- sd
time for request:   150.73ms       4.19s    654.14ms    818.77ms    91.34%
time for connect:    50.19ms     51.74ms     50.90ms       382us    59.96%
time to 1st byte:   101.02ms       4.14s    542.87ms    838.63ms    91.34%
