h2load http://node-0:8080/16kb -p http/1.1 -t 1 -c 512 -m 1 -n 512 -T 30m
starting benchmark...
spawning thread #0: 512 total client(s). 512 total requests
Application protocol: http/1.1
progress: 9% done
progress: 19% done
progress: 29% done
progress: 39% done
progress: 49% done
progress: 59% done
progress: 69% done
progress: 79% done
progress: 89% done

finished in 8.18s, 56.47 req/s, 914.88KB/s
requests: 512 total, 512 started, 512 done, 462 succeeded, 50 failed, 50 errored, 0 timeout
status codes: 462 2xx, 0 3xx, 0 4xx, 0 5xx
traffic: 7664118 bytes total, 74844 bytes headers (space savings 0.00%), 7569408 bytes data
                     min         max         mean         sd        +/- sd
time for request:    50.48ms       4.13s    531.27ms    807.21ms    89.18%
time for connect:    50.17ms     50.84ms     50.44ms       157us    62.99%
time to 1st byte:   101.02ms       4.13s    570.57ms    811.31ms    89.18%
