h2load http://node-0:8080/64mb -p http/1.1 -t 1 -c 64 -m 1 -n 512 -T 30m
starting benchmark...
spawning thread #0: 64 total client(s). 512 total requests
Application protocol: http/1.1
progress: 9% done
progress: 19% done
progress: 29% done
progress: 39% done
progress: 49% done
progress: 59% done
progress: 69% done
progress: 79% done
progress: 89% done
progress: 99% done

finished in 29.38s, 17.43 req/s, 1.09GB/s
requests: 512 total, 512 started, 512 done, 512 succeeded, 0 failed, 0 errored, 0 timeout
status codes: 512 2xx, 0 3xx, 0 4xx, 0 5xx
traffic: 34359846400 bytes total, 86016 bytes headers (space savings 0.00%), 34359738368 bytes data
                     min         max         mean         sd        +/- sd
time for request:      1.41s       5.95s       3.44s    428.12ms    85.74%
time for connect:    50.17ms     50.41ms     50.27ms        53us    68.75%
time to 1st byte:   101.16ms       2.37s    405.41ms    515.08ms    89.06%
