h2load http://node-0:8080/16kb -p http/1.1 -t 1 -c 512 -m 1 -n 512 -T 30m
starting benchmark...
spawning thread #0: 512 total client(s). 512 total requests
Application protocol: http/1.1
progress: 9% done
progress: 19% done
progress: 29% done
progress: 39% done
progress: 49% done
progress: 59% done
progress: 69% done
progress: 79% done
progress: 99% done

finished in 13.86s, 33.26 req/s, 538.82KB/s
requests: 512 total, 512 started, 512 done, 461 succeeded, 51 failed, 51 errored, 0 timeout
status codes: 461 2xx, 0 3xx, 0 4xx, 0 5xx
traffic: 7647529 bytes total, 74682 bytes headers (space savings 0.00%), 7553024 bytes data
                     min         max         mean         sd        +/- sd
time for request:     5.21ms      13.85s    716.22ms       1.70s    94.14%
time for connect:     5.32ms      7.74ms      6.46ms       588us    65.29%
time to 1st byte:    13.78ms      13.85s    721.92ms       1.70s    94.14%
