h2load http://node-0:8080/1kb -p http/1.1 -t 1 -c 512 -m 1 -n 512 -T 30m
starting benchmark...
spawning thread #0: 512 total client(s). 512 total requests
Application protocol: http/1.1
progress: 9% done
progress: 19% done
progress: 29% done
progress: 39% done
progress: 49% done
progress: 59% done
progress: 69% done
progress: 79% done
progress: 89% done
progress: 99% done

finished in 6.55s, 77.55 req/s, 92.93KB/s
requests: 512 total, 512 started, 512 done, 508 succeeded, 4 failed, 4 errored, 0 timeout
status codes: 508 2xx, 0 3xx, 0 4xx, 0 5xx
traffic: 623316 bytes total, 81280 bytes headers (space savings 0.00%), 520192 bytes data
                     min         max         mean         sd        +/- sd
time for request:      516us       6.54s    349.23ms    672.96ms    91.14%
time for connect:     2.47ms    999.66ms    221.52ms    410.85ms    78.15%
time to 1st byte:     7.18ms       6.54s    578.61ms    742.24ms    86.61%
