h2load http://node-0:8080/8mb -p http/1.1 -t 1 -c 8 -m 1 -n 512 -T 30m
starting benchmark...
spawning thread #0: 8 total client(s). 512 total requests
Application protocol: http/1.1
progress: 9% done
progress: 19% done
progress: 29% done
progress: 39% done
progress: 49% done
progress: 59% done
progress: 69% done
progress: 79% done
progress: 89% done
progress: 99% done

finished in 4.95s, 103.48 req/s, 827.89MB/s
requests: 512 total, 512 started, 512 done, 512 succeeded, 0 failed, 0 errored, 0 timeout
status codes: 512 2xx, 0 3xx, 0 4xx, 0 5xx
traffic: 4295074304 bytes total, 84992 bytes headers (space savings 0.00%), 4294967296 bytes data
                     min         max         mean         sd        +/- sd
time for request:    17.65ms    139.46ms     65.52ms     28.18ms    64.84%
time for connect:    10.25ms     10.31ms     10.27ms        18us    62.50%
time to 1st byte:    11.13ms     11.33ms     11.19ms        64us    75.00%
