h2load http://node-0:8080/1kb -p http/1.1 -t 1 -c 32 -m 1 -n 512 -T 30m
starting benchmark...
spawning thread #0: 32 total client(s). 512 total requests
Application protocol: http/1.1
progress: 9% done
progress: 19% done
progress: 29% done
progress: 39% done
progress: 49% done
progress: 59% done
progress: 69% done
progress: 79% done
progress: 89% done
progress: 99% done

finished in 411.73ms, 1243.53 req/s, 1.46MB/s
requests: 512 total, 512 started, 512 done, 512 succeeded, 0 failed, 0 errored, 0 timeout
status codes: 512 2xx, 0 3xx, 0 4xx, 0 5xx
traffic: 628224 bytes total, 81920 bytes headers (space savings 0.00%), 524288 bytes data
                     min         max         mean         sd        +/- sd
time for request:      171us    405.61ms      7.04ms     40.36ms    97.07%
time for connect:      194us       537us       334us        95us    56.25%
time to 1st byte:     1.07ms    405.76ms    108.13ms    123.31ms    93.75%
