h2load http://node-0:8080/64mb -p http/1.1 -t 1 -c 8 -m 1 -n 512 -T 30m
starting benchmark...
spawning thread #0: 8 total client(s). 512 total requests
Application protocol: http/1.1
progress: 9% done
progress: 19% done
progress: 29% done
progress: 39% done
progress: 49% done
progress: 59% done
progress: 69% done
progress: 79% done
progress: 89% done
progress: 99% done

finished in 40.37s, 12.68 req/s, 811.61MB/s
requests: 512 total, 512 started, 512 done, 512 succeeded, 0 failed, 0 errored, 0 timeout
status codes: 512 2xx, 0 3xx, 0 4xx, 0 5xx
traffic: 34359846400 bytes total, 86016 bytes headers (space savings 0.00%), 34359738368 bytes data
                     min         max         mean         sd        +/- sd
time for request:   182.96ms    901.56ms    559.74ms    192.25ms    70.31%
time for connect:     1.03ms      1.14ms      1.07ms        32us    75.00%
time to 1st byte:     1.88ms      2.29ms      2.04ms       147us    62.50%
