h2load http://node-0:8080/16kb -p http/1.1 -t 1 -c 16 -m 1 -n 512 -T 30m
starting benchmark...
spawning thread #0: 16 total client(s). 512 total requests
Application protocol: http/1.1
progress: 9% done
progress: 19% done
progress: 29% done
progress: 39% done
progress: 49% done
progress: 59% done
progress: 69% done
progress: 79% done
progress: 89% done
progress: 99% done

finished in 218.85ms, 2339.56 req/s, 37.01MB/s
requests: 512 total, 512 started, 512 done, 512 succeeded, 0 failed, 0 errored, 0 timeout
status codes: 512 2xx, 0 3xx, 0 4xx, 0 5xx
traffic: 8493568 bytes total, 82944 bytes headers (space savings 0.00%), 8388608 bytes data
                     min         max         mean         sd        +/- sd
time for request:      222us    203.89ms      3.18ms     23.62ms    98.63%
time for connect:      165us       318us       218us        40us    62.50%
time to 1st byte:      762us    203.99ms     89.70ms    100.74ms    56.25%
