h2load http://node-1:8080/128kb -p http/1.1 -t 1 -c 128 -m 1 -n 128 -T 30m
starting benchmark...
spawning thread #0: 128 total client(s). 128 total requests
Application protocol: http/1.1
progress: 9% done
progress: 18% done
progress: 28% done
progress: 37% done
progress: 46% done
progress: 56% done
progress: 65% done
progress: 75% done
progress: 84% done
progress: 93% done

finished in 921.96ms, 138.84 req/s, 17.38MB/s
requests: 128 total, 128 started, 128 done, 128 succeeded, 0 failed, 0 errored, 0 timeout
status codes: 128 2xx, 0 3xx, 0 4xx, 0 5xx
traffic: 16803712 bytes total, 20992 bytes headers (space savings 0.00%), 16777216 bytes data
                     min         max         mean         sd        +/- sd
time for request:   142.40ms    883.99ms    299.93ms    205.26ms    74.22%
time for connect:    35.52ms     36.44ms     35.93ms       242us    59.38%
time to 1st byte:    73.21ms    150.81ms     82.13ms     22.09ms    90.63%
