h2load http://node-1:8080/64mb -p http/1.1 -t 1 -c 32 -m 1 -n 128 -T 30m
starting benchmark...
spawning thread #0: 32 total client(s). 128 total requests
Application protocol: http/1.1
progress: 9% done
progress: 18% done
progress: 28% done
progress: 37% done
progress: 46% done
progress: 56% done
progress: 65% done
progress: 75% done
progress: 84% done
progress: 93% done

finished in 21.03s, 6.09 req/s, 389.51MB/s
requests: 128 total, 128 started, 128 done, 128 succeeded, 0 failed, 0 errored, 0 timeout
status codes: 128 2xx, 0 3xx, 0 4xx, 0 5xx
traffic: 8589961600 bytes total, 21504 bytes headers (space savings 0.00%), 8589934592 bytes data
                     min         max         mean         sd        +/- sd
time for request:      1.48s      10.98s       3.63s       1.76s    61.72%
time for connect:    35.26ms     35.60ms     35.39ms        86us    62.50%
time to 1st byte:    71.99ms     73.81ms     72.83ms       454us    68.75%
