h2load http://node-1:8080/1kb -p http/1.1 -t 1 -c 32 -m 1 -n 128 -T 30m
starting benchmark...
spawning thread #0: 32 total client(s). 128 total requests
Application protocol: http/1.1
progress: 9% done
progress: 18% done
progress: 28% done
progress: 37% done
progress: 46% done
progress: 56% done
progress: 65% done
progress: 75% done
progress: 84% done
progress: 93% done

finished in 179.75ms, 712.12 req/s, 853.29KB/s
requests: 128 total, 128 started, 128 done, 128 succeeded, 0 failed, 0 errored, 0 timeout
status codes: 128 2xx, 0 3xx, 0 4xx, 0 5xx
traffic: 157056 bytes total, 20480 bytes headers (space savings 0.00%), 131072 bytes data
                     min         max         mean         sd        +/- sd
time for request:    35.24ms     37.17ms     35.69ms       588us    82.03%
time for connect:    35.21ms     35.53ms     35.36ms        84us    62.50%
time to 1st byte:    71.56ms     72.37ms     72.01ms       282us    46.88%
