h2load http://node-1:8080/64mb -p http/1.1 -t 1 -c 1 -m 1 -n 128 -T 30m
starting benchmark...
spawning thread #0: 1 total client(s). 128 total requests
Application protocol: http/1.1
progress: 9% done
progress: 18% done
progress: 28% done
progress: 37% done
progress: 46% done
progress: 56% done
progress: 65% done
progress: 75% done
progress: 84% done
progress: 93% done

finished in 113.25s, 1.13 req/s, 72.33MB/s
requests: 128 total, 128 started, 128 done, 128 succeeded, 0 failed, 0 errored, 0 timeout
status codes: 128 2xx, 0 3xx, 0 4xx, 0 5xx
traffic: 8589960917 bytes total, 21519 bytes headers (space savings 0.00%), 8589934592 bytes data
                     min         max         mean         sd        +/- sd
time for request:   813.84ms       7.05s    884.21ms    556.48ms    97.66%
time for connect:    35.36ms     35.36ms     35.36ms         0us   100.00%
time to 1st byte:    71.14ms     71.14ms     71.14ms         0us   100.00%
