h2load http://node-1:8080/8mb -p h2c -t 1 -c 1 -m 32 -n 128 -T 30m
starting benchmark...
spawning thread #0: 1 total client(s). 128 total requests
Application protocol: h2c
progress: 9% done
progress: 18% done
progress: 28% done
progress: 37% done
progress: 46% done
progress: 56% done
progress: 65% done
progress: 75% done
progress: 84% done
progress: 93% done

finished in 4.02s, 31.88 req/s, 255.14MB/s
requests: 128 total, 128 started, 128 done, 128 succeeded, 0 failed, 0 errored, 0 timeout
status codes: 128 2xx, 0 3xx, 0 4xx, 0 5xx
traffic: 1074337348 bytes total, 4512 bytes headers (space savings 79.97%), 1073741824 bytes data
                     min         max         mean         sd        +/- sd
time for request:    68.62ms       1.45s    970.45ms    269.37ms    71.88%
time for connect:      299us       299us       299us         0us   100.00%
time to 1st byte:    12.96ms     12.96ms     12.96ms         0us   100.00%
