h2load http://node-1:8080/64mb -p h2c -t 1 -c 1 -m 64 -n 128 -T 30m
starting benchmark...
spawning thread #0: 1 total client(s). 128 total requests
Application protocol: h2c
progress: 9% done
progress: 18% done
progress: 28% done
progress: 37% done
progress: 46% done
progress: 56% done
progress: 65% done
progress: 75% done
progress: 84% done
progress: 93% done

finished in 33.82s, 3.79 req/s, 242.38MB/s
requests: 128 total, 128 started, 128 done, 128 succeeded, 0 failed, 0 errored, 0 timeout
status codes: 128 2xx, 0 3xx, 0 4xx, 0 5xx
traffic: 8594659047 bytes total, 4594 bytes headers (space savings 79.84%), 8589934592 bytes data
                     min         max         mean         sd        +/- sd
time for request:     15.54s      17.02s      16.37s    629.63ms    50.00%
time for connect:      268us       268us       268us         0us   100.00%
time to 1st byte:    26.79ms     26.79ms     26.79ms         0us   100.00%
