h2load http://node-1:8080/8mb -p h2c -t 1 -c 8 -m 16 -n 128 -T 30m
starting benchmark...
spawning thread #0: 8 total client(s). 128 total requests
Application protocol: h2c
progress: 9% done
progress: 18% done
progress: 28% done
progress: 37% done
progress: 46% done
progress: 56% done
progress: 65% done
progress: 75% done
progress: 84% done
progress: 93% done

finished in 3.85s, 33.25 req/s, 266.12MB/s
requests: 128 total, 128 started, 128 done, 128 succeeded, 0 failed, 0 errored, 0 timeout
status codes: 128 2xx, 0 3xx, 0 4xx, 0 5xx
traffic: 1074337984 bytes total, 4896 bytes headers (space savings 78.27%), 1073741824 bytes data
                     min         max         mean         sd        +/- sd
time for request:      1.38s       3.81s       3.38s    470.81ms    85.94%
time for connect:    35.38ms     35.43ms     35.39ms        17us    87.50%
time to 1st byte:    74.50ms     78.97ms     77.39ms      1.34ms    62.50%
