h2load http://node-1:8080/128kb -p h2c -t 1 -c 2 -m 64 -n 128 -T 30m
starting benchmark...
spawning thread #0: 2 total client(s). 128 total requests
Application protocol: h2c
progress: 9% done
progress: 18% done
progress: 28% done
progress: 37% done
progress: 46% done
progress: 56% done
progress: 65% done
progress: 75% done
progress: 84% done
progress: 93% done

finished in 1.30s, 98.51 req/s, 12.32MB/s
requests: 128 total, 128 started, 128 done, 128 succeeded, 0 failed, 0 errored, 0 timeout
status codes: 128 2xx, 0 3xx, 0 4xx, 0 5xx
traffic: 16791760 bytes total, 4104 bytes headers (space savings 81.57%), 16777216 bytes data
                     min         max         mean         sd        +/- sd
time for request:      1.15s       1.26s       1.21s     33.79ms    64.06%
time for connect:    35.40ms     35.41ms     35.41ms         3us    50.00%
time to 1st byte:    97.08ms     99.48ms     98.28ms      1.20ms    50.00%
