h2load http://node-1:8080/128mb -p h2c -t 1 -c 4 -m 32 -n 128 -T 30m
starting benchmark...
spawning thread #0: 4 total client(s). 128 total requests
Application protocol: h2c
progress: 9% done
progress: 18% done
progress: 28% done
progress: 37% done
progress: 46% done
progress: 56% done
progress: 65% done
progress: 75% done
progress: 84% done
progress: 93% done

finished in 52.31s, 2.45 req/s, 313.38MB/s
requests: 128 total, 128 started, 128 done, 128 succeeded, 0 failed, 0 errored, 0 timeout
status codes: 128 2xx, 0 3xx, 0 4xx, 0 5xx
traffic: 17189312560 bytes total, 4752 bytes headers (space savings 79.26%), 17179869184 bytes data
                     min         max         mean         sd        +/- sd
time for request:     52.17s      52.27s      52.21s     41.51ms    75.00%
time for connect:    35.39ms     35.42ms     35.40ms        11us    75.00%
time to 1st byte:    78.24ms     83.08ms     80.83ms      1.85ms    50.00%
