h2load http://node-1:8080/1kb -p h2c -t 1 -c 8 -m 16 -n 128 -T 30m
starting benchmark...
spawning thread #0: 8 total client(s). 128 total requests
Application protocol: h2c
progress: 9% done
progress: 18% done
progress: 28% done
progress: 37% done
progress: 46% done
progress: 56% done
progress: 65% done
progress: 75% done
progress: 84% done
progress: 93% done

finished in 112.82ms, 1134.59 req/s, 1.17MB/s
requests: 128 total, 128 started, 128 done, 128 succeeded, 0 failed, 0 errored, 0 timeout
status codes: 128 2xx, 0 3xx, 0 4xx, 0 5xx
traffic: 137920 bytes total, 4256 bytes headers (space savings 80.44%), 131072 bytes data
                     min         max         mean         sd        +/- sd
time for request:    38.18ms     75.96ms     51.89ms     16.08ms    62.50%
time for connect:    35.30ms     35.35ms     35.31ms        14us    75.00%
time to 1st byte:    73.93ms     76.28ms     75.03ms       794us    50.00%
