h2load http://node-1:8080/16kb -p h2c -t 1 -c 4 -m 32 -n 128 -T 30m
starting benchmark...
spawning thread #0: 4 total client(s). 128 total requests
Application protocol: h2c
progress: 9% done
progress: 18% done
progress: 28% done
progress: 37% done
progress: 46% done
progress: 56% done
progress: 65% done
progress: 75% done
progress: 84% done
progress: 93% done

finished in 259.56ms, 493.14 req/s, 7.73MB/s
requests: 128 total, 128 started, 128 done, 128 succeeded, 0 failed, 0 errored, 0 timeout
status codes: 128 2xx, 0 3xx, 0 4xx, 0 5xx
traffic: 2103712 bytes total, 4112 bytes headers (space savings 81.32%), 2097152 bytes data
                     min         max         mean         sd        +/- sd
time for request:    74.63ms    222.24ms    173.15ms     41.18ms    61.72%
time for connect:    35.33ms     35.36ms     35.34ms        11us    75.00%
time to 1st byte:    75.14ms     81.40ms     76.80ms      2.66ms    75.00%
