h2load http://node-1:8080/64mb -p h2c -t 1 -c 4 -m 32 -n 128 -T 30m
starting benchmark...
spawning thread #0: 4 total client(s). 128 total requests
Application protocol: h2c
progress: 9% done
progress: 18% done
progress: 28% done
progress: 37% done
progress: 46% done
progress: 56% done
progress: 65% done
progress: 75% done
progress: 84% done
progress: 93% done

finished in 26.59s, 4.81 req/s, 308.31MB/s
requests: 128 total, 128 started, 128 done, 128 succeeded, 0 failed, 0 errored, 0 timeout
status codes: 128 2xx, 0 3xx, 0 4xx, 0 5xx
traffic: 8594659304 bytes total, 4752 bytes headers (space savings 79.14%), 8589934592 bytes data
                     min         max         mean         sd        +/- sd
time for request:     26.39s      26.55s      26.50s     63.38ms    75.00%
time for connect:    35.39ms     35.43ms     35.41ms        15us    75.00%
time to 1st byte:    78.68ms     86.62ms     82.70ms      3.87ms    50.00%
