h2load http://node-1:8080/64mb -p h2c -t 1 -c 16 -m 8 -n 128 -T 30m
starting benchmark...
spawning thread #0: 16 total client(s). 128 total requests
Application protocol: h2c
progress: 9% done
progress: 18% done
progress: 28% done
progress: 37% done
progress: 46% done
progress: 56% done
progress: 65% done
progress: 75% done
progress: 84% done
progress: 93% done

finished in 7.34s, 17.44 req/s, 1.09GB/s
requests: 128 total, 128 started, 128 done, 128 succeeded, 0 failed, 0 errored, 0 timeout
status codes: 128 2xx, 0 3xx, 0 4xx, 0 5xx
traffic: 8594660480 bytes total, 5568 bytes headers (space savings 75.56%), 8589934592 bytes data
                     min         max         mean         sd        +/- sd
time for request:   926.78ms       7.34s       4.52s       1.82s    61.72%
time for connect:      222us       326us       269us        27us    68.75%
time to 1st byte:     4.15ms     16.27ms     11.00ms      4.25ms    50.00%
