h2load http://node-0:8080/64mb -p h2c -t 1 -c 4 -m 128 -n 512
starting benchmark...
spawning thread #0: 4 total client(s). 512 total requests
Application protocol: h2c
progress: 9% done
progress: 19% done
progress: 29% done
progress: 39% done
progress: 49% done
progress: 59% done
progress: 69% done
progress: 79% done
progress: 89% done
progress: 99% done

finished in 34.89s, 14.68 req/s, 939.73MB/s
requests: 512 total, 512 started, 512 done, 512 succeeded, 0 failed, 0 errored, 0 timeout
status codes: 512 2xx, 0 3xx, 0 4xx, 0 5xx
traffic: 34378636658 bytes total, 18945 bytes headers (space savings 79.21%), 34359738368 bytes data
                     min         max         mean         sd        +/- sd
time for request:      1.42s      34.89s      19.61s       8.93s    67.58%
time for connect:      373us       466us       408us        37us    75.00%
time to 1st byte:    22.01ms     30.29ms     27.78ms      3.38ms    75.00%
