h2load http://node-0:8080/16kb -p h2c -t 1 -c 2 -m 256 -n 512
starting benchmark...
spawning thread #0: 2 total client(s). 512 total requests
Application protocol: h2c
progress: 9% done
progress: 19% done
progress: 29% done
progress: 39% done
progress: 49% done
progress: 59% done
progress: 69% done
progress: 79% done
progress: 89% done
progress: 99% done

finished in 42.68ms, 11996.81 req/s, 188.02MB/s
requests: 512 total, 512 started, 512 done, 512 succeeded, 0 failed, 0 errored, 0 timeout
status codes: 512 2xx, 0 3xx, 0 4xx, 0 5xx
traffic: 8413904 bytes total, 16008 bytes headers (space savings 81.82%), 8388608 bytes data
                     min         max         mean         sd        +/- sd
time for request:    32.19ms     39.73ms     36.12ms      2.13ms    57.62%
time for connect:      280us       364us       322us        42us   100.00%
time to 1st byte:    32.75ms     35.23ms     33.99ms      1.24ms    50.00%
