h2load http://node-0:8080/128kb -p h2c -t 1 -c 128 -m 4 -n 512
starting benchmark...
spawning thread #0: 128 total client(s). 512 total requests
Application protocol: h2c
progress: 9% done
progress: 19% done
progress: 29% done
progress: 39% done
progress: 49% done
progress: 59% done
progress: 69% done
progress: 79% done
progress: 89% done
progress: 99% done

finished in 420.16ms, 1218.58 req/s, 152.48MB/s
requests: 512 total, 512 started, 512 done, 512 succeeded, 0 failed, 0 errored, 0 timeout
status codes: 512 2xx, 0 3xx, 0 4xx, 0 5xx
traffic: 67179520 bytes total, 24576 bytes headers (space savings 72.41%), 67108864 bytes data
                     min         max         mean         sd        +/- sd
time for request:     4.54ms    411.98ms     61.76ms     88.11ms    86.72%
time for connect:     1.56ms      3.30ms      2.33ms       614us    60.94%
time to 1st byte:     4.94ms    414.71ms     52.22ms     91.71ms    86.72%
