h2load http://node-0:8080/1kb -p h2c -t 1 -c 256 -m 2 -n 512
starting benchmark...
spawning thread #0: 256 total client(s). 512 total requests
Application protocol: h2c
progress: 9% done
progress: 19% done
progress: 29% done
progress: 39% done
progress: 49% done
progress: 59% done
progress: 69% done
progress: 79% done
progress: 89% done
progress: 99% done

finished in 824.46ms, 621.01 req/s, 681.35KB/s
requests: 512 total, 512 started, 512 done, 512 succeeded, 0 failed, 0 errored, 0 timeout
status codes: 512 2xx, 0 3xx, 0 4xx, 0 5xx
traffic: 575232 bytes total, 32512 bytes headers (space savings 62.65%), 524288 bytes data
                     min         max         mean         sd        +/- sd
time for request:     3.44ms    814.28ms     70.71ms    146.22ms    90.23%
time for connect:     3.28ms      7.61ms      4.85ms      1.42ms    68.36%
time to 1st byte:    10.50ms    819.71ms     78.28ms    145.91ms    90.23%
