h2load http://node-0:8080/16kb -p h2c -t 1 -c 4 -m 128 -n 512
starting benchmark...
spawning thread #0: 4 total client(s). 512 total requests
Application protocol: h2c
progress: 9% done
progress: 19% done
progress: 29% done
progress: 39% done
progress: 49% done
progress: 59% done
progress: 69% done
progress: 79% done
progress: 89% done
progress: 99% done

finished in 50.61ms, 10117.38 req/s, 158.56MB/s
requests: 512 total, 512 started, 512 done, 512 succeeded, 0 failed, 0 errored, 0 timeout
status codes: 512 2xx, 0 3xx, 0 4xx, 0 5xx
traffic: 8414112 bytes total, 16144 bytes headers (space savings 81.67%), 8388608 bytes data
                     min         max         mean         sd        +/- sd
time for request:    39.78ms     48.07ms     44.43ms      2.20ms    57.62%
time for connect:      297us       412us       349us        43us    50.00%
time to 1st byte:    40.59ms     44.78ms     42.65ms      1.84ms    50.00%
