h2load http://node-0:8080/128mb -p h2c -t 1 -c 128 -m 4 -n 512
starting benchmark...
spawning thread #0: 128 total client(s). 512 total requests
Application protocol: h2c
progress: 9% done
progress: 19% done
progress: 29% done
progress: 39% done
progress: 49% done
progress: 59% done
progress: 69% done
progress: 79% done
progress: 89% done
progress: 99% done

finished in 55.59s, 9.21 req/s, 1.15GB/s
requests: 512 total, 512 started, 512 done, 512 succeeded, 0 failed, 0 errored, 0 timeout
status codes: 512 2xx, 0 3xx, 0 4xx, 0 5xx
traffic: 68757261312 bytes total, 26624 bytes headers (space savings 70.95%), 68719476736 bytes data
                     min         max         mean         sd        +/- sd
time for request:     13.80s      55.58s      40.72s      13.56s    55.27%
time for connect:     1.63ms      3.80ms      2.67ms       771us    46.88%
time to 1st byte:     5.47ms    430.62ms     48.03ms     74.53ms    89.84%
