h2load http://node-0:8080/128kb -p h2c -t 1 -c 512 -m 1 -n 512
starting benchmark...
spawning thread #0: 512 total client(s). 512 total requests
Application protocol: h2c
progress: 9% done
progress: 19% done
progress: 29% done
progress: 39% done
progress: 49% done
progress: 59% done
progress: 69% done
progress: 79% done
progress: 89% done
progress: 99% done

finished in 26.21s, 19.54 req/s, 2.45MB/s
requests: 512 total, 512 started, 512 done, 512 succeeded, 0 failed, 0 errored, 0 timeout
status codes: 512 2xx, 0 3xx, 0 4xx, 0 5xx
traffic: 67219456 bytes total, 50688 bytes headers (space savings 43.10%), 67108864 bytes data
                     min         max         mean         sd        +/- sd
time for request:      800us      26.19s    817.25ms       2.90s    94.92%
time for connect:     6.26ms       2.00s    216.98ms    418.35ms    79.30%
time to 1st byte:    14.30ms      26.20s       1.03s       2.88s    94.92%
