h2load http://node-0:8080/128mb -p h2c -t 1 -c 2 -m 256 -n 512
starting benchmark...
spawning thread #0: 2 total client(s). 512 total requests
Application protocol: h2c
progress: 9% done
progress: 19% done
progress: 29% done
progress: 39% done
progress: 49% done
progress: 59% done
progress: 69% done
progress: 79% done
progress: 89% done
progress: 99% done

finished in 90.18s, 5.68 req/s, 727.14MB/s
requests: 512 total, 512 started, 512 done, 512 succeeded, 0 failed, 0 errored, 0 timeout
status codes: 512 2xx, 0 3xx, 0 4xx, 0 5xx
traffic: 68757248931 bytes total, 18194 bytes headers (space savings 80.15%), 68719476736 bytes data
                     min         max         mean         sd        +/- sd
time for request:     21.80s      90.18s      54.58s      23.00s    51.56%
time for connect:      285us       344us       314us        29us    50.00%
time to 1st byte:    33.83ms     34.10ms     33.97ms       136us    50.00%
