h2load http://node-0:8080/128kb -p h2c -t 1 -c 8 -m 64 -n 512
starting benchmark...
spawning thread #0: 8 total client(s). 512 total requests
Application protocol: h2c
progress: 9% done
progress: 19% done
progress: 29% done
progress: 39% done
progress: 49% done
progress: 59% done
progress: 69% done
progress: 79% done
progress: 89% done
progress: 99% done

finished in 78.92ms, 6487.66 req/s, 811.66MB/s
requests: 512 total, 512 started, 512 done, 512 succeeded, 0 failed, 0 errored, 0 timeout
status codes: 512 2xx, 0 3xx, 0 4xx, 0 5xx
traffic: 67167040 bytes total, 16416 bytes headers (space savings 81.57%), 67108864 bytes data
                     min         max         mean         sd        +/- sd
time for request:    33.68ms     76.31ms     59.28ms     14.83ms    50.00%
time for connect:      255us       357us       304us        32us    50.00%
time to 1st byte:    20.93ms     48.89ms     34.68ms      9.41ms    62.50%
