h2load http://node-0:8080/8mb -p h2c -t 1 -c 32 -m 16 -n 512
starting benchmark...
spawning thread #0: 32 total client(s). 512 total requests
Application protocol: h2c
progress: 9% done
progress: 19% done
progress: 29% done
progress: 39% done
progress: 49% done
progress: 59% done
progress: 69% done
progress: 79% done
progress: 89% done
progress: 99% done

finished in 3.50s, 146.40 req/s, 1.14GB/s
requests: 512 total, 512 started, 512 done, 512 succeeded, 0 failed, 0 errored, 0 timeout
status codes: 512 2xx, 0 3xx, 0 4xx, 0 5xx
traffic: 4297352649 bytes total, 20297 bytes headers (space savings 77.48%), 4294967296 bytes data
                     min         max         mean         sd        +/- sd
time for request:   454.24ms       3.49s       2.69s    884.52ms    81.25%
time for connect:      478us       584us       508us        23us    62.50%
time to 1st byte:     7.71ms     29.16ms     17.09ms      5.73ms    68.75%
