h2load http://node-1:8080/8mb -p h2c -t 1 -c 1 -m 16 -n 128 -T 30m
starting benchmark...
spawning thread #0: 1 total client(s). 128 total requests
Application protocol: h2c
progress: 9% done
progress: 18% done
progress: 28% done
progress: 37% done
progress: 46% done
progress: 56% done
progress: 65% done
progress: 75% done
progress: 84% done
progress: 93% done

finished in 13.95s, 9.18 req/s, 73.47MB/s
requests: 128 total, 128 started, 128 done, 128 succeeded, 0 failed, 0 errored, 0 timeout
status codes: 128 2xx, 0 3xx, 0 4xx, 0 5xx
traffic: 1074337486 bytes total, 4650 bytes headers (space savings 79.36%), 1073741824 bytes data
                     min         max         mean         sd        +/- sd
time for request:   391.69ms       2.68s       1.71s    450.61ms    81.25%
time for connect:    35.32ms     35.32ms     35.32ms         0us   100.00%
time to 1st byte:    74.98ms     74.98ms     74.98ms         0us   100.00%
