h2load http://node-1:8080/128kb -p h2c -t 1 -c 1 -m 8 -n 128 -T 30m
starting benchmark...
spawning thread #0: 1 total client(s). 128 total requests
Application protocol: h2c
progress: 9% done
progress: 18% done
progress: 28% done
progress: 37% done
progress: 46% done
progress: 56% done
progress: 65% done
progress: 75% done
progress: 84% done
progress: 93% done

finished in 1.03s, 124.84 req/s, 15.62MB/s
requests: 128 total, 128 started, 128 done, 128 succeeded, 0 failed, 0 errored, 0 timeout
status codes: 128 2xx, 0 3xx, 0 4xx, 0 5xx
traffic: 16791679 bytes total, 4059 bytes headers (space savings 81.78%), 16777216 bytes data
                     min         max         mean         sd        +/- sd
time for request:    35.85ms    248.03ms     60.69ms     47.59ms    93.75%
time for connect:    35.31ms     35.31ms     35.31ms         0us   100.00%
time to 1st byte:    71.96ms     71.96ms     71.96ms         0us   100.00%
