h2load http://node-1:8080/8mb -p h2c -t 1 -c 1 -m 8 -n 128 -T 30m
starting benchmark...
spawning thread #0: 1 total client(s). 128 total requests
Application protocol: h2c
progress: 9% done
progress: 18% done
progress: 28% done
progress: 37% done
progress: 46% done
progress: 56% done
progress: 65% done
progress: 75% done
progress: 84% done
progress: 93% done

finished in 13.59s, 9.42 req/s, 75.39MB/s
requests: 128 total, 128 started, 128 done, 128 succeeded, 0 failed, 0 errored, 0 timeout
status codes: 128 2xx, 0 3xx, 0 4xx, 0 5xx
traffic: 1074337555 bytes total, 4719 bytes headers (space savings 79.05%), 1073741824 bytes data
                     min         max         mean         sd        +/- sd
time for request:   470.27ms       3.69s    829.47ms    516.56ms    85.16%
time for connect:    35.35ms     35.35ms     35.35ms         0us   100.00%
time to 1st byte:    74.11ms     74.11ms     74.11ms         0us   100.00%
