h2load http://node-1:8080/128kb -p h2c -t 1 -c 1 -m 1 -n 128 -T 30m
starting benchmark...
spawning thread #0: 1 total client(s). 128 total requests
Application protocol: h2c
progress: 9% done
progress: 18% done
progress: 28% done
progress: 37% done
progress: 46% done
progress: 56% done
progress: 65% done
progress: 75% done
progress: 84% done
progress: 93% done

finished in 4.78s, 26.79 req/s, 3.35MB/s
requests: 128 total, 128 started, 128 done, 128 succeeded, 0 failed, 0 errored, 0 timeout
status codes: 128 2xx, 0 3xx, 0 4xx, 0 5xx
traffic: 16791771 bytes total, 4151 bytes headers (space savings 81.36%), 16777216 bytes data
                     min         max         mean         sd        +/- sd
time for request:    35.78ms    141.08ms     37.03ms      9.73ms    98.44%
time for connect:    35.36ms     35.36ms     35.36ms         0us   100.00%
time to 1st byte:    71.15ms     71.15ms     71.15ms         0us   100.00%
