h2load http://node-1:8080/16kb -p h2c -t 1 -c 2 -m 64 -n 128 -T 30m
starting benchmark...
spawning thread #0: 2 total client(s). 128 total requests
Application protocol: h2c
progress: 9% done
progress: 18% done
progress: 28% done
progress: 37% done
progress: 46% done
progress: 56% done
progress: 65% done
progress: 75% done
progress: 84% done
progress: 93% done

finished in 18.71ms, 6840.90 req/s, 107.21MB/s
requests: 128 total, 128 started, 128 done, 128 succeeded, 0 failed, 0 errored, 0 timeout
status codes: 128 2xx, 0 3xx, 0 4xx, 0 5xx
traffic: 2103504 bytes total, 3976 bytes headers (space savings 81.94%), 2097152 bytes data
                     min         max         mean         sd        +/- sd
time for request:    13.61ms     17.27ms     15.44ms      1.12ms    55.47%
time for connect:      257us       281us       269us        12us   100.00%
time to 1st byte:    13.00ms     14.24ms     14.12ms       123us   100.00%
