h2load http://node-1:8080/1kb -p h2c -t 1 -c 16 -m 8 -n 128 -T 30m
starting benchmark...
spawning thread #0: 16 total client(s). 128 total requests
Application protocol: h2c
progress: 9% done
progress: 18% done
progress: 28% done
progress: 37% done
progress: 46% done
progress: 56% done
progress: 65% done
progress: 75% done
progress: 84% done
progress: 93% done

finished in 7.99ms, 16012.01 req/s, 16.55MB/s
requests: 128 total, 128 started, 128 done, 128 succeeded, 0 failed, 0 errored, 0 timeout
status codes: 128 2xx, 0 3xx, 0 4xx, 0 5xx
traffic: 138752 bytes total, 4800 bytes headers (space savings 77.94%), 131072 bytes data
                     min         max         mean         sd        +/- sd
time for request:     2.59ms      5.29ms      3.95ms       911us    50.78%
time for connect:      307us       466us       360us        37us    75.00%
time to 1st byte:     3.43ms      5.78ms      4.62ms       855us    50.00%
