h2load http://node-1:8080/64mb -p http/1.1 -t 1 -c 64 -m 1 -n 128 -T 30m
starting benchmark...
spawning thread #0: 64 total client(s). 128 total requests
Application protocol: http/1.1
progress: 9% done
progress: 18% done
progress: 28% done
progress: 37% done
progress: 46% done
progress: 56% done
progress: 65% done
progress: 75% done
progress: 84% done
progress: 93% done

finished in 7.46s, 17.02 req/s, 1.06GB/s
requests: 128 total, 128 started, 128 done, 127 succeeded, 1 failed, 1 errored, 0 timeout
status codes: 127 2xx, 0 3xx, 0 4xx, 0 5xx
traffic: 8522852525 bytes total, 21336 bytes headers (space savings 0.00%), 8522825728 bytes data
                     min         max         mean         sd        +/- sd
time for request:   295.92ms       6.86s       2.92s       1.87s    56.69%
time for connect:      367us      1.80ms      1.10ms       403us    59.38%
time to 1st byte:     3.24ms     21.05ms     10.24ms      4.96ms    64.06%
