h2load http://node-1:8080/128mb -p http/1.1 -t 1 -c 64 -m 1 -n 128 -T 30m
starting benchmark...
spawning thread #0: 64 total client(s). 128 total requests
Application protocol: http/1.1
progress: 9% done
progress: 18% done
progress: 28% done
progress: 37% done
progress: 46% done
progress: 56% done
progress: 65% done
progress: 75% done
progress: 84% done
progress: 93% done

finished in 14.61s, 8.76 req/s, 1.10GB/s
requests: 128 total, 128 started, 128 done, 128 succeeded, 0 failed, 0 errored, 0 timeout
status codes: 128 2xx, 0 3xx, 0 4xx, 0 5xx
traffic: 17179896320 bytes total, 21632 bytes headers (space savings 0.00%), 17179869184 bytes data
                     min         max         mean         sd        +/- sd
time for request:      1.19s      13.42s       5.91s       3.49s    66.41%
time for connect:      357us       1.01s     16.76ms    124.73ms    98.44%
time to 1st byte:     3.23ms       1.03s     32.13ms    130.53ms    95.31%
