h2load http://node-1:8080/128mb -p http/1.1 -t 1 -c 32 -m 1 -n 128 -T 30m
starting benchmark...
spawning thread #0: 32 total client(s). 128 total requests
Application protocol: http/1.1
progress: 9% done
progress: 18% done
progress: 28% done
progress: 37% done
progress: 46% done
progress: 56% done
progress: 65% done
progress: 75% done
progress: 84% done
progress: 93% done

finished in 14.61s, 8.76 req/s, 1.10GB/s
requests: 128 total, 128 started, 128 done, 128 succeeded, 0 failed, 0 errored, 0 timeout
status codes: 128 2xx, 0 3xx, 0 4xx, 0 5xx
traffic: 17179896320 bytes total, 21632 bytes headers (space savings 0.00%), 17179869184 bytes data
                     min         max         mean         sd        +/- sd
time for request:   382.56ms       6.84s       3.34s       1.56s    67.19%
time for connect:      258us       1.00s     63.31ms    242.93ms    93.75%
time to 1st byte:     2.10ms       1.01s     68.90ms    243.15ms    93.75%
