h2load http://node-1:8080/64mb -p http/1.1 -t 1 -c 128 -m 1 -n 128 -T 30m
starting benchmark...
spawning thread #0: 128 total client(s). 128 total requests
Application protocol: http/1.1
progress: 9% done
progress: 18% done
progress: 28% done
progress: 37% done
progress: 46% done
progress: 56% done
progress: 65% done
progress: 75% done
progress: 84% done
progress: 93% done

finished in 7.32s, 17.48 req/s, 1.09GB/s
requests: 128 total, 128 started, 128 done, 128 succeeded, 0 failed, 0 errored, 0 timeout
status codes: 128 2xx, 0 3xx, 0 4xx, 0 5xx
traffic: 8589961600 bytes total, 21504 bytes headers (space savings 0.00%), 8589934592 bytes data
                     min         max         mean         sd        +/- sd
time for request:      2.03s       7.32s       5.79s       1.33s    64.84%
time for connect:     1.21ms       1.00s     10.08ms     88.03ms    99.22%
time to 1st byte:     4.85ms       1.02s     29.62ms     95.74ms    96.09%
