h2load http://node-1:8080/128mb -p h2c -t 1 -c 8 -m 16 -n 128 -T 30m
starting benchmark...
spawning thread #0: 8 total client(s). 128 total requests
Application protocol: h2c
progress: 9% done
progress: 18% done
progress: 28% done
progress: 37% done
progress: 46% done
progress: 56% done
progress: 65% done
progress: 75% done
progress: 84% done
progress: 93% done

finished in 28.10s, 4.56 req/s, 583.39MB/s
requests: 128 total, 128 started, 128 done, 128 succeeded, 0 failed, 0 errored, 0 timeout
status codes: 128 2xx, 0 3xx, 0 4xx, 0 5xx
traffic: 17189312841 bytes total, 5024 bytes headers (space savings 78.07%), 17179869184 bytes data
                     min         max         mean         sd        +/- sd
time for request:      5.47s      27.40s      17.46s       6.52s    53.91%
time for connect:    35.35ms       1.03s    159.98ms    329.70ms    87.50%
time to 1st byte:    75.25ms       1.07s    202.27ms    329.02ms    87.50%
