h2load http://node-1:8080/128mb -p h2c -t 1 -c 4 -m 32 -n 128 -T 30m
starting benchmark...
spawning thread #0: 4 total client(s). 128 total requests
Application protocol: h2c
progress: 9% done
progress: 18% done
progress: 28% done
progress: 37% done
progress: 46% done
progress: 56% done
progress: 65% done
progress: 75% done
progress: 84% done
progress: 93% done

finished in 52.30s, 2.45 req/s, 313.45MB/s
requests: 128 total, 128 started, 128 done, 128 succeeded, 0 failed, 0 errored, 0 timeout
status codes: 128 2xx, 0 3xx, 0 4xx, 0 5xx
traffic: 17189312574 bytes total, 4775 bytes headers (space savings 79.16%), 17179869184 bytes data
                     min         max         mean         sd        +/- sd
time for request:     47.28s      52.26s      50.99s       2.02s    77.34%
time for connect:    35.35ms     35.38ms     35.36ms        11us    75.00%
time to 1st byte:    79.60ms     90.72ms     84.70ms      5.07ms    50.00%
