h2load http://node-1:8080/8mb -p h2c -t 1 -c 2 -m 64 -n 128 -T 30m
starting benchmark...
spawning thread #0: 2 total client(s). 128 total requests
Application protocol: h2c
progress: 9% done
progress: 18% done
progress: 28% done
progress: 37% done
progress: 46% done
progress: 56% done
progress: 65% done
progress: 75% done
progress: 84% done
progress: 93% done

finished in 8.31s, 15.41 req/s, 123.34MB/s
requests: 128 total, 128 started, 128 done, 128 succeeded, 0 failed, 0 errored, 0 timeout
status codes: 128 2xx, 0 3xx, 0 4xx, 0 5xx
traffic: 1074337429 bytes total, 4557 bytes headers (space savings 79.77%), 1073741824 bytes data
                     min         max         mean         sd        +/- sd
time for request:      4.89s       8.27s       6.54s       1.51s    51.56%
time for connect:    35.34ms     35.36ms     35.35ms        10us    50.00%
time to 1st byte:    90.24ms     90.80ms     90.52ms       284us    50.00%
