h2load http://node-1:8080/128mb -p h2c -t 1 -c 16 -m 8 -n 128 -T 30m
starting benchmark...
spawning thread #0: 16 total client(s). 128 total requests
Application protocol: h2c
progress: 9% done
progress: 18% done
progress: 28% done
progress: 37% done
progress: 46% done
progress: 56% done
progress: 65% done
progress: 75% done
progress: 84% done
progress: 93% done

finished in 26.83s, 4.77 req/s, 610.98MB/s
requests: 128 total, 128 started, 128 done, 128 succeeded, 0 failed, 0 errored, 0 timeout
status codes: 128 2xx, 0 3xx, 0 4xx, 0 5xx
traffic: 17189313664 bytes total, 5568 bytes headers (space savings 75.70%), 17179869184 bytes data
                     min         max         mean         sd        +/- sd
time for request:      4.01s      26.79s      12.12s       5.87s    61.72%
time for connect:    35.38ms     35.47ms     35.40ms        20us    81.25%
time to 1st byte:    73.31ms    147.64ms     84.83ms     23.69ms    87.50%
