h2load http://node-1:8080/1mb -p h2c -t 1 -c 2 -m 64 -n 128 -T 30m
starting benchmark...
spawning thread #0: 2 total client(s). 128 total requests
Application protocol: h2c
progress: 9% done
progress: 18% done
progress: 28% done
progress: 37% done
progress: 46% done
progress: 56% done
progress: 65% done
progress: 75% done
progress: 84% done
progress: 93% done

finished in 4.92s, 26.00 req/s, 26.02MB/s
requests: 128 total, 128 started, 128 done, 128 succeeded, 0 failed, 0 errored, 0 timeout
status codes: 128 2xx, 0 3xx, 0 4xx, 0 5xx
traffic: 134296912 bytes total, 4232 bytes headers (space savings 81.21%), 134217728 bytes data
                     min         max         mean         sd        +/- sd
time for request:      4.44s       4.89s       4.66s    202.75ms    58.59%
time for connect:    35.37ms     35.38ms     35.38ms         6us    50.00%
time to 1st byte:    86.35ms     99.40ms     92.87ms      6.52ms    50.00%
