h2load http://node-1:8080/16kb -p h2c -t 1 -c 16 -m 8 -n 128 -T 30m
starting benchmark...
spawning thread #0: 16 total client(s). 128 total requests
Application protocol: h2c
progress: 9% done
progress: 18% done
progress: 28% done
progress: 37% done
progress: 46% done
progress: 56% done
progress: 65% done
progress: 75% done
progress: 84% done
progress: 93% done

finished in 9.34ms, 13705.96 req/s, 214.95MB/s
requests: 128 total, 128 started, 128 done, 128 succeeded, 0 failed, 0 errored, 0 timeout
status codes: 128 2xx, 0 3xx, 0 4xx, 0 5xx
traffic: 2104960 bytes total, 4928 bytes headers (space savings 77.62%), 2097152 bytes data
                     min         max         mean         sd        +/- sd
time for request:     2.21ms      6.43ms      4.65ms      1.24ms    52.34%
time for connect:      353us       600us       456us        71us    62.50%
time to 1st byte:     3.36ms      6.95ms      5.26ms      1.24ms    56.25%
