h2load http://node-1:8080/128mb -p h2c -t 1 -c 8 -m 16 -n 128 -T 30m
starting benchmark...
spawning thread #0: 8 total client(s). 128 total requests
Application protocol: h2c
progress: 9% done
progress: 18% done
progress: 28% done
progress: 37% done
progress: 46% done
progress: 56% done
progress: 65% done
progress: 75% done
progress: 84% done
progress: 93% done

finished in 14.63s, 8.75 req/s, 1.09GB/s
requests: 128 total, 128 started, 128 done, 128 succeeded, 0 failed, 0 errored, 0 timeout
status codes: 128 2xx, 0 3xx, 0 4xx, 0 5xx
traffic: 17189312832 bytes total, 5024 bytes headers (space savings 78.07%), 17179869184 bytes data
                     min         max         mean         sd        +/- sd
time for request:      2.05s      14.62s       9.28s       3.77s    59.38%
time for connect:      288us       380us       326us        26us    62.50%
time to 1st byte:     5.94ms     12.69ms      9.09ms      2.78ms    50.00%
