h2load http://node-1:8080/1mb -p h2c -t 1 -c 4 -m 32 -n 128 -T 30m
starting benchmark...
spawning thread #0: 4 total client(s). 128 total requests
Application protocol: h2c
progress: 9% done
progress: 18% done
progress: 28% done
progress: 37% done
progress: 46% done
progress: 56% done
progress: 65% done
progress: 75% done
progress: 84% done
progress: 93% done

finished in 147.15ms, 869.84 req/s, 870.36MB/s
requests: 128 total, 128 started, 128 done, 128 succeeded, 0 failed, 0 errored, 0 timeout
status codes: 128 2xx, 0 3xx, 0 4xx, 0 5xx
traffic: 134297120 bytes total, 4368 bytes headers (space savings 80.61%), 134217728 bytes data
                     min         max         mean         sd        +/- sd
time for request:   124.23ms    145.13ms    131.21ms      7.95ms    75.00%
time for connect:      271us       299us       279us        11us    75.00%
time to 1st byte:     9.18ms     23.65ms     15.87ms      6.49ms    50.00%
