h2load http://node-1:8080/16kb -p h2c -t 1 -c 8 -m 16 -n 128 -T 30m
starting benchmark...
spawning thread #0: 8 total client(s). 128 total requests
Application protocol: h2c
progress: 9% done
progress: 18% done
progress: 28% done
progress: 37% done
progress: 46% done
progress: 56% done
progress: 65% done
progress: 75% done
progress: 84% done
progress: 93% done

finished in 13.31ms, 9613.94 req/s, 150.72MB/s
requests: 128 total, 128 started, 128 done, 128 succeeded, 0 failed, 0 errored, 0 timeout
status codes: 128 2xx, 0 3xx, 0 4xx, 0 5xx
traffic: 2104128 bytes total, 4384 bytes headers (space savings 80.09%), 2097152 bytes data
                     min         max         mean         sd        +/- sd
time for request:     2.95ms     11.08ms      5.98ms      2.67ms    63.28%
time for connect:      284us       404us       332us        35us    62.50%
time to 1st byte:     3.76ms     10.63ms      6.16ms      2.61ms    75.00%
