h2load http://node-1:8080/64mb -p h2c -t 1 -c 2 -m 64 -n 128 -T 30m
starting benchmark...
spawning thread #0: 2 total client(s). 128 total requests
Application protocol: h2c
progress: 9% done
progress: 18% done
progress: 28% done
progress: 37% done
progress: 46% done
progress: 56% done
progress: 65% done
progress: 75% done
progress: 84% done
progress: 93% done

finished in 17.47s, 7.33 req/s, 469.27MB/s
requests: 128 total, 128 started, 128 done, 128 succeeded, 0 failed, 0 errored, 0 timeout
status codes: 128 2xx, 0 3xx, 0 4xx, 0 5xx
traffic: 8594659142 bytes total, 4662 bytes headers (space savings 79.54%), 8589934592 bytes data
                     min         max         mean         sd        +/- sd
time for request:      8.71s      17.46s      13.06s       4.02s    28.13%
time for connect:      284us       308us       296us        12us   100.00%
time to 1st byte:    16.83ms     17.72ms     17.27ms       444us   100.00%
