h2load http://node-1:8080/128mb -p h2c -t 1 -c 2 -m 64 -n 128 -T 30m
starting benchmark...
spawning thread #0: 2 total client(s). 128 total requests
Application protocol: h2c
progress: 9% done
progress: 18% done
progress: 28% done
progress: 37% done
progress: 46% done
progress: 56% done
progress: 65% done
progress: 75% done
progress: 84% done
progress: 93% done

finished in 34.40s, 3.72 req/s, 476.48MB/s
requests: 128 total, 128 started, 128 done, 128 succeeded, 0 failed, 0 errored, 0 timeout
status codes: 128 2xx, 0 3xx, 0 4xx, 0 5xx
traffic: 17189312425 bytes total, 4662 bytes headers (space savings 79.65%), 17179869184 bytes data
                     min         max         mean         sd        +/- sd
time for request:     17.13s      34.40s      25.79s       7.93s    28.13%
time for connect:      280us       305us       292us        12us    50.00%
time to 1st byte:    24.20ms     24.37ms     24.28ms        85us   100.00%
