h2load http://node-1:8080/1mb -p h2c -t 1 -c 8 -m 16 -n 128 -T 30m
starting benchmark...
spawning thread #0: 8 total client(s). 128 total requests
Application protocol: h2c
progress: 9% done
progress: 18% done
progress: 28% done
progress: 37% done
progress: 46% done
progress: 56% done
progress: 65% done
progress: 75% done
progress: 84% done
progress: 93% done

finished in 3.02s, 42.45 req/s, 42.47MB/s
requests: 128 total, 128 started, 128 done, 128 succeeded, 0 failed, 0 errored, 0 timeout
status codes: 128 2xx, 0 3xx, 0 4xx, 0 5xx
traffic: 134297559 bytes total, 4663 bytes headers (space savings 79.30%), 134217728 bytes data
                     min         max         mean         sd        +/- sd
time for request:      1.67s       1.98s       1.78s     93.06ms    76.56%
time for connect:    35.33ms       1.03s    159.00ms    329.80ms    87.50%
time to 1st byte:    81.23ms       1.11s    212.60ms    339.94ms    87.50%
