h2load http://node-1:8080/128kb -p h2c -t 1 -c 4 -m 32 -n 128 -T 30m
starting benchmark...
spawning thread #0: 4 total client(s). 128 total requests
Application protocol: h2c
progress: 9% done
progress: 18% done
progress: 28% done
progress: 37% done
progress: 46% done
progress: 56% done
progress: 65% done
progress: 75% done
progress: 84% done
progress: 93% done

finished in 391.44ms, 327.00 req/s, 40.91MB/s
requests: 128 total, 128 started, 128 done, 128 succeeded, 0 failed, 0 errored, 0 timeout
status codes: 128 2xx, 0 3xx, 0 4xx, 0 5xx
traffic: 16791968 bytes total, 4240 bytes headers (space savings 80.96%), 16777216 bytes data
                     min         max         mean         sd        +/- sd
time for request:   328.97ms    354.40ms    343.23ms     11.14ms    49.22%
time for connect:    35.34ms     35.38ms     35.35ms        17us    75.00%
time to 1st byte:    81.33ms     82.64ms     82.11ms       519us    50.00%
