h2load http://node-1:8080/128mb -p h2c -t 1 -c 2 -m 64 -n 128 -T 30m
starting benchmark...
spawning thread #0: 2 total client(s). 128 total requests
Application protocol: h2c
progress: 9% done
progress: 18% done
progress: 28% done
progress: 37% done
progress: 46% done
progress: 56% done
progress: 65% done
progress: 75% done
progress: 84% done
progress: 93% done

finished in 102.34s, 1.25 req/s, 160.18MB/s
requests: 128 total, 128 started, 128 done, 128 succeeded, 0 failed, 0 errored, 0 timeout
status codes: 128 2xx, 0 3xx, 0 4xx, 0 5xx
traffic: 17189312352 bytes total, 4616 bytes headers (space savings 79.85%), 17179869184 bytes data
                     min         max         mean         sd        +/- sd
time for request:    102.27s     102.30s     102.28s     15.24ms    52.34%
time for connect:    35.33ms     35.40ms     35.36ms        30us    50.00%
time to 1st byte:    89.11ms     89.20ms     89.15ms        42us   100.00%
