h2load http://node-1:8080/1kb -p h2c -t 1 -c 8 -m 16 -n 128 -T 30m
starting benchmark...
spawning thread #0: 8 total client(s). 128 total requests
Application protocol: h2c
progress: 9% done
progress: 18% done
progress: 28% done
progress: 37% done
progress: 46% done
progress: 56% done
progress: 65% done
progress: 75% done
progress: 84% done
progress: 93% done

finished in 112.30ms, 1139.80 req/s, 1.17MB/s
requests: 128 total, 128 started, 128 done, 128 succeeded, 0 failed, 0 errored, 0 timeout
status codes: 128 2xx, 0 3xx, 0 4xx, 0 5xx
traffic: 137920 bytes total, 4256 bytes headers (space savings 80.44%), 131072 bytes data
                     min         max         mean         sd        +/- sd
time for request:    38.44ms     75.78ms     52.22ms     15.99ms    62.50%
time for connect:    35.35ms     35.40ms     35.37ms        15us    87.50%
time to 1st byte:    74.26ms     76.26ms     75.49ms       582us    62.50%
