h2load http://node-1:8080/1kb -p h2c -t 1 -c 16 -m 8 -n 128 -T 30m
starting benchmark...
spawning thread #0: 16 total client(s). 128 total requests
Application protocol: h2c
progress: 9% done
progress: 18% done
progress: 28% done
progress: 37% done
progress: 46% done
progress: 56% done
progress: 65% done
progress: 75% done
progress: 84% done
progress: 93% done

finished in 307.98ms, 415.61 req/s, 439.96KB/s
requests: 128 total, 128 started, 128 done, 128 succeeded, 0 failed, 0 errored, 0 timeout
status codes: 128 2xx, 0 3xx, 0 4xx, 0 5xx
traffic: 138752 bytes total, 4800 bytes headers (space savings 77.94%), 131072 bytes data
                     min         max         mean         sd        +/- sd
time for request:    37.95ms    270.90ms     53.87ms     56.04ms    93.75%
time for connect:    35.39ms     35.51ms     35.43ms        28us    75.00%
time to 1st byte:    73.65ms    306.38ms     89.59ms     55.98ms    93.75%
