h2load http://node-1:8080/128kb -p h2c -t 1 -c 8 -m 16 -n 128 -T 30m
starting benchmark...
spawning thread #0: 8 total client(s). 128 total requests
Application protocol: h2c
progress: 9% done
progress: 18% done
progress: 28% done
progress: 37% done
progress: 46% done
progress: 56% done
progress: 65% done
progress: 75% done
progress: 84% done
progress: 93% done

finished in 1.39s, 92.32 req/s, 11.55MB/s
requests: 128 total, 128 started, 128 done, 128 succeeded, 0 failed, 0 errored, 0 timeout
status codes: 128 2xx, 0 3xx, 0 4xx, 0 5xx
traffic: 16792384 bytes total, 4512 bytes headers (space savings 79.74%), 16777216 bytes data
                     min         max         mean         sd        +/- sd
time for request:   287.71ms    352.86ms    307.02ms     21.89ms    87.50%
time for connect:    35.37ms       1.03s    159.98ms    329.64ms    87.50%
time to 1st byte:    76.10ms       1.07s    202.45ms    328.87ms    87.50%
