h2load http://node-1:8080/64mb -p http/1.1 -t 1 -c 16 -m 1 -n 128 -T 30m
starting benchmark...
spawning thread #0: 16 total client(s). 128 total requests
Application protocol: http/1.1
progress: 9% done
progress: 18% done
progress: 28% done
progress: 37% done
progress: 46% done
progress: 56% done
progress: 65% done
progress: 75% done
progress: 84% done
progress: 93% done

finished in 7.33s, 17.46 req/s, 1.09GB/s
requests: 128 total, 128 started, 128 done, 128 succeeded, 0 failed, 0 errored, 0 timeout
status codes: 128 2xx, 0 3xx, 0 4xx, 0 5xx
traffic: 8589961600 bytes total, 21504 bytes headers (space savings 0.00%), 8589934592 bytes data
                     min         max         mean         sd        +/- sd
time for request:   122.17ms       2.25s    834.14ms    454.35ms    72.66%
time for connect:      198us       618us       421us        96us    81.25%
time to 1st byte:     2.47ms      6.35ms      4.44ms      1.27ms    56.25%
