h2load http://node-1:8080/64mb -p http/1.1 -t 1 -c 4 -m 1 -n 128 -T 30m
starting benchmark...
spawning thread #0: 4 total client(s). 128 total requests
Application protocol: http/1.1
progress: 9% done
progress: 18% done
progress: 28% done
progress: 37% done
progress: 46% done
progress: 56% done
progress: 65% done
progress: 75% done
progress: 84% done
progress: 93% done

finished in 7.32s, 17.49 req/s, 1.09GB/s
requests: 128 total, 128 started, 128 done, 128 succeeded, 0 failed, 0 errored, 0 timeout
status codes: 128 2xx, 0 3xx, 0 4xx, 0 5xx
traffic: 8589961600 bytes total, 21504 bytes headers (space savings 0.00%), 8589934592 bytes data
                     min         max         mean         sd        +/- sd
time for request:   135.93ms    263.88ms    226.54ms     13.87ms    91.41%
time for connect:      175us       263us       206us        33us    75.00%
time to 1st byte:      983us      1.06ms      1.01ms        30us    75.00%
