h2load http://node-0:8080/1mb -p h2c -t 1 -c 1 -m 2 -n 512 -T 30m
starting benchmark...
spawning thread #0: 1 total client(s). 512 total requests
Application protocol: h2c
progress: 9% done
progress: 19% done
progress: 29% done
progress: 39% done
progress: 49% done
progress: 59% done
progress: 69% done
progress: 79% done
progress: 89% done
progress: 99% done

finished in 986.60ms, 518.95 req/s, 519.26MB/s
requests: 512 total, 512 started, 512 done, 512 succeeded, 0 failed, 0 errored, 0 timeout
status codes: 512 2xx, 0 3xx, 0 4xx, 0 5xx
traffic: 537187456 bytes total, 16988 bytes headers (space savings 81.15%), 536870912 bytes data
                     min         max         mean         sd        +/- sd
time for request:     3.12ms     16.93ms      3.83ms       998us    97.85%
time for connect:     1.12ms      1.12ms      1.12ms         0us   100.00%
time to 1st byte:     2.68ms      2.68ms      2.68ms         0us   100.00%
