h2load http://node-0:8080/128mb -p h2c -t 1 -c 1 -m 1 -n 512 -T 30m
starting benchmark...
spawning thread #0: 1 total client(s). 512 total requests
Application protocol: h2c
progress: 9% done
progress: 19% done
progress: 29% done
progress: 39% done
progress: 49% done
progress: 59% done
progress: 69% done
progress: 79% done
progress: 89% done
progress: 99% done

finished in 953.36s, 0.54 req/s, 68.78MB/s
requests: 512 total, 512 started, 512 done, 512 succeeded, 0 failed, 0 errored, 0 timeout
status codes: 512 2xx, 0 3xx, 0 4xx, 0 5xx
traffic: 68757258332 bytes total, 28216 bytes headers (space savings 69.21%), 68719476736 bytes data
                     min         max         mean         sd        +/- sd
time for request:   147.79ms       2.54s       1.86s    814.20ms    81.45%
time for connect:      290us       290us       290us         0us   100.00%
time to 1st byte:     1.04ms      1.04ms      1.04ms         0us   100.00%
