h2load http://node-1:8080/1mb -p h2c -t 1 -c 4 -m 32 -n 128 -T 30m
starting benchmark...
spawning thread #0: 4 total client(s). 128 total requests
Application protocol: h2c
progress: 9% done
progress: 18% done
progress: 28% done
progress: 37% done
progress: 46% done
progress: 56% done
progress: 65% done
progress: 75% done
progress: 84% done
progress: 93% done

finished in 1.90s, 67.26 req/s, 67.30MB/s
requests: 128 total, 128 started, 128 done, 128 succeeded, 0 failed, 0 errored, 0 timeout
status codes: 128 2xx, 0 3xx, 0 4xx, 0 5xx
traffic: 134297120 bytes total, 4368 bytes headers (space savings 80.61%), 134217728 bytes data
                     min         max         mean         sd        +/- sd
time for request:      1.80s       1.87s       1.83s     13.76ms    74.22%
time for connect:    35.31ms     35.34ms     35.32ms        10us    75.00%
time to 1st byte:    79.20ms     90.89ms     83.56ms      4.40ms    75.00%
