h2load http://node-1:8080/128kb -p h2c -t 1 -c 2 -m 64 -n 128 -T 30m
starting benchmark...
spawning thread #0: 2 total client(s). 128 total requests
Application protocol: h2c
progress: 9% done
progress: 18% done
progress: 28% done
progress: 37% done
progress: 46% done
progress: 56% done
progress: 65% done
progress: 75% done
progress: 84% done
progress: 93% done

finished in 1.34s, 95.85 req/s, 11.99MB/s
requests: 128 total, 128 started, 128 done, 128 succeeded, 0 failed, 0 errored, 0 timeout
status codes: 128 2xx, 0 3xx, 0 4xx, 0 5xx
traffic: 16791760 bytes total, 4104 bytes headers (space savings 81.57%), 16777216 bytes data
                     min         max         mean         sd        +/- sd
time for request:      1.18s       1.30s       1.25s     34.78ms    60.94%
time for connect:    35.36ms     35.37ms     35.37ms         5us    50.00%
time to 1st byte:    92.70ms     99.73ms     96.22ms      3.52ms   100.00%
