h2load http://node-1:8080/64mb -p h2c -t 1 -c 8 -m 16 -n 128 -T 30m
starting benchmark...
spawning thread #0: 8 total client(s). 128 total requests
Application protocol: h2c
progress: 9% done
progress: 18% done
progress: 28% done
progress: 37% done
progress: 46% done
progress: 56% done
progress: 65% done
progress: 75% done
progress: 84% done
progress: 93% done

finished in 13.72s, 9.33 req/s, 597.45MB/s
requests: 128 total, 128 started, 128 done, 128 succeeded, 0 failed, 0 errored, 0 timeout
status codes: 128 2xx, 0 3xx, 0 4xx, 0 5xx
traffic: 8594659648 bytes total, 5024 bytes headers (space savings 77.95%), 8589934592 bytes data
                     min         max         mean         sd        +/- sd
time for request:      2.36s      13.68s       9.66s       3.36s    57.03%
time for connect:    35.33ms     35.39ms     35.34ms        20us    87.50%
time to 1st byte:    75.53ms     83.27ms     79.13ms      2.40ms    62.50%
