h2load http://node-0:8080/128mb -p h2c -t 1 -c 1 -m 64 -n 512
starting benchmark...
spawning thread #0: 1 total client(s). 512 total requests
Application protocol: h2c
progress: 9% done
progress: 19% done
progress: 29% done
progress: 39% done
progress: 49% done
progress: 59% done
progress: 69% done
progress: 79% done
progress: 89% done
progress: 99% done

finished in 183.75s, 2.79 req/s, 356.85MB/s
requests: 512 total, 512 started, 512 done, 512 succeeded, 0 failed, 0 errored, 0 timeout
status codes: 512 2xx, 0 3xx, 0 4xx, 0 5xx
traffic: 68757249552 bytes total, 18527 bytes headers (space savings 79.78%), 68719476736 bytes data
                     min         max         mean         sd        +/- sd
time for request:      8.98s      26.89s      22.96s       1.49s    91.80%
time for connect:      271us       271us       271us         0us   100.00%
time to 1st byte:    29.35ms     29.35ms     29.35ms         0us   100.00%
