h2load http://node-0:8080/128mb -p h2c -t 1 -c 1 -m 128 -n 512
starting benchmark...
spawning thread #0: 1 total client(s). 512 total requests
Application protocol: h2c
progress: 9% done
progress: 19% done
progress: 29% done
progress: 39% done
progress: 49% done
progress: 59% done
progress: 69% done
progress: 79% done
progress: 89% done
progress: 99% done

finished in 183.61s, 2.79 req/s, 357.12MB/s
requests: 512 total, 512 started, 512 done, 512 succeeded, 0 failed, 0 errored, 0 timeout
status codes: 512 2xx, 0 3xx, 0 4xx, 0 5xx
traffic: 68757249111 bytes total, 18383 bytes headers (space savings 79.94%), 68719476736 bytes data
                     min         max         mean         sd        +/- sd
time for request:     22.14s      48.33s      42.61s       8.56s    82.42%
time for connect:      318us       318us       318us         0us   100.00%
time to 1st byte:    21.05ms     21.05ms     21.05ms         0us   100.00%
