h2load http://node-0:8080/64mb -p h2c -t 1 -c 1 -m 256 -n 512
starting benchmark...
spawning thread #0: 1 total client(s). 512 total requests
Application protocol: h2c
progress: 9% done
progress: 19% done
progress: 29% done
progress: 39% done
progress: 49% done
progress: 59% done
progress: 69% done
progress: 79% done
progress: 89% done
progress: 99% done

finished in 88.49s, 5.79 req/s, 370.51MB/s
requests: 512 total, 512 started, 512 done, 512 succeeded, 0 failed, 0 errored, 0 timeout
status codes: 512 2xx, 0 3xx, 0 4xx, 0 5xx
traffic: 34378635379 bytes total, 17639 bytes headers (space savings 80.65%), 34359738368 bytes data
                     min         max         mean         sd        +/- sd
time for request:     10.98s      45.97s      35.76s      12.34s    74.22%
time for connect:      308us       308us       308us         0us   100.00%
time to 1st byte:    17.33ms     17.33ms     17.33ms         0us   100.00%
