h2load http://node-0:8080/64mb -p h2c -t 1 -c 1 -m 32 -n 512
starting benchmark...
spawning thread #0: 1 total client(s). 512 total requests
Application protocol: h2c
progress: 9% done
progress: 19% done
progress: 29% done
progress: 39% done
progress: 49% done
progress: 59% done
progress: 69% done
progress: 79% done
progress: 89% done
progress: 99% done

finished in 86.92s, 5.89 req/s, 377.21MB/s
requests: 512 total, 512 started, 512 done, 512 succeeded, 0 failed, 0 errored, 0 timeout
status codes: 512 2xx, 0 3xx, 0 4xx, 0 5xx
traffic: 34378636227 bytes total, 18460 bytes headers (space savings 79.74%), 34359738368 bytes data
                     min         max         mean         sd        +/- sd
time for request:   187.31ms      10.89s       5.41s       1.07s    89.84%
time for connect:      265us       265us       265us         0us   100.00%
time to 1st byte:     7.98ms      7.98ms      7.98ms         0us   100.00%
