h2load http://node-0:8080/64mb -p h2c -t 1 -c 1 -m 128 -n 512
starting benchmark...
spawning thread #0: 1 total client(s). 512 total requests
Application protocol: h2c
progress: 9% done
progress: 19% done
progress: 29% done
progress: 39% done
progress: 49% done
progress: 59% done
progress: 69% done
progress: 79% done
progress: 89% done
progress: 99% done

finished in 92.13s, 5.56 req/s, 355.85MB/s
requests: 512 total, 512 started, 512 done, 512 succeeded, 0 failed, 0 errored, 0 timeout
status codes: 512 2xx, 0 3xx, 0 4xx, 0 5xx
traffic: 34378635470 bytes total, 17775 bytes headers (space savings 80.50%), 34359738368 bytes data
                     min         max         mean         sd        +/- sd
time for request:     11.89s      24.13s      21.53s       4.14s    84.38%
time for connect:      256us       256us       256us         0us   100.00%
time to 1st byte:    15.41ms     15.41ms     15.41ms         0us   100.00%
