h2load http://node-1:8080/16kb -p http/1.1 -t 1 -c 32 -m 1 -n 128 -T 30m
starting benchmark...
spawning thread #0: 32 total client(s). 128 total requests
Application protocol: http/1.1
progress: 9% done
progress: 18% done
progress: 28% done
progress: 37% done
progress: 46% done
progress: 56% done
progress: 65% done
progress: 75% done
progress: 84% done
progress: 93% done

finished in 410.53ms, 311.79 req/s, 4.93MB/s
requests: 128 total, 128 started, 128 done, 128 succeeded, 0 failed, 0 errored, 0 timeout
status codes: 128 2xx, 0 3xx, 0 4xx, 0 5xx
traffic: 2123392 bytes total, 20736 bytes headers (space savings 0.00%), 2097152 bytes data
                     min         max         mean         sd        +/- sd
time for request:      314us    406.56ms      6.07ms     39.76ms    98.44%
time for connect:      200us       890us       540us       199us    53.13%
time to 1st byte:     1.90ms    406.67ms     15.33ms     70.29ms    96.88%
