h2load http://node-1:8080/1mb -p http/1.1 -t 1 -c 8 -m 1 -n 128 -T 30m
starting benchmark...
spawning thread #0: 8 total client(s). 128 total requests
Application protocol: http/1.1
progress: 9% done
progress: 18% done
progress: 28% done
progress: 37% done
progress: 46% done
progress: 56% done
progress: 65% done
progress: 75% done
progress: 84% done
progress: 93% done

finished in 119.66ms, 1069.67 req/s, 1.04GB/s
requests: 128 total, 128 started, 128 done, 128 succeeded, 0 failed, 0 errored, 0 timeout
status codes: 128 2xx, 0 3xx, 0 4xx, 0 5xx
traffic: 134244480 bytes total, 21248 bytes headers (space savings 0.00%), 134217728 bytes data
                     min         max         mean         sd        +/- sd
time for request:     2.52ms     13.73ms      7.24ms      2.28ms    77.34%
time for connect:      164us       343us       239us        53us    62.50%
time to 1st byte:     1.43ms      1.94ms      1.51ms       162us    87.50%
