h2load http://node-1:8080/64mb -p h2c -t 1 -c 1 -m 16 -n 128 -T 30m
starting benchmark...
spawning thread #0: 1 total client(s). 128 total requests
Application protocol: h2c
progress: 9% done
progress: 18% done
progress: 28% done
progress: 37% done
progress: 46% done
progress: 56% done
progress: 65% done
progress: 75% done
progress: 84% done
progress: 93% done

finished in 23.10s, 5.54 req/s, 354.77MB/s
requests: 128 total, 128 started, 128 done, 128 succeeded, 0 failed, 0 errored, 0 timeout
status codes: 128 2xx, 0 3xx, 0 4xx, 0 5xx
traffic: 8594659214 bytes total, 4824 bytes headers (space savings 78.83%), 8589934592 bytes data
                     min         max         mean         sd        +/- sd
time for request:   296.06ms       6.17s       2.80s       1.36s    71.09%
time for connect:      280us       280us       280us         0us   100.00%
time to 1st byte:     6.40ms      6.40ms      6.40ms         0us   100.00%
