h2load http://node-1:8080/8mb -p http/1.1 -t 1 -c 128 -m 1 -n 128 -T 30m
starting benchmark...
spawning thread #0: 128 total client(s). 128 total requests
Application protocol: http/1.1
progress: 9% done
progress: 18% done
progress: 28% done
progress: 37% done
progress: 46% done
progress: 56% done
progress: 65% done
progress: 75% done
progress: 84% done
progress: 93% done

finished in 929.37ms, 137.73 req/s, 1.08GB/s
requests: 128 total, 128 started, 128 done, 128 succeeded, 0 failed, 0 errored, 0 timeout
status codes: 128 2xx, 0 3xx, 0 4xx, 0 5xx
traffic: 1073768576 bytes total, 21248 bytes headers (space savings 0.00%), 1073741824 bytes data
                     min         max         mean         sd        +/- sd
time for request:   491.51ms    924.42ms    805.85ms     90.01ms    69.53%
time for connect:     1.10ms      3.31ms      2.20ms       560us    61.72%
time to 1st byte:     5.57ms    229.10ms     27.05ms     51.33ms    93.75%
