h2load http://node-1:8080/8mb -p http/1.1 -t 1 -c 1 -m 1 -n 128 -T 30m
starting benchmark...
spawning thread #0: 1 total client(s). 128 total requests
Application protocol: http/1.1
progress: 9% done
progress: 18% done
progress: 28% done
progress: 37% done
progress: 46% done
progress: 56% done
progress: 65% done
progress: 75% done
progress: 84% done
progress: 93% done

finished in 24.28s, 5.27 req/s, 42.17MB/s
requests: 128 total, 128 started, 128 done, 128 succeeded, 0 failed, 0 errored, 0 timeout
status codes: 128 2xx, 0 3xx, 0 4xx, 0 5xx
traffic: 1073762663 bytes total, 21263 bytes headers (space savings 0.00%), 1073741824 bytes data
                     min         max         mean         sd        +/- sd
time for request:   110.71ms       1.98s    189.15ms    197.44ms    92.97%
time for connect:    35.37ms     35.37ms     35.37ms         0us   100.00%
time to 1st byte:    71.29ms     71.29ms     71.29ms         0us   100.00%
