h2load http://node-1:8080/128kb -p http/1.1 -t 1 -c 8 -m 1 -n 128 -T 30m
starting benchmark...
spawning thread #0: 8 total client(s). 128 total requests
Application protocol: http/1.1
progress: 9% done
progress: 18% done
progress: 28% done
progress: 37% done
progress: 46% done
progress: 56% done
progress: 65% done
progress: 75% done
progress: 84% done
progress: 93% done

finished in 756.57ms, 169.18 req/s, 21.18MB/s
requests: 128 total, 128 started, 128 done, 128 succeeded, 0 failed, 0 errored, 0 timeout
status codes: 128 2xx, 0 3xx, 0 4xx, 0 5xx
traffic: 16803712 bytes total, 20992 bytes headers (space savings 0.00%), 16777216 bytes data
                     min         max         mean         sd        +/- sd
time for request:    35.61ms    141.58ms     44.94ms     26.31ms    93.75%
time for connect:    35.25ms     35.35ms     35.28ms        29us    75.00%
time to 1st byte:    71.04ms     71.19ms     71.09ms        55us    75.00%
