h2load http://node-1:8080/128kb -p http/1.1 -t 1 -c 1 -m 1 -n 128 -T 30m
starting benchmark...
spawning thread #0: 1 total client(s). 128 total requests
Application protocol: http/1.1
progress: 9% done
progress: 18% done
progress: 28% done
progress: 37% done
progress: 46% done
progress: 56% done
progress: 65% done
progress: 75% done
progress: 84% done
progress: 93% done

finished in 5.19s, 24.65 req/s, 3.09MB/s
requests: 128 total, 128 started, 128 done, 128 succeeded, 0 failed, 0 errored, 0 timeout
status codes: 128 2xx, 0 3xx, 0 4xx, 0 5xx
traffic: 16799657 bytes total, 21007 bytes headers (space savings 0.00%), 16777216 bytes data
                     min         max         mean         sd        +/- sd
time for request:    35.52ms    304.27ms     39.00ms     27.16ms    96.09%
time for connect:    35.36ms     35.36ms     35.36ms         0us   100.00%
time to 1st byte:    70.89ms     70.89ms     70.89ms         0us   100.00%
