h2load http://node-0:8080/1kb -p h2c -t 1 -c 1 -m 1 -n 512 -T 30m
starting benchmark...
spawning thread #0: 1 total client(s). 512 total requests
Application protocol: h2c
progress: 9% done
progress: 19% done
progress: 29% done
progress: 39% done
progress: 49% done
progress: 59% done
progress: 69% done
progress: 79% done
progress: 89% done
progress: 99% done

finished in 166.11ms, 3082.22 req/s, 3.15MB/s
requests: 512 total, 512 started, 512 done, 512 succeeded, 0 failed, 0 errored, 0 timeout
status codes: 512 2xx, 0 3xx, 0 4xx, 0 5xx
traffic: 548457 bytes total, 14917 bytes headers (space savings 82.86%), 524288 bytes data
                     min         max         mean         sd        +/- sd
time for request:      184us      1.14ms       293us        53us    82.81%
time for connect:    11.37ms     11.37ms     11.37ms         0us   100.00%
time to 1st byte:    12.57ms     12.57ms     12.57ms         0us   100.00%
