h2load http://node-0:8080/64mb -p h2c -t 1 -c 1 -m 64 -n 512 -T 30m
starting benchmark...
spawning thread #0: 1 total client(s). 512 total requests
Application protocol: h2c
progress: 9% done
progress: 19% done
progress: 29% done
progress: 39% done
progress: 49% done
progress: 59% done
progress: 69% done
progress: 79% done
progress: 89% done
progress: 99% done

finished in 94.29s, 5.43 req/s, 347.70MB/s
requests: 512 total, 512 started, 512 done, 512 succeeded, 0 failed, 0 errored, 0 timeout
status codes: 512 2xx, 0 3xx, 0 4xx, 0 5xx
traffic: 34378635762 bytes total, 17959 bytes headers (space savings 80.29%), 34359738368 bytes data
                     min         max         mean         sd        +/- sd
time for request:      2.46s      15.05s      11.78s    861.28ms    95.70%
time for connect:      276us       276us       276us         0us   100.00%
time to 1st byte:    19.71ms     19.71ms     19.71ms         0us   100.00%
