h2load http://node-0:8080/1mb -p h2c -t 1 -c 1 -m 256 -n 512 -T 30m
starting benchmark...
spawning thread #0: 1 total client(s). 512 total requests
Application protocol: h2c
progress: 9% done
progress: 19% done
progress: 29% done
progress: 39% done
progress: 49% done
progress: 59% done
progress: 69% done
progress: 79% done
progress: 89% done
progress: 99% done

finished in 1.43s, 356.93 req/s, 357.14MB/s
requests: 512 total, 512 started, 512 done, 512 succeeded, 0 failed, 0 errored, 0 timeout
status codes: 512 2xx, 0 3xx, 0 4xx, 0 5xx
traffic: 537187456 bytes total, 16988 bytes headers (space savings 81.15%), 536870912 bytes data
                     min         max         mean         sd        +/- sd
time for request:   196.95ms    753.79ms    585.80ms    192.18ms    74.22%
time for connect:      302us       302us       302us         0us   100.00%
time to 1st byte:    17.07ms     17.07ms     17.07ms         0us   100.00%
