h2load http://node-0:8080/128kb -p h2c -t 1 -c 1 -m 64 -n 512 -T 30m
starting benchmark...
spawning thread #0: 1 total client(s). 512 total requests
Application protocol: h2c
progress: 9% done
progress: 19% done
progress: 29% done
progress: 39% done
progress: 49% done
progress: 59% done
progress: 69% done
progress: 79% done
progress: 89% done
progress: 99% done

finished in 186.50ms, 2745.38 req/s, 343.47MB/s
requests: 512 total, 512 started, 512 done, 512 succeeded, 0 failed, 0 errored, 0 timeout
status codes: 512 2xx, 0 3xx, 0 4xx, 0 5xx
traffic: 67166335 bytes total, 15963 bytes headers (space savings 82.08%), 67108864 bytes data
                     min         max         mean         sd        +/- sd
time for request:     9.13ms     36.09ms     22.50ms      7.86ms    67.97%
time for connect:      281us       281us       281us         0us   100.00%
time to 1st byte:    27.53ms     27.53ms     27.53ms         0us   100.00%
