h2load http://node-0:8080/1mb -p http/1.1 -t 1 -c 128 -m 1 -n 512
starting benchmark...
spawning thread #0: 128 total client(s). 512 total requests
Application protocol: http/1.1
progress: 9% done
progress: 19% done
progress: 29% done
progress: 39% done
progress: 49% done
progress: 59% done
progress: 69% done
progress: 79% done
progress: 89% done
progress: 99% done

finished in 6.59s, 77.71 req/s, 77.73MB/s
requests: 512 total, 512 started, 512 done, 512 succeeded, 0 failed, 0 errored, 0 timeout
status codes: 512 2xx, 0 3xx, 0 4xx, 0 5xx
traffic: 536977920 bytes total, 84992 bytes headers (space savings 0.00%), 536870912 bytes data
                     min         max         mean         sd        +/- sd
time for request:     8.72ms       6.55s    328.34ms       1.11s    92.97%
time for connect:      906us      1.88ms      1.39ms       230us    67.97%
time to 1st byte:     2.60ms       6.54s       1.22s       1.97s    81.25%
