h2load http://node-0:8080/16kb -p http/1.1 -t 1 -c 2 -m 1 -n 512
starting benchmark...
spawning thread #0: 2 total client(s). 512 total requests
Application protocol: http/1.1
progress: 9% done
progress: 19% done
progress: 29% done
progress: 39% done
progress: 49% done
progress: 59% done
progress: 69% done
progress: 79% done
progress: 89% done
progress: 99% done

finished in 90.58ms, 5652.65 req/s, 89.34MB/s
requests: 512 total, 512 started, 512 done, 512 succeeded, 0 failed, 0 errored, 0 timeout
status codes: 512 2xx, 0 3xx, 0 4xx, 0 5xx
traffic: 8485312 bytes total, 83004 bytes headers (space savings 0.00%), 8388608 bytes data
                     min         max         mean         sd        +/- sd
time for request:      206us       508us       339us        52us    70.90%
time for connect:      180us       229us       204us        24us    50.00%
time to 1st byte:      595us       622us       608us        13us    50.00%
