h2load http://node-0:8080/1kb -p http/1.1 -t 1 -c 512 -m 1 -n 512
starting benchmark...
spawning thread #0: 512 total client(s). 512 total requests
Application protocol: http/1.1
progress: 9% done
progress: 19% done
progress: 29% done
progress: 39% done
progress: 49% done
progress: 59% done
progress: 69% done
progress: 79% done
progress: 89% done
progress: 99% done

finished in 52.34s, 9.78 req/s, 11.72KB/s
requests: 512 total, 512 started, 512 done, 512 succeeded, 0 failed, 0 errored, 0 timeout
status codes: 512 2xx, 0 3xx, 0 4xx, 0 5xx
traffic: 628224 bytes total, 81920 bytes headers (space savings 0.00%), 524288 bytes data
                     min         max         mean         sd        +/- sd
time for request:      346us      52.33s       2.42s       8.43s    92.77%
time for connect:     3.04ms    999.00ms    191.17ms    387.85ms    81.25%
time to 1st byte:    10.40ms      52.33s       2.61s       8.39s    92.77%
