h2load http://node-0:8080/16kb -p http/1.1 -t 1 -c 256 -m 1 -n 512
starting benchmark...
spawning thread #0: 256 total client(s). 512 total requests
Application protocol: http/1.1
progress: 9% done
progress: 19% done
progress: 29% done
progress: 39% done
progress: 49% done
progress: 59% done
progress: 69% done
progress: 79% done
progress: 89% done
progress: 99% done

finished in 3.27s, 155.46 req/s, 2.46MB/s
requests: 512 total, 512 started, 512 done, 509 succeeded, 3 failed, 3 errored, 0 timeout
status codes: 509 2xx, 0 3xx, 0 4xx, 0 5xx
traffic: 8443801 bytes total, 82458 bytes headers (space savings 0.00%), 8339456 bytes data
                     min         max         mean         sd        +/- sd
time for request:      253us       3.27s    292.97ms    580.73ms    87.62%
time for connect:     1.62ms      3.57ms      2.55ms       492us    64.45%
time to 1st byte:     5.45ms       3.27s    583.72ms    708.66ms    75.39%
