h2load http://node-1:8080/64mb -p h2c -t 1 -c 2 -m 64 -n 128 -T 30m
starting benchmark...
spawning thread #0: 2 total client(s). 128 total requests
Application protocol: h2c
progress: 9% done
progress: 18% done
progress: 28% done
progress: 37% done
progress: 46% done
progress: 56% done
progress: 65% done
progress: 75% done
progress: 84% done
progress: 93% done

finished in 51.61s, 2.48 req/s, 158.80MB/s
requests: 128 total, 128 started, 128 done, 128 succeeded, 0 failed, 0 errored, 0 timeout
status codes: 128 2xx, 0 3xx, 0 4xx, 0 5xx
traffic: 8594659096 bytes total, 4616 bytes headers (space savings 79.74%), 8589934592 bytes data
                     min         max         mean         sd        +/- sd
time for request:     51.51s      51.58s      51.54s     31.88ms    35.16%
time for connect:    35.30ms     35.36ms     35.33ms        30us   100.00%
time to 1st byte:    88.17ms     88.41ms     88.29ms       119us    50.00%
