h2load http://node-1:8080/128mb -p h2c -t 1 -c 8 -m 16 -n 128 -T 30m
starting benchmark...
spawning thread #0: 8 total client(s). 128 total requests
Application protocol: h2c
progress: 9% done
progress: 18% done
progress: 28% done
progress: 37% done
progress: 46% done
progress: 56% done
progress: 65% done
progress: 75% done
progress: 84% done
progress: 93% done

finished in 26.58s, 4.82 req/s, 616.84MB/s
requests: 128 total, 128 started, 128 done, 128 succeeded, 0 failed, 0 errored, 0 timeout
status codes: 128 2xx, 0 3xx, 0 4xx, 0 5xx
traffic: 17189312832 bytes total, 5024 bytes headers (space savings 78.07%), 17179869184 bytes data
                     min         max         mean         sd        +/- sd
time for request:      4.19s      26.54s      16.58s       6.99s    56.25%
time for connect:    35.38ms     35.43ms     35.39ms        14us    75.00%
time to 1st byte:    75.01ms     77.02ms     75.88ms       554us    62.50%
