h2load http://node-1:8080/128kb -p h2c -t 1 -c 16 -m 8 -n 128 -T 30m
starting benchmark...
spawning thread #0: 16 total client(s). 128 total requests
Application protocol: h2c
progress: 9% done
progress: 18% done
progress: 28% done
progress: 37% done
progress: 46% done
progress: 56% done
progress: 65% done
progress: 75% done
progress: 84% done
progress: 93% done

finished in 321.67ms, 397.92 req/s, 49.79MB/s
requests: 128 total, 128 started, 128 done, 128 succeeded, 0 failed, 0 errored, 0 timeout
status codes: 128 2xx, 0 3xx, 0 4xx, 0 5xx
traffic: 16793216 bytes total, 5056 bytes headers (space savings 77.30%), 16777216 bytes data
                     min         max         mean         sd        +/- sd
time for request:   248.59ms    283.94ms    255.46ms      6.73ms    92.97%
time for connect:    35.41ms     35.52ms     35.44ms        24us    87.50%
time to 1st byte:    76.68ms     80.53ms     78.54ms      1.06ms    68.75%
