h2load http://node-0:8080/8mb -p h2c -t 1 -c 1 -m 32 -n 512
starting benchmark...
spawning thread #0: 1 total client(s). 512 total requests
Application protocol: h2c
progress: 9% done
progress: 19% done
progress: 29% done
progress: 39% done
progress: 49% done
progress: 59% done
progress: 69% done
progress: 79% done
progress: 89% done
progress: 99% done

finished in 10.76s, 47.60 req/s, 380.99MB/s
requests: 512 total, 512 started, 512 done, 512 succeeded, 0 failed, 0 errored, 0 timeout
status codes: 512 2xx, 0 3xx, 0 4xx, 0 5xx
traffic: 4297348942 bytes total, 17706 bytes headers (space savings 80.35%), 4294967296 bytes data
                     min         max         mean         sd        +/- sd
time for request:    69.80ms       1.38s    665.55ms    208.60ms    65.43%
time for connect:      307us       307us       307us         0us   100.00%
time to 1st byte:     7.15ms      7.15ms      7.15ms         0us   100.00%
