h2load http://node-0:8080/128mb -p h2c -t 1 -c 1 -m 16 -n 512
starting benchmark...
spawning thread #0: 1 total client(s). 512 total requests
Application protocol: h2c
progress: 9% done
progress: 19% done
progress: 29% done
progress: 39% done
progress: 49% done
progress: 59% done
progress: 69% done
progress: 79% done
progress: 89% done
progress: 99% done

finished in 67.84s, 7.55 req/s, 966.59MB/s
requests: 512 total, 512 started, 512 done, 512 succeeded, 0 failed, 0 errored, 0 timeout
status codes: 512 2xx, 0 3xx, 0 4xx, 0 5xx
traffic: 68757249667 bytes total, 19551 bytes headers (space savings 78.67%), 68719476736 bytes data
                     min         max         mean         sd        +/- sd
time for request:   463.69ms      11.43s       2.09s       2.76s    81.64%
time for connect:      314us       314us       314us         0us   100.00%
time to 1st byte:     4.96ms      4.96ms      4.96ms         0us   100.00%
