h2load http://node-0:8080/128kb -p h2c -t 1 -c 1 -m 16 -n 512 -T 30m
starting benchmark...
spawning thread #0: 1 total client(s). 512 total requests
Application protocol: h2c
progress: 9% done
progress: 19% done
progress: 29% done
progress: 39% done
progress: 49% done
progress: 59% done
progress: 69% done
progress: 79% done
progress: 89% done
progress: 99% done

finished in 175.30ms, 2920.64 req/s, 365.39MB/s
requests: 512 total, 512 started, 512 done, 512 succeeded, 0 failed, 0 errored, 0 timeout
status codes: 512 2xx, 0 3xx, 0 4xx, 0 5xx
traffic: 67166312 bytes total, 15940 bytes headers (space savings 82.11%), 67108864 bytes data
                     min         max         mean         sd        +/- sd
time for request:     1.09ms      9.94ms      5.35ms      1.31ms    70.70%
time for connect:      289us       289us       289us         0us   100.00%
time to 1st byte:     4.48ms      4.48ms      4.48ms         0us   100.00%
