h2load http://node-1:8080/1mb -p h2c -t 1 -c 1 -m 16 -n 128 -T 30m
starting benchmark...
spawning thread #0: 1 total client(s). 128 total requests
Application protocol: h2c
progress: 9% done
progress: 18% done
progress: 28% done
progress: 37% done
progress: 46% done
progress: 56% done
progress: 65% done
progress: 75% done
progress: 84% done
progress: 93% done

finished in 457.98ms, 279.49 req/s, 279.65MB/s
requests: 128 total, 128 started, 128 done, 128 succeeded, 0 failed, 0 errored, 0 timeout
status codes: 128 2xx, 0 3xx, 0 4xx, 0 5xx
traffic: 134296831 bytes total, 4187 bytes headers (space savings 81.41%), 134217728 bytes data
                     min         max         mean         sd        +/- sd
time for request:    14.06ms    112.09ms     55.63ms     14.65ms    83.59%
time for connect:      271us       271us       271us         0us   100.00%
time to 1st byte:     3.90ms      3.90ms      3.90ms         0us   100.00%
