h2load http://node-1:8080/64mb -p h2c -t 1 -c 1 -m 1 -n 128 -T 30m
starting benchmark...
spawning thread #0: 1 total client(s). 128 total requests
Application protocol: h2c
progress: 9% done
progress: 18% done
progress: 28% done
progress: 37% done
progress: 46% done
progress: 56% done
progress: 65% done
progress: 75% done
progress: 84% done
progress: 93% done

finished in 13.48s, 9.50 req/s, 608.10MB/s
requests: 128 total, 128 started, 128 done, 128 succeeded, 0 failed, 0 errored, 0 timeout
status codes: 128 2xx, 0 3xx, 0 4xx, 0 5xx
traffic: 8594659242 bytes total, 4870 bytes headers (space savings 78.63%), 8589934592 bytes data
                     min         max         mean         sd        +/- sd
time for request:    98.26ms    119.68ms    105.28ms      3.58ms    72.66%
time for connect:      293us       293us       293us         0us   100.00%
time to 1st byte:     1.44ms      1.44ms      1.44ms         0us   100.00%
