h2load http://node-1:8080/128kb -p h2c -t 1 -c 1 -m 128 -n 128 -T 30m
starting benchmark...
spawning thread #0: 1 total client(s). 128 total requests
Application protocol: h2c
progress: 9% done
progress: 18% done
progress: 28% done
progress: 37% done
progress: 46% done
progress: 56% done
progress: 65% done
progress: 75% done
progress: 84% done
progress: 93% done

finished in 80.42ms, 1591.60 req/s, 199.12MB/s
requests: 128 total, 128 started, 128 done, 128 succeeded, 0 failed, 0 errored, 0 timeout
status codes: 128 2xx, 0 3xx, 0 4xx, 0 5xx
traffic: 16791656 bytes total, 4036 bytes headers (space savings 81.88%), 16777216 bytes data
                     min         max         mean         sd        +/- sd
time for request:    76.94ms     78.96ms     78.20ms       578us    58.59%
time for connect:      287us       287us       287us         0us   100.00%
time to 1st byte:    57.99ms     57.99ms     57.99ms         0us   100.00%
