h2load http://node-0:8080/16kb -p h2c -t 1 -c 1 -m 32 -n 512 -T 30m
starting benchmark...
spawning thread #0: 1 total client(s). 512 total requests
Application protocol: h2c
progress: 9% done
progress: 19% done
progress: 29% done
progress: 39% done
progress: 49% done
progress: 59% done
progress: 69% done
progress: 79% done
progress: 89% done
progress: 99% done

finished in 1.67s, 307.23 req/s, 4.81MB/s
requests: 512 total, 512 started, 512 done, 512 succeeded, 0 failed, 0 errored, 0 timeout
status codes: 512 2xx, 0 3xx, 0 4xx, 0 5xx
traffic: 8413823 bytes total, 15963 bytes headers (space savings 81.87%), 8388608 bytes data
                     min         max         mean         sd        +/- sd
time for request:    50.41ms    255.49ms    100.41ms     44.29ms    48.05%
time for connect:    50.32ms     50.32ms     50.32ms         0us   100.00%
time to 1st byte:   105.12ms    105.12ms    105.12ms         0us   100.00%
