h2load http://node-0:8080/8mb -p h2c -t 1 -c 1 -m 1 -n 512 -T 30m
starting benchmark...
spawning thread #0: 1 total client(s). 512 total requests
Application protocol: h2c
progress: 9% done
progress: 19% done
progress: 29% done
progress: 39% done
progress: 49% done
progress: 59% done
progress: 69% done
progress: 79% done
progress: 89% done
progress: 99% done

finished in 82.52s, 6.20 req/s, 49.66MB/s
requests: 512 total, 512 started, 512 done, 512 succeeded, 0 failed, 0 errored, 0 timeout
status codes: 512 2xx, 0 3xx, 0 4xx, 0 5xx
traffic: 4297350666 bytes total, 19430 bytes headers (space savings 78.44%), 4294967296 bytes data
                     min         max         mean         sd        +/- sd
time for request:   154.75ms    553.04ms    161.07ms     36.15ms    96.68%
time for connect:    50.34ms     50.34ms     50.34ms         0us   100.00%
time to 1st byte:   101.07ms    101.07ms    101.07ms         0us   100.00%
