h2load http://node-0:8080/1mb -p h2c -t 1 -c 1 -m 2 -n 512 -T 30m
starting benchmark...
spawning thread #0: 1 total client(s). 512 total requests
Application protocol: h2c
progress: 9% done
progress: 19% done
progress: 29% done
progress: 39% done
progress: 49% done
progress: 59% done
progress: 69% done
progress: 79% done
progress: 89% done
progress: 99% done

finished in 14.78s, 34.65 req/s, 34.67MB/s
requests: 512 total, 512 started, 512 done, 512 succeeded, 0 failed, 0 errored, 0 timeout
status codes: 512 2xx, 0 3xx, 0 4xx, 0 5xx
traffic: 537187778 bytes total, 17310 bytes headers (space savings 80.79%), 536870912 bytes data
                     min         max         mean         sd        +/- sd
time for request:    51.78ms    401.91ms     57.50ms     24.57ms    91.99%
time for connect:    50.36ms     50.36ms     50.36ms         0us   100.00%
time to 1st byte:   101.06ms    101.06ms    101.06ms         0us   100.00%
