h2load http://node-0:8080/8mb -p h2c -t 1 -c 1 -m 4 -n 512 -T 30m
starting benchmark...
spawning thread #0: 1 total client(s). 512 total requests
Application protocol: h2c
progress: 9% done
progress: 19% done
progress: 29% done
progress: 39% done
progress: 49% done
progress: 59% done
progress: 69% done
progress: 79% done
progress: 89% done
progress: 99% done

finished in 71.36s, 7.18 req/s, 57.43MB/s
requests: 512 total, 512 started, 512 done, 512 succeeded, 0 failed, 0 errored, 0 timeout
status codes: 512 2xx, 0 3xx, 0 4xx, 0 5xx
traffic: 4297350390 bytes total, 19154 bytes headers (space savings 78.74%), 4294967296 bytes data
                     min         max         mean         sd        +/- sd
time for request:   408.71ms    958.44ms    555.84ms     37.38ms    95.90%
time for connect:    50.33ms     50.33ms     50.33ms         0us   100.00%
time to 1st byte:   101.56ms    101.56ms    101.56ms         0us   100.00%
