h2load http://node-0:8080/8mb -p h2c -t 1 -c 1 -m 2 -n 512 -T 30m
starting benchmark...
spawning thread #0: 1 total client(s). 512 total requests
Application protocol: h2c
progress: 9% done
progress: 19% done
progress: 29% done
progress: 39% done
progress: 49% done
progress: 59% done
progress: 69% done
progress: 79% done
progress: 89% done
progress: 99% done

finished in 72.57s, 7.06 req/s, 56.48MB/s
requests: 512 total, 512 started, 512 done, 512 succeeded, 0 failed, 0 errored, 0 timeout
status codes: 512 2xx, 0 3xx, 0 4xx, 0 5xx
traffic: 4297350413 bytes total, 19177 bytes headers (space savings 78.72%), 4294967296 bytes data
                     min         max         mean         sd        +/- sd
time for request:   155.75ms    704.11ms    282.95ms     44.03ms    94.92%
time for connect:    50.30ms     50.30ms     50.30ms         0us   100.00%
time to 1st byte:   101.16ms    101.16ms    101.16ms         0us   100.00%
