h2load http://node-0:8080/1kb -p h2c -t 1 -c 1 -m 1 -n 512 -T 30m
starting benchmark...
spawning thread #0: 1 total client(s). 512 total requests
Application protocol: h2c
progress: 9% done
progress: 19% done
progress: 29% done
progress: 39% done
progress: 49% done
progress: 59% done
progress: 69% done
progress: 79% done
progress: 89% done
progress: 99% done

finished in 27.91s, 18.35 req/s, 19.21KB/s
requests: 512 total, 512 started, 512 done, 512 succeeded, 0 failed, 0 errored, 0 timeout
status codes: 512 2xx, 0 3xx, 0 4xx, 0 5xx
traffic: 549078 bytes total, 15538 bytes headers (space savings 82.15%), 524288 bytes data
                     min         max         mean         sd        +/- sd
time for request:    50.40ms    301.40ms     54.39ms     30.72ms    98.44%
time for connect:    50.31ms     50.31ms     50.31ms         0us   100.00%
time to 1st byte:   101.56ms    101.56ms    101.56ms         0us   100.00%
