h2load http://node-0:8080/1mb -p h2c -t 1 -c 1 -m 32 -n 512 -T 30m
starting benchmark...
spawning thread #0: 1 total client(s). 512 total requests
Application protocol: h2c
progress: 9% done
progress: 19% done
progress: 29% done
progress: 39% done
progress: 49% done
progress: 59% done
progress: 69% done
progress: 79% done
progress: 89% done
progress: 99% done

finished in 10.69s, 47.92 req/s, 47.94MB/s
requests: 512 total, 512 started, 512 done, 512 succeeded, 0 failed, 0 errored, 0 timeout
status codes: 512 2xx, 0 3xx, 0 4xx, 0 5xx
traffic: 537187663 bytes total, 17195 bytes headers (space savings 80.92%), 536870912 bytes data
                     min         max         mean         sd        +/- sd
time for request:   167.05ms       1.11s    594.50ms    170.03ms    82.03%
time for connect:      1.05s       1.05s       1.05s         0us   100.00%
time to 1st byte:      1.10s       1.10s       1.10s         0us   100.00%
