h2load http://node-0:8080/128kb -p h2c -t 1 -c 1 -m 128 -n 512 -T 30m
starting benchmark...
spawning thread #0: 1 total client(s). 512 total requests
Application protocol: h2c
progress: 9% done
progress: 19% done
progress: 29% done
progress: 39% done
progress: 49% done
progress: 59% done
progress: 69% done
progress: 79% done
progress: 89% done
progress: 99% done

finished in 1.82s, 281.58 req/s, 35.23MB/s
requests: 512 total, 512 started, 512 done, 512 succeeded, 0 failed, 0 errored, 0 timeout
status codes: 512 2xx, 0 3xx, 0 4xx, 0 5xx
traffic: 67166358 bytes total, 15986 bytes headers (space savings 82.06%), 67108864 bytes data
                     min         max         mean         sd        +/- sd
time for request:    99.83ms    792.55ms    417.69ms    222.13ms    71.48%
time for connect:    50.35ms     50.35ms     50.35ms         0us   100.00%
time to 1st byte:   139.89ms    139.89ms    139.89ms         0us   100.00%
