h2load http://node-0:8080/16kb -p http/1.1 -t 1 -c 256 -m 1 -n 512 -T 30m
starting benchmark...
spawning thread #0: 256 total client(s). 512 total requests
Application protocol: http/1.1
progress: 9% done
progress: 19% done
progress: 29% done
progress: 39% done
progress: 49% done
progress: 59% done
progress: 69% done
progress: 79% done
progress: 89% done
progress: 99% done

finished in 16.30s, 31.41 req/s, 508.80KB/s
requests: 512 total, 512 started, 512 done, 512 succeeded, 0 failed, 0 errored, 0 timeout
status codes: 512 2xx, 0 3xx, 0 4xx, 0 5xx
traffic: 8493568 bytes total, 82944 bytes headers (space savings 0.00%), 8388608 bytes data
                     min         max         mean         sd        +/- sd
time for request:    50.20ms      16.20s    624.95ms       1.83s    94.73%
time for connect:    50.19ms     51.04ms     50.54ms       187us    64.45%
time to 1st byte:   100.00ms      16.25s       1.25s       2.45s    89.45%
