h2load http://node-0:8080/1kb -p http/1.1 -t 1 -c 32 -m 1 -n 512 -T 30m
starting benchmark...
spawning thread #0: 32 total client(s). 512 total requests
Application protocol: http/1.1
progress: 9% done
progress: 19% done
progress: 29% done
progress: 39% done
progress: 49% done
progress: 59% done
progress: 69% done
progress: 79% done
progress: 89% done
progress: 99% done

finished in 1.11s, 462.39 req/s, 554.06KB/s
requests: 512 total, 512 started, 512 done, 512 succeeded, 0 failed, 0 errored, 0 timeout
status codes: 512 2xx, 0 3xx, 0 4xx, 0 5xx
traffic: 628224 bytes total, 81920 bytes headers (space savings 0.00%), 524288 bytes data
                     min         max         mean         sd        +/- sd
time for request:    50.20ms    299.13ms     55.74ms     36.04ms    97.85%
time for connect:    50.19ms     50.36ms     50.26ms        49us    59.38%
time to 1st byte:   100.92ms    349.23ms    186.35ms    117.82ms    65.63%
