h2load http://node-0:8080/16kb -p http/1.1 -t 1 -c 1 -m 1 -n 512 -T 30m
starting benchmark...
spawning thread #0: 1 total client(s). 512 total requests
Application protocol: http/1.1
progress: 9% done
progress: 19% done
progress: 29% done
progress: 39% done
progress: 49% done
progress: 59% done
progress: 69% done
progress: 79% done
progress: 89% done
progress: 99% done

finished in 26.12s, 19.60 req/s, 317.51KB/s
requests: 512 total, 512 started, 512 done, 512 succeeded, 0 failed, 0 errored, 0 timeout
status codes: 512 2xx, 0 3xx, 0 4xx, 0 5xx
traffic: 8492543 bytes total, 83019 bytes headers (space savings 0.00%), 8388608 bytes data
                     min         max         mean         sd        +/- sd
time for request:    50.31ms     50.57ms     50.42ms        28us    78.13%
time for connect:    50.32ms     50.32ms     50.32ms         0us   100.00%
time to 1st byte:   100.89ms    100.89ms    100.89ms         0us   100.00%
