h2load http://node-0:8080/128kb -p http/1.1 -t 1 -c 64 -m 1 -n 512 -T 30m
starting benchmark...
spawning thread #0: 64 total client(s). 512 total requests
Application protocol: http/1.1
progress: 9% done
progress: 19% done
progress: 29% done
progress: 39% done
progress: 49% done
progress: 59% done
progress: 69% done
progress: 79% done
progress: 89% done
progress: 99% done

finished in 1.61s, 317.21 req/s, 39.71MB/s
requests: 512 total, 512 started, 512 done, 512 succeeded, 0 failed, 0 errored, 0 timeout
status codes: 512 2xx, 0 3xx, 0 4xx, 0 5xx
traffic: 67214848 bytes total, 83968 bytes headers (space savings 0.00%), 67108864 bytes data
                     min         max         mean         sd        +/- sd
time for request:    50.37ms       1.16s     93.17ms    140.34ms    94.53%
time for connect:    50.13ms     50.42ms     50.26ms        74us    68.75%
time to 1st byte:   100.91ms       1.11s    301.58ms    281.67ms    76.56%
