h2load http://node-0:8080/1mb -p http/1.1 -t 1 -c 512 -m 1 -n 512
starting benchmark...
spawning thread #0: 512 total client(s). 512 total requests
Application protocol: http/1.1
progress: 9% done
progress: 19% done
progress: 29% done
progress: 39% done
progress: 49% done
progress: 59% done
progress: 69% done
progress: 79% done
progress: 89% done

finished in 32.71s, 14.77 req/s, 14.77MB/s
requests: 512 total, 512 started, 512 done, 483 succeeded, 29 failed, 29 errored, 0 timeout
status codes: 483 2xx, 0 3xx, 0 4xx, 0 5xx
traffic: 506563155 bytes total, 80178 bytes headers (space savings 0.00%), 506462208 bytes data
                     min         max         mean         sd        +/- sd
time for request:   301.37ms      32.65s       1.70s       2.69s    92.75%
time for connect:    50.25ms     51.78ms     50.95ms       404us    62.11%
time to 1st byte:   101.28ms      32.40s       1.09s       2.75s    92.55%
