h2load http://node-0:8080/1kb -p http/1.1 -t 1 -c 2 -m 1 -n 512
starting benchmark...
spawning thread #0: 2 total client(s). 512 total requests
Application protocol: http/1.1
progress: 9% done
progress: 19% done
progress: 29% done
progress: 39% done
progress: 49% done
progress: 59% done
progress: 69% done
progress: 79% done
progress: 89% done
progress: 99% done

finished in 13.56s, 37.75 req/s, 44.88KB/s
requests: 512 total, 512 started, 512 done, 512 succeeded, 0 failed, 0 errored, 0 timeout
status codes: 512 2xx, 0 3xx, 0 4xx, 0 5xx
traffic: 623316 bytes total, 81980 bytes headers (space savings 0.00%), 524288 bytes data
                     min         max         mean         sd        +/- sd
time for request:    50.29ms    301.27ms     52.37ms     21.88ms    99.22%
time for connect:    50.23ms     50.27ms     50.25ms        18us   100.00%
time to 1st byte:   100.76ms    100.79ms    100.77ms        15us   100.00%
