h2load http://node-0:8080/128kb -p http/1.1 -t 1 -c 64 -m 1 -n 512
starting benchmark...
spawning thread #0: 64 total client(s). 512 total requests
Application protocol: http/1.1
progress: 9% done
progress: 19% done
progress: 29% done
progress: 39% done
progress: 49% done
progress: 59% done
progress: 69% done
progress: 79% done
progress: 89% done
progress: 99% done

finished in 2.62s, 195.42 req/s, 24.47MB/s
requests: 512 total, 512 started, 512 done, 512 succeeded, 0 failed, 0 errored, 0 timeout
status codes: 512 2xx, 0 3xx, 0 4xx, 0 5xx
traffic: 67214848 bytes total, 83968 bytes headers (space savings 0.00%), 67108864 bytes data
                     min         max         mean         sd        +/- sd
time for request:    50.35ms       2.16s    108.04ms    204.39ms    93.75%
time for connect:    50.19ms     50.41ms     50.31ms        61us    60.94%
time to 1st byte:   101.17ms       2.11s    419.32ms    426.93ms    81.25%
