h2load http://node-0:8080/128mb -p http/1.1 -t 1 -c 256 -m 1 -n 512
starting benchmark...
spawning thread #0: 256 total client(s). 512 total requests
Application protocol: http/1.1
progress: 9% done
progress: 19% done
progress: 29% done
progress: 39% done
progress: 49% done
progress: 59% done
progress: 69% done
progress: 79% done

finished in 124.69s, 3.95 req/s, 505.08MB/s
requests: 512 total, 508 started, 512 done, 492 succeeded, 20 failed, 20 errored, 0 timeout
status codes: 496 2xx, 0 3xx, 0 4xx, 0 5xx
traffic: 66036863964 bytes total, 83824 bytes headers (space savings 0.00%), 66036758812 bytes data
                     min         max         mean         sd        +/- sd
time for request:      2.26s      77.63s      21.19s      14.70s    68.70%
time for connect:    50.30ms       4.06s    101.66ms    424.66ms    98.44%
time to 1st byte:   101.39ms       5.91s       1.42s       1.55s    83.98%
