h2load http://node-0:8080/128kb -p http/1.1 -t 1 -c 1 -m 1 -n 512
starting benchmark...
spawning thread #0: 1 total client(s). 512 total requests
Application protocol: http/1.1
progress: 9% done
progress: 19% done
progress: 29% done
progress: 39% done
progress: 49% done
progress: 59% done
progress: 69% done
progress: 79% done
progress: 89% done
progress: 99% done

finished in 29.69s, 17.25 req/s, 2.16MB/s
requests: 512 total, 512 started, 512 done, 512 succeeded, 0 failed, 0 errored, 0 timeout
status codes: 512 2xx, 0 3xx, 0 4xx, 0 5xx
traffic: 67191629 bytes total, 84043 bytes headers (space savings 0.00%), 67108864 bytes data
                     min         max         mean         sd        +/- sd
time for request:    50.39ms    352.34ms     57.39ms     37.06ms    94.14%
time for connect:    50.19ms     50.19ms     50.19ms         0us   100.00%
time to 1st byte:   100.61ms    100.61ms    100.61ms         0us   100.00%
