h2load http://node-0:8080/64mb -p h2c -t 1 -c 4 -m 128 -n 512 -T 60m
starting benchmark...
spawning thread #0: 4 total client(s). 512 total requests
Application protocol: h2c
progress: 9% done
progress: 19% done
progress: 29% done
progress: 39% done
progress: 49% done
progress: 59% done
progress: 69% done
progress: 79% done
progress: 89% done
progress: 99% done

finished in 33.18s, 15.43 req/s, 988.27MB/s
requests: 512 total, 512 started, 512 done, 512 succeeded, 0 failed, 0 errored, 0 timeout
status codes: 512 2xx, 0 3xx, 0 4xx, 0 5xx
traffic: 34378635777 bytes total, 17956 bytes headers (space savings 80.30%), 34359738368 bytes data
                     min         max         mean         sd        +/- sd
time for request:      4.74s      33.17s      19.29s       7.61s    75.39%
time for connect:      331us       442us       385us        44us    50.00%
time to 1st byte:    18.17ms     33.67ms     27.34ms      5.69ms    50.00%
