h2load http://node-0:8080/128mb -p h2c -t 1 -c 8 -m 64 -n 512 -T 60m
starting benchmark...
spawning thread #0: 8 total client(s). 512 total requests
Application protocol: h2c
progress: 9% done
progress: 19% done
progress: 29% done
progress: 39% done
progress: 49% done
progress: 59% done
progress: 69% done
progress: 79% done
progress: 89% done
progress: 99% done

finished in 57.70s, 8.87 req/s, 1.11GB/s
requests: 512 total, 512 started, 512 done, 512 succeeded, 0 failed, 0 errored, 0 timeout
status codes: 512 2xx, 0 3xx, 0 4xx, 0 5xx
traffic: 68757249477 bytes total, 18533 bytes headers (space savings 79.78%), 68719476736 bytes data
                     min         max         mean         sd        +/- sd
time for request:     12.72s      57.70s      44.08s      13.03s    69.73%
time for connect:      266us       374us       318us        35us    50.00%
time to 1st byte:    17.12ms     31.11ms     24.17ms      4.32ms    62.50%
