h2load http://node-0:8080/1kb -p h2c -t 1 -c 64 -m 8 -n 512 -T 60m
starting benchmark...
spawning thread #0: 64 total client(s). 512 total requests
Application protocol: h2c
progress: 9% done
progress: 19% done
progress: 29% done
progress: 39% done
progress: 49% done
progress: 59% done
progress: 69% done
progress: 79% done
progress: 89% done
progress: 99% done

finished in 21.82ms, 23465.79 req/s, 24.26MB/s
requests: 512 total, 512 started, 512 done, 512 succeeded, 0 failed, 0 errored, 0 timeout
status codes: 512 2xx, 0 3xx, 0 4xx, 0 5xx
traffic: 555072 bytes total, 19264 bytes headers (space savings 77.87%), 524288 bytes data
                     min         max         mean         sd        +/- sd
time for request:     1.32ms     16.97ms      9.62ms      4.15ms    58.79%
time for connect:      763us      1.56ms      1.10ms       306us    57.81%
time to 1st byte:     3.83ms     19.27ms     12.13ms      4.03ms    62.50%
