h2load http://node-0:8080/16kb -p h2c -t 1 -c 512 -m 1 -n 512 -T 60m
starting benchmark...
spawning thread #0: 512 total client(s). 512 total requests
Application protocol: h2c
progress: 9% done
progress: 19% done
progress: 29% done
progress: 39% done
progress: 49% done
progress: 59% done
progress: 69% done
progress: 79% done
progress: 89% done
progress: 99% done

finished in 6.56s, 78.07 req/s, 1.23MB/s
requests: 512 total, 512 started, 512 done, 512 succeeded, 0 failed, 0 errored, 0 timeout
status codes: 512 2xx, 0 3xx, 0 4xx, 0 5xx
traffic: 8466944 bytes total, 50688 bytes headers (space savings 42.44%), 8388608 bytes data
                     min         max         mean         sd        +/- sd
time for request:      576us       6.54s    543.53ms       1.22s    92.77%
time for connect:     6.63ms    996.87ms     99.19ms    285.34ms    90.82%
time to 1st byte:    19.82ms       6.55s    648.35ms       1.22s    92.77%
