h2load http://node-0:8080/128kb -p h2c -t 1 -c 32 -m 16 -n 512 -T 60m
starting benchmark...
spawning thread #0: 32 total client(s). 512 total requests
Application protocol: h2c
progress: 9% done
progress: 19% done
progress: 29% done
progress: 39% done
progress: 49% done
progress: 59% done
progress: 69% done
progress: 79% done
progress: 89% done
progress: 99% done

finished in 292.74ms, 1748.98 req/s, 218.82MB/s
requests: 512 total, 512 started, 512 done, 512 succeeded, 0 failed, 0 errored, 0 timeout
status codes: 512 2xx, 0 3xx, 0 4xx, 0 5xx
traffic: 67169536 bytes total, 18048 bytes headers (space savings 79.74%), 67108864 bytes data
                     min         max         mean         sd        +/- sd
time for request:    12.57ms    289.69ms     55.03ms     47.58ms    96.88%
time for connect:      500us       601us       536us        19us    75.00%
time to 1st byte:     7.76ms     86.64ms     20.61ms     19.76ms    87.50%
