h2load http://node-0:8080/64mb -p h2c -t 1 -c 64 -m 8 -n 512 -T 60m
starting benchmark...
spawning thread #0: 64 total client(s). 512 total requests
Application protocol: h2c
progress: 9% done
progress: 19% done
progress: 29% done
progress: 39% done
progress: 49% done
progress: 59% done
progress: 69% done
progress: 79% done
progress: 89% done
progress: 99% done

finished in 27.80s, 18.42 req/s, 1.15GB/s
requests: 512 total, 512 started, 512 done, 512 succeeded, 0 failed, 0 errored, 0 timeout
status codes: 512 2xx, 0 3xx, 0 4xx, 0 5xx
traffic: 34378641638 bytes total, 21990 bytes headers (space savings 75.87%), 34359738368 bytes data
                     min         max         mean         sd        +/- sd
time for request:      3.26s      27.77s      17.36s       7.51s    53.32%
time for connect:      768us       1.00s     32.44ms    174.66ms    96.88%
time to 1st byte:     4.49ms       1.01s     53.80ms    172.75ms    96.88%
