h2load http://node-0:8080/128mb -p h2c -t 1 -c 32 -m 16 -n 512 -T 60m
starting benchmark...
spawning thread #0: 32 total client(s). 512 total requests
Application protocol: h2c
progress: 9% done
progress: 19% done
progress: 29% done
progress: 39% done
progress: 49% done
progress: 59% done
progress: 69% done
progress: 79% done
progress: 89% done
progress: 99% done

finished in 56.46s, 9.07 req/s, 1.13GB/s
requests: 512 total, 512 started, 512 done, 512 succeeded, 0 failed, 0 errored, 0 timeout
status codes: 512 2xx, 0 3xx, 0 4xx, 0 5xx
traffic: 68757252809 bytes total, 21361 bytes headers (space savings 76.69%), 68719476736 bytes data
                     min         max         mean         sd        +/- sd
time for request:      3.28s      56.46s      41.12s      14.90s    76.95%
time for connect:      475us       583us       512us        24us    71.88%
time to 1st byte:     3.14ms     27.58ms     15.63ms      6.72ms    65.63%
