h2load http://node-0:8080/8mb -p h2c -t 1 -c 8 -m 64 -n 512 -T 60m
starting benchmark...
spawning thread #0: 8 total client(s). 512 total requests
Application protocol: h2c
progress: 9% done
progress: 19% done
progress: 29% done
progress: 39% done
progress: 49% done
progress: 59% done
progress: 69% done
progress: 79% done
progress: 89% done
progress: 99% done

finished in 3.68s, 139.26 req/s, 1.09GB/s
requests: 512 total, 512 started, 512 done, 512 succeeded, 0 failed, 0 errored, 0 timeout
status codes: 512 2xx, 0 3xx, 0 4xx, 0 5xx
traffic: 4297349808 bytes total, 18320 bytes headers (space savings 79.67%), 4294967296 bytes data
                     min         max         mean         sd        +/- sd
time for request:   355.29ms       3.67s       2.28s    976.36ms    53.71%
time for connect:      273us       367us       313us        32us    50.00%
time to 1st byte:    12.79ms     17.31ms     14.94ms      1.50ms    50.00%
