h2load http://node-0:8080/8mb -p h2c -t 1 -c 64 -m 8 -n 512 -T 60m
starting benchmark...
spawning thread #0: 64 total client(s). 512 total requests
Application protocol: h2c
progress: 9% done
progress: 19% done
progress: 29% done
progress: 39% done
progress: 49% done
progress: 59% done
progress: 69% done
progress: 79% done
progress: 89% done
progress: 99% done

finished in 3.49s, 146.54 req/s, 1.15GB/s
requests: 512 total, 512 started, 512 done, 512 succeeded, 0 failed, 0 errored, 0 timeout
status codes: 512 2xx, 0 3xx, 0 4xx, 0 5xx
traffic: 4297355862 bytes total, 22358 bytes headers (space savings 75.19%), 4294967296 bytes data
                     min         max         mean         sd        +/- sd
time for request:   890.84ms       3.49s       2.30s    863.00ms    54.10%
time for connect:      773us      1.54ms      1.10ms       296us    54.69%
time to 1st byte:     4.72ms       1.17s     44.30ms    146.46ms    95.31%
