h2load http://node-1:8080/64mb -p http/1.1 -t 1 -c 64 -m 1 -n 128 -T 30m
starting benchmark...
spawning thread #0: 64 total client(s). 128 total requests
Application protocol: http/1.1
progress: 9% done
progress: 18% done
progress: 28% done
progress: 37% done
progress: 46% done
progress: 56% done
progress: 65% done
progress: 75% done
progress: 84% done
progress: 93% done

finished in 17.05s, 7.51 req/s, 480.37MB/s
requests: 128 total, 128 started, 128 done, 128 succeeded, 0 failed, 0 errored, 0 timeout
status codes: 128 2xx, 0 3xx, 0 4xx, 0 5xx
traffic: 8589961600 bytes total, 21504 bytes headers (space savings 0.00%), 8589934592 bytes data
                     min         max         mean         sd        +/- sd
time for request:      1.14s      13.67s       5.79s       2.84s    65.63%
time for connect:    35.27ms     35.92ms     35.58ms       173us    54.69%
time to 1st byte:    72.40ms    542.52ms     81.99ms     58.04ms    98.44%
