h2load http://node-1:8080/1mb -p http/1.1 -t 1 -c 64 -m 1 -n 128 -T 30m
starting benchmark...
spawning thread #0: 64 total client(s). 128 total requests
Application protocol: http/1.1
progress: 9% done
progress: 18% done
progress: 28% done
progress: 37% done
progress: 46% done
progress: 56% done
progress: 65% done
progress: 75% done
progress: 84% done
progress: 93% done

finished in 1.33s, 95.19 req/s, 95.21MB/s
requests: 128 total, 128 started, 128 done, 127 succeeded, 1 failed, 1 errored, 0 timeout
status codes: 127 2xx, 0 3xx, 0 4xx, 0 5xx
traffic: 133195695 bytes total, 21082 bytes headers (space savings 0.00%), 133169152 bytes data
                     min         max         mean         sd        +/- sd
time for request:   246.98ms    908.94ms    443.86ms    142.78ms    75.59%
time for connect:    35.23ms     35.85ms     35.55ms       184us    54.69%
time to 1st byte:    72.16ms    303.14ms     76.63ms     28.54ms    98.44%
