h2load http://node-1:8080/64mb -p http/1.1 -t 1 -c 16 -m 1 -n 128 -T 30m
starting benchmark...
spawning thread #0: 16 total client(s). 128 total requests
Application protocol: http/1.1
progress: 9% done
progress: 18% done
progress: 28% done
progress: 37% done
progress: 46% done
progress: 56% done
progress: 65% done
progress: 75% done
progress: 84% done
progress: 93% done

finished in 10.54s, 12.15 req/s, 777.50MB/s
requests: 128 total, 128 started, 128 done, 128 succeeded, 0 failed, 0 errored, 0 timeout
status codes: 128 2xx, 0 3xx, 0 4xx, 0 5xx
traffic: 8589961600 bytes total, 21504 bytes headers (space savings 0.00%), 8589934592 bytes data
                     min         max         mean         sd        +/- sd
time for request:   910.19ms       1.77s       1.11s    199.02ms    82.03%
time for connect:    35.29ms     35.49ms     35.36ms        49us    75.00%
time to 1st byte:    72.05ms    304.93ms     86.73ms     56.34ms    93.75%
