h2load http://node-1:8080/128mb -p h2c -t 1 -c 1 -m 16 -n 128 -T 30m
starting benchmark...
spawning thread #0: 1 total client(s). 128 total requests
Application protocol: h2c
progress: 9% done
progress: 18% done
progress: 28% done
progress: 37% done
progress: 46% done
progress: 56% done
progress: 65% done
progress: 75% done
progress: 84% done
progress: 93% done

finished in 203.64s, 0.63 req/s, 80.50MB/s
requests: 128 total, 128 started, 128 done, 128 succeeded, 0 failed, 0 errored, 0 timeout
status codes: 128 2xx, 0 3xx, 0 4xx, 0 5xx
traffic: 17189313036 bytes total, 5399 bytes headers (space savings 76.44%), 17179869184 bytes data
                     min         max         mean         sd        +/- sd
time for request:      5.89s      56.68s      24.89s      14.80s    67.97%
time for connect:    35.36ms     35.36ms     35.36ms         0us   100.00%
time to 1st byte:    77.13ms     77.13ms     77.13ms         0us   100.00%
