h2load http://node-1:8080/8mb -p http/1.1 -t 1 -c 16 -m 1 -n 128 -T 30m
starting benchmark...
spawning thread #0: 16 total client(s). 128 total requests
Application protocol: http/1.1
progress: 9% done
progress: 18% done
progress: 28% done
progress: 37% done
progress: 46% done
progress: 56% done
progress: 65% done
progress: 75% done
progress: 84% done
progress: 93% done

finished in 928.79ms, 137.81 req/s, 1.08GB/s
requests: 128 total, 128 started, 128 done, 128 succeeded, 0 failed, 0 errored, 0 timeout
status codes: 128 2xx, 0 3xx, 0 4xx, 0 5xx
traffic: 1073768576 bytes total, 21248 bytes headers (space savings 0.00%), 1073741824 bytes data
                     min         max         mean         sd        +/- sd
time for request:    25.72ms    251.31ms    102.86ms     56.66ms    71.88%
time for connect:      188us       535us       345us        98us    56.25%
time to 1st byte:     3.69ms      5.86ms      4.78ms       692us    62.50%
