h2load http://node-1:8080/16kb -p http/1.1 -t 1 -c 128 -m 1 -n 128 -T 30m
starting benchmark...
spawning thread #0: 128 total client(s). 128 total requests
Application protocol: http/1.1
progress: 9% done
progress: 18% done
progress: 28% done
progress: 37% done
progress: 46% done
progress: 56% done
progress: 65% done
progress: 75% done
progress: 84% done
progress: 93% done

finished in 1.00s, 127.75 req/s, 2.02MB/s
requests: 128 total, 128 started, 128 done, 128 succeeded, 0 failed, 0 errored, 0 timeout
status codes: 128 2xx, 0 3xx, 0 4xx, 0 5xx
traffic: 2123392 bytes total, 20736 bytes headers (space savings 0.00%), 2097152 bytes data
                     min         max         mean         sd        +/- sd
time for request:      600us      8.67ms      5.38ms      2.00ms    64.06%
time for connect:     1.33ms    997.01ms     17.88ms    123.36ms    98.44%
time to 1st byte:     4.64ms    997.53ms     23.20ms    122.76ms    98.44%
