h2load http://node-1:8080/1mb -p http/1.1 -t 1 -c 64 -m 1 -n 128 -T 30m
starting benchmark...
spawning thread #0: 64 total client(s). 128 total requests
Application protocol: http/1.1
progress: 9% done
progress: 18% done
progress: 28% done
progress: 37% done
progress: 46% done
progress: 56% done
progress: 65% done
progress: 75% done
progress: 84% done
progress: 93% done

finished in 489.05ms, 261.73 req/s, 261.78MB/s
requests: 128 total, 128 started, 128 done, 128 succeeded, 0 failed, 0 errored, 0 timeout
status codes: 128 2xx, 0 3xx, 0 4xx, 0 5xx
traffic: 134244480 bytes total, 21248 bytes headers (space savings 0.00%), 134217728 bytes data
                     min         max         mean         sd        +/- sd
time for request:     3.74ms    467.75ms     69.43ms     77.86ms    87.50%
time for connect:      309us      1.80ms      1.05ms       426us    54.69%
time to 1st byte:     2.66ms    202.05ms      9.80ms     24.29ms    98.44%
