h2load http://node-1:8080/64mb -p http/1.1 -t 1 -c 64 -m 1 -n 128 -T 30m
starting benchmark...
spawning thread #0: 64 total client(s). 128 total requests
Application protocol: http/1.1
progress: 9% done
progress: 18% done
progress: 28% done
progress: 37% done
progress: 46% done
progress: 56% done
progress: 65% done
progress: 75% done
progress: 84% done
progress: 93% done

finished in 7.25s, 17.51 req/s, 1.09GB/s
requests: 128 total, 128 started, 128 done, 127 succeeded, 1 failed, 1 errored, 0 timeout
status codes: 127 2xx, 0 3xx, 0 4xx, 0 5xx
traffic: 8522852525 bytes total, 21336 bytes headers (space savings 0.00%), 8522825728 bytes data
                     min         max         mean         sd        +/- sd
time for request:   302.98ms       6.95s       2.94s       1.65s    67.72%
time for connect:      410us       1.01s     16.80ms    124.60ms    98.44%
time to 1st byte:     2.83ms       1.02s     26.40ms    128.00ms    96.88%
