h2load http://node-1:8080/128kb -p http/1.1 -t 1 -c 32 -m 1 -n 128 -T 30m
starting benchmark...
spawning thread #0: 32 total client(s). 128 total requests
Application protocol: http/1.1
progress: 9% done
progress: 18% done
progress: 28% done
progress: 37% done
progress: 46% done
progress: 56% done
progress: 65% done
progress: 75% done
progress: 84% done
progress: 93% done

finished in 587.49ms, 217.88 req/s, 27.28MB/s
requests: 128 total, 128 started, 128 done, 128 succeeded, 0 failed, 0 errored, 0 timeout
status codes: 128 2xx, 0 3xx, 0 4xx, 0 5xx
traffic: 16803712 bytes total, 20992 bytes headers (space savings 0.00%), 16777216 bytes data
                     min         max         mean         sd        +/- sd
time for request:    35.70ms    302.60ms     74.65ms     47.08ms    74.22%
time for connect:    35.17ms     35.55ms     35.35ms       110us    59.38%
time to 1st byte:    71.58ms     72.36ms     72.06ms       309us    71.88%
