h2load http://node-1:8080/8mb -p http/1.1 -t 1 -c 64 -m 1 -n 128 -T 30m
starting benchmark...
spawning thread #0: 64 total client(s). 128 total requests
Application protocol: http/1.1
progress: 9% done
progress: 18% done
progress: 28% done
progress: 37% done
progress: 46% done
progress: 56% done
progress: 65% done
progress: 75% done
progress: 84% done
progress: 93% done

finished in 8.25s, 15.40 req/s, 123.19MB/s
requests: 128 total, 128 started, 128 done, 127 succeeded, 1 failed, 1 errored, 0 timeout
status codes: 127 2xx, 0 3xx, 0 4xx, 0 5xx
traffic: 1065379759 bytes total, 21082 bytes headers (space savings 0.00%), 1065353216 bytes data
                     min         max         mean         sd        +/- sd
time for request:   497.87ms       4.76s       1.67s    754.02ms    70.08%
time for connect:    35.26ms       1.03s     66.73ms    173.62ms    96.88%
time to 1st byte:    72.15ms       1.07s    119.02ms    189.34ms    93.75%
