h2load http://node-1:8080/128mb -p http/1.1 -t 1 -c 2 -m 1 -n 128 -T 30m
starting benchmark...
spawning thread #0: 2 total client(s). 128 total requests
Application protocol: http/1.1
progress: 9% done
progress: 18% done
progress: 28% done
progress: 37% done
progress: 46% done
progress: 56% done
progress: 65% done
progress: 75% done
progress: 84% done
progress: 93% done

finished in 103.92s, 1.23 req/s, 157.66MB/s
requests: 128 total, 128 started, 128 done, 128 succeeded, 0 failed, 0 errored, 0 timeout
status codes: 128 2xx, 0 3xx, 0 4xx, 0 5xx
traffic: 17179896320 bytes total, 21632 bytes headers (space savings 0.00%), 17179869184 bytes data
                     min         max         mean         sd        +/- sd
time for request:      1.60s       2.02s       1.62s     68.97ms    96.88%
time for connect:    35.30ms     35.36ms     35.33ms        33us   100.00%
time to 1st byte:    71.08ms     71.14ms     71.11ms        31us   100.00%
