h2load http://node-1:8080/1kb -p h2c -t 1 -c 1 -m 32 -n 128 -T 30m
starting benchmark...
spawning thread #0: 1 total client(s). 128 total requests
Application protocol: h2c
progress: 9% done
progress: 18% done
progress: 28% done
progress: 37% done
progress: 46% done
progress: 56% done
progress: 65% done
progress: 75% done
progress: 84% done
progress: 93% done

finished in 17.14ms, 7467.91 req/s, 7.63MB/s
requests: 128 total, 128 started, 128 done, 128 succeeded, 0 failed, 0 errored, 0 timeout
status codes: 128 2xx, 0 3xx, 0 4xx, 0 5xx
traffic: 137192 bytes total, 3780 bytes headers (space savings 82.63%), 131072 bytes data
                     min         max         mean         sd        +/- sd
time for request:     3.33ms      4.80ms      3.91ms       529us    55.47%
time for connect:      296us       296us       296us         0us   100.00%
time to 1st byte:     5.13ms      5.13ms      5.13ms         0us   100.00%
