h2load http://node-1:8080/8mb -p h2c -t 1 -c 1 -m 1 -n 128 -T 30m
starting benchmark...
spawning thread #0: 1 total client(s). 128 total requests
Application protocol: h2c
progress: 9% done
progress: 18% done
progress: 28% done
progress: 37% done
progress: 46% done
progress: 56% done
progress: 65% done
progress: 75% done
progress: 84% done
progress: 93% done

finished in 1.53s, 83.41 req/s, 667.68MB/s
requests: 128 total, 128 started, 128 done, 128 succeeded, 0 failed, 0 errored, 0 timeout
status codes: 128 2xx, 0 3xx, 0 4xx, 0 5xx
traffic: 1074337279 bytes total, 4443 bytes headers (space savings 80.28%), 1073741824 bytes data
                     min         max         mean         sd        +/- sd
time for request:    10.98ms     18.65ms     11.97ms       659us    97.66%
time for connect:      298us       298us       298us         0us   100.00%
time to 1st byte:     1.24ms      1.24ms      1.24ms         0us   100.00%
