h2load http://node-0:8080/8mb -p http/1.1 -t 1 -c 4 -m 1 -n 512
starting benchmark...
spawning thread #0: 4 total client(s). 512 total requests
Application protocol: http/1.1
progress: 9% done
progress: 19% done
progress: 29% done
progress: 39% done
progress: 49% done
progress: 59% done
progress: 69% done
progress: 79% done
progress: 89% done
progress: 99% done

finished in 3.52s, 145.32 req/s, 1.14GB/s
requests: 512 total, 512 started, 512 done, 512 succeeded, 0 failed, 0 errored, 0 timeout
status codes: 512 2xx, 0 3xx, 0 4xx, 0 5xx
traffic: 4295058916 bytes total, 85052 bytes headers (space savings 0.00%), 4294967296 bytes data
                     min         max         mean         sd        +/- sd
time for request:     7.07ms     63.10ms     23.26ms     11.52ms    66.60%
time for connect:      215us       286us       241us        26us    75.00%
time to 1st byte:      717us       799us       742us        33us    75.00%
