h2load http://node-0:8080/1mb -p http/1.1 -t 1 -c 1 -m 1 -n 512
starting benchmark...
spawning thread #0: 1 total client(s). 512 total requests
Application protocol: http/1.1
progress: 9% done
progress: 19% done
progress: 29% done
progress: 39% done
progress: 49% done
progress: 59% done
progress: 69% done
progress: 79% done
progress: 89% done
progress: 99% done

finished in 676.33ms, 757.03 req/s, 757.16MB/s
requests: 512 total, 512 started, 512 done, 512 succeeded, 0 failed, 0 errored, 0 timeout
status codes: 512 2xx, 0 3xx, 0 4xx, 0 5xx
traffic: 536967955 bytes total, 85067 bytes headers (space savings 0.00%), 536870912 bytes data
                     min         max         mean         sd        +/- sd
time for request:     1.17ms      3.13ms      1.31ms       176us    90.63%
time for connect:      291us       291us       291us         0us   100.00%
time to 1st byte:      732us       732us       732us         0us   100.00%
