h2load http://node-0:8080/1kb -p http/1.1 -t 1 -c 128 -m 1 -n 512
starting benchmark...
spawning thread #0: 128 total client(s). 512 total requests
Application protocol: http/1.1
progress: 9% done
progress: 19% done
progress: 29% done
progress: 39% done
progress: 49% done
progress: 59% done
progress: 69% done
progress: 79% done
progress: 89% done
progress: 99% done

finished in 212.63ms, 2407.95 req/s, 2.82MB/s
requests: 512 total, 512 started, 512 done, 512 succeeded, 0 failed, 0 errored, 0 timeout
status codes: 512 2xx, 0 3xx, 0 4xx, 0 5xx
traffic: 628224 bytes total, 81920 bytes headers (space savings 0.00%), 524288 bytes data
                     min         max         mean         sd        +/- sd
time for request:      191us    207.15ms     26.16ms     66.86ms    87.70%
time for connect:      885us      1.92ms      1.39ms       257us    64.06%
time to 1st byte:     2.63ms    208.01ms    103.15ms    100.83ms    50.78%
