h2load http://node-0:8080/8mb -p h2c -t 1 -c 16 -m 32 -n 512
starting benchmark...
spawning thread #0: 16 total client(s). 512 total requests
Application protocol: h2c
progress: 9% done
progress: 19% done
progress: 29% done
progress: 39% done
progress: 49% done
progress: 59% done
progress: 69% done
progress: 79% done
progress: 89% done
progress: 99% done

finished in 3.49s, 146.87 req/s, 1.15GB/s
requests: 512 total, 512 started, 512 done, 512 succeeded, 0 failed, 0 errored, 0 timeout
status codes: 512 2xx, 0 3xx, 0 4xx, 0 5xx
traffic: 4297350456 bytes total, 18680 bytes headers (space savings 79.27%), 4294967296 bytes data
                     min         max         mean         sd        +/- sd
time for request:   281.03ms       3.48s       2.74s    748.36ms    84.38%
time for connect:      389us       447us       416us        20us    56.25%
time to 1st byte:     9.66ms     17.93ms     14.30ms      2.45ms    68.75%
