h2load http://node-0:8080/16kb -p h2c -t 1 -c 512 -m 1 -n 512
starting benchmark...
spawning thread #0: 512 total client(s). 512 total requests
Application protocol: h2c
progress: 9% done
progress: 19% done
progress: 29% done
progress: 39% done
progress: 49% done
progress: 59% done
progress: 69% done
progress: 79% done
progress: 89% done
progress: 99% done

finished in 13.11s, 39.06 req/s, 630.78KB/s
requests: 512 total, 512 started, 512 done, 512 succeeded, 0 failed, 0 errored, 0 timeout
status codes: 512 2xx, 0 3xx, 0 4xx, 0 5xx
traffic: 8466944 bytes total, 50688 bytes headers (space savings 42.44%), 8388608 bytes data
                     min         max         mean         sd        +/- sd
time for request:      573us      13.09s    632.74ms       2.00s    93.55%
time for connect:     6.00ms       2.00s    235.72ms    444.56ms    77.73%
time to 1st byte:    13.24ms      13.10s    872.37ms       1.98s    93.16%
