h2load http://node-0:8080/64mb -p h2c -t 1 -c 32 -m 16 -n 512
starting benchmark...
spawning thread #0: 32 total client(s). 512 total requests
Application protocol: h2c
progress: 9% done
progress: 19% done
progress: 29% done
progress: 39% done
progress: 49% done
progress: 59% done
progress: 69% done
progress: 79% done
progress: 89% done
progress: 99% done

finished in 27.80s, 18.42 req/s, 1.15GB/s
requests: 512 total, 512 started, 512 done, 512 succeeded, 0 failed, 0 errored, 0 timeout
status codes: 512 2xx, 0 3xx, 0 4xx, 0 5xx
traffic: 34378638903 bytes total, 20389 bytes headers (space savings 77.63%), 34359738368 bytes data
                     min         max         mean         sd        +/- sd
time for request:      2.47s      27.80s      20.41s       6.70s    60.16%
time for connect:      521us       638us       551us        23us    71.88%
time to 1st byte:     7.92ms     24.81ms     18.06ms      4.87ms    65.63%
