h2load http://node-0:8080/1kb -p h2c -t 1 -c 512 -m 1 -n 512
starting benchmark...
spawning thread #0: 512 total client(s). 512 total requests
Application protocol: h2c
progress: 9% done
progress: 19% done
progress: 29% done
progress: 39% done
progress: 49% done
progress: 59% done
progress: 69% done
progress: 79% done
progress: 89% done
progress: 99% done

finished in 3.29s, 155.79 req/s, 178.91KB/s
requests: 512 total, 512 started, 512 done, 512 succeeded, 0 failed, 0 errored, 0 timeout
status codes: 512 2xx, 0 3xx, 0 4xx, 0 5xx
traffic: 602112 bytes total, 50176 bytes headers (space savings 42.35%), 524288 bytes data
                     min         max         mean         sd        +/- sd
time for request:      599us       3.27s    336.52ms    702.35ms    90.43%
time for connect:     5.64ms       3.00s    225.91ms    425.61ms    78.32%
time to 1st byte:    12.87ms       3.28s    566.49ms    800.08ms    86.33%
