h2load http://node-0:8080/64mb -p h2c -t 1 -c 512 -m 1 -n 512
starting benchmark...
spawning thread #0: 512 total client(s). 512 total requests
Application protocol: h2c
progress: 9% done
progress: 19% done
progress: 29% done
progress: 39% done
progress: 49% done
progress: 59% done
progress: 69% done
progress: 79% done
progress: 89% done
progress: 99% done

finished in 31.55s, 16.23 req/s, 1.01GB/s
requests: 512 total, 512 started, 512 done, 512 succeeded, 0 failed, 0 errored, 0 timeout
status codes: 512 2xx, 0 3xx, 0 4xx, 0 5xx
traffic: 34378688000 bytes total, 52224 bytes headers (space savings 42.70%), 34359738368 bytes data
                     min         max         mean         sd        +/- sd
time for request:   325.15ms      27.81s      18.62s       6.30s    62.89%
time for connect:     6.53ms      31.05s       1.62s       4.94s    90.23%
time to 1st byte:    15.24ms      31.06s       3.43s       6.50s    81.25%
