h2load http://node-0:8080/64mb -p h2c -t 1 -c 64 -m 8 -n 512
starting benchmark...
spawning thread #0: 64 total client(s). 512 total requests
Application protocol: h2c
progress: 9% done
progress: 19% done
progress: 29% done
progress: 39% done
progress: 49% done
progress: 59% done
progress: 69% done
progress: 79% done
progress: 89% done
progress: 99% done

finished in 27.80s, 18.42 req/s, 1.15GB/s
requests: 512 total, 512 started, 512 done, 512 succeeded, 0 failed, 0 errored, 0 timeout
status codes: 512 2xx, 0 3xx, 0 4xx, 0 5xx
traffic: 34378641960 bytes total, 22312 bytes headers (space savings 75.52%), 34359738368 bytes data
                     min         max         mean         sd        +/- sd
time for request:      6.76s      27.80s      17.35s       7.52s    53.52%
time for connect:      783us      1.55ms      1.09ms       281us    60.94%
time to 1st byte:     5.05ms    211.88ms     28.72ms     34.68ms    96.88%
