h2load http://node-0:8080/128kb -p h2c -t 1 -c 256 -m 2 -n 512
starting benchmark...
spawning thread #0: 256 total client(s). 512 total requests
Application protocol: h2c
progress: 9% done
progress: 19% done
progress: 29% done
progress: 39% done
progress: 49% done
progress: 59% done
progress: 69% done
progress: 79% done
progress: 89% done
progress: 99% done

finished in 1.65s, 310.74 req/s, 38.89MB/s
requests: 512 total, 512 started, 512 done, 512 succeeded, 0 failed, 0 errored, 0 timeout
status codes: 512 2xx, 0 3xx, 0 4xx, 0 5xx
traffic: 67192832 bytes total, 33280 bytes headers (space savings 62.64%), 67108864 bytes data
                     min         max         mean         sd        +/- sd
time for request:     4.93ms       1.63s    207.14ms    312.86ms    87.50%
time for connect:     3.23ms      7.53ms      4.81ms      1.42ms    67.19%
time to 1st byte:    10.60ms       1.64s    204.57ms    318.00ms    87.50%
