h2load http://node-0:8080/128kb -p h2c -t 1 -c 128 -m 4 -n 512
starting benchmark...
spawning thread #0: 128 total client(s). 512 total requests
Application protocol: h2c
progress: 9% done
progress: 19% done
progress: 29% done
progress: 39% done
progress: 49% done
progress: 59% done
progress: 69% done
progress: 79% done
progress: 89% done
progress: 99% done

finished in 1.64s, 312.18 req/s, 39.06MB/s
requests: 512 total, 512 started, 512 done, 512 succeeded, 0 failed, 0 errored, 0 timeout
status codes: 512 2xx, 0 3xx, 0 4xx, 0 5xx
traffic: 67179520 bytes total, 24576 bytes headers (space savings 72.41%), 67108864 bytes data
                     min         max         mean         sd        +/- sd
time for request:     4.58ms       1.63s    173.07ms    274.90ms    89.84%
time for connect:     1.58ms      3.73ms      2.60ms       751us    49.22%
time to 1st byte:     5.22ms       1.64s    168.43ms    278.65ms    89.84%
