h2load http://node-0:8080/8mb -p h2c -t 1 -c 64 -m 8 -n 512
starting benchmark...
spawning thread #0: 64 total client(s). 512 total requests
Application protocol: h2c
progress: 9% done
progress: 19% done
progress: 29% done
progress: 39% done
progress: 49% done
progress: 59% done
progress: 69% done
progress: 79% done
progress: 89% done
progress: 99% done

finished in 3.48s, 147.05 req/s, 1.15GB/s
requests: 512 total, 512 started, 512 done, 512 succeeded, 0 failed, 0 errored, 0 timeout
status codes: 512 2xx, 0 3xx, 0 4xx, 0 5xx
traffic: 4297355954 bytes total, 22450 bytes headers (space savings 75.09%), 4294967296 bytes data
                     min         max         mean         sd        +/- sd
time for request:   238.06ms       3.48s       2.29s    866.69ms    53.71%
time for connect:      760us      1.58ms      1.08ms       307us    62.50%
time to 1st byte:     3.86ms    213.57ms     27.22ms     35.38ms    96.88%
