h2load http://node-0:8080/128mb -p h2c -t 1 -c 256 -m 2 -n 512
starting benchmark...
spawning thread #0: 256 total client(s). 512 total requests
Application protocol: h2c
progress: 9% done
progress: 19% done
progress: 29% done
progress: 39% done
progress: 49% done
progress: 59% done
progress: 69% done
progress: 79% done
progress: 89% done
progress: 99% done

finished in 55.60s, 9.21 req/s, 1.15GB/s
requests: 512 total, 512 started, 512 done, 512 succeeded, 0 failed, 0 errored, 0 timeout
status codes: 512 2xx, 0 3xx, 0 4xx, 0 5xx
traffic: 68757274624 bytes total, 35328 bytes headers (space savings 61.45%), 68719476736 bytes data
                     min         max         mean         sd        +/- sd
time for request:     16.29s      55.59s      44.36s      11.31s    77.34%
time for connect:     3.20ms      6.26ms      4.32ms       969us    69.53%
time to 1st byte:     9.18ms       6.68s    732.71ms       1.48s    91.41%
