h2load http://node-0:8080/1mb -p h2c -t 1 -c 512 -m 1 -n 512
starting benchmark...
spawning thread #0: 512 total client(s). 512 total requests
Application protocol: h2c
progress: 9% done
progress: 19% done
progress: 29% done
progress: 39% done
progress: 49% done
progress: 59% done
progress: 69% done
progress: 79% done
progress: 89% done
progress: 99% done

finished in 13.11s, 39.07 req/s, 39.09MB/s
requests: 512 total, 512 started, 512 done, 512 succeeded, 0 failed, 0 errored, 0 timeout
status codes: 512 2xx, 0 3xx, 0 4xx, 0 5xx
traffic: 537241088 bytes total, 52224 bytes headers (space savings 42.05%), 536870912 bytes data
                     min         max         mean         sd        +/- sd
time for request:     3.12ms      13.08s    580.16ms       1.62s    94.53%
time for connect:     6.41ms       2.00s    226.62ms    424.50ms    78.32%
time to 1st byte:    14.74ms      13.09s    707.44ms       1.65s    94.34%
