h2load http://node-0:8080/128mb -p h2c -t 1 -c 16 -m 32 -n 512
starting benchmark...
spawning thread #0: 16 total client(s). 512 total requests
Application protocol: h2c
progress: 9% done
progress: 19% done
progress: 29% done
progress: 39% done
progress: 49% done
progress: 59% done
progress: 69% done
progress: 79% done
progress: 89% done
progress: 99% done

finished in 55.61s, 9.21 req/s, 1.15GB/s
requests: 512 total, 512 started, 512 done, 512 succeeded, 0 failed, 0 errored, 0 timeout
status codes: 512 2xx, 0 3xx, 0 4xx, 0 5xx
traffic: 68757250596 bytes total, 19445 bytes headers (space savings 78.78%), 68719476736 bytes data
                     min         max         mean         sd        +/- sd
time for request:      3.75s      55.61s      44.39s      12.03s    80.66%
time for connect:      358us       429us       386us        24us    56.25%
time to 1st byte:    11.70ms     30.73ms     19.12ms      5.53ms    75.00%
