h2load http://node-0:8080/1kb -p http/1.1 -t 1 -c 2 -m 1 -n 512
starting benchmark...
spawning thread #0: 2 total client(s). 512 total requests
Application protocol: http/1.1
progress: 9% done
progress: 19% done
progress: 29% done
progress: 39% done
progress: 49% done
progress: 59% done
progress: 69% done
progress: 79% done
progress: 89% done
progress: 99% done

finished in 13.06s, 39.20 req/s, 46.60KB/s
requests: 512 total, 512 started, 512 done, 512 succeeded, 0 failed, 0 errored, 0 timeout
status codes: 512 2xx, 0 3xx, 0 4xx, 0 5xx
traffic: 623316 bytes total, 81980 bytes headers (space savings 0.00%), 524288 bytes data
                     min         max         mean         sd        +/- sd
time for request:    50.28ms     50.78ms     50.43ms        37us    75.78%
time for connect:    50.25ms     50.31ms     50.28ms        30us   100.00%
time to 1st byte:   100.68ms    100.73ms    100.70ms        22us    50.00%
