h2load http://node-0:8080/1kb -p http/1.1 -t 1 -c 32 -m 1 -n 512
starting benchmark...
spawning thread #0: 32 total client(s). 512 total requests
Application protocol: http/1.1
progress: 9% done
progress: 19% done
progress: 29% done
progress: 39% done
progress: 49% done
progress: 59% done
progress: 69% done
progress: 79% done
progress: 89% done
progress: 99% done

finished in 1.11s, 461.96 req/s, 553.54KB/s
requests: 512 total, 512 started, 512 done, 512 succeeded, 0 failed, 0 errored, 0 timeout
status codes: 512 2xx, 0 3xx, 0 4xx, 0 5xx
traffic: 628224 bytes total, 81920 bytes headers (space savings 0.00%), 524288 bytes data
                     min         max         mean         sd        +/- sd
time for request:    50.20ms    300.64ms     54.81ms     32.87ms    98.24%
time for connect:    50.16ms     50.31ms     50.21ms        35us    65.63%
time to 1st byte:   100.91ms    350.61ms    171.21ms    112.18ms    71.88%
