h2load http://node-0:8080/128mb -p http/1.1 -t 1 -c 128 -m 1 -n 512
starting benchmark...
spawning thread #0: 128 total client(s). 512 total requests
Application protocol: http/1.1
progress: 9% done
progress: 19% done
progress: 29% done
progress: 39% done
progress: 49% done
progress: 59% done
progress: 69% done
progress: 79% done
progress: 89% done

finished in 79.98s, 6.35 req/s, 813.02MB/s
requests: 512 total, 509 started, 512 done, 508 succeeded, 4 failed, 4 errored, 0 timeout
status codes: 509 2xx, 0 3xx, 0 4xx, 0 5xx
traffic: 68183330932 bytes total, 86021 bytes headers (space savings 0.00%), 68183223024 bytes data
                     min         max         mean         sd        +/- sd
time for request:      2.27s      63.73s      12.90s       5.01s    90.94%
time for connect:    50.17ms     50.59ms     50.34ms       100us    69.53%
time to 1st byte:   101.14ms       5.13s       1.29s       1.45s    81.25%
