h2load http://node-0:8080/64mb -p http/1.1 -t 1 -c 64 -m 1 -n 512
starting benchmark...
spawning thread #0: 64 total client(s). 512 total requests
Application protocol: http/1.1
progress: 9% done
progress: 19% done
progress: 29% done
progress: 39% done
progress: 49% done
progress: 59% done
progress: 69% done
progress: 79% done
progress: 89% done
progress: 99% done

finished in 44.23s, 11.58 req/s, 740.89MB/s
requests: 512 total, 512 started, 512 done, 512 succeeded, 0 failed, 0 errored, 0 timeout
status codes: 512 2xx, 0 3xx, 0 4xx, 0 5xx
traffic: 34359846400 bytes total, 86016 bytes headers (space savings 0.00%), 34359738368 bytes data
                     min         max         mean         sd        +/- sd
time for request:      1.16s      36.06s       3.39s       1.90s    95.51%
time for connect:    50.16ms     50.39ms     50.27ms        51us    60.94%
time to 1st byte:   101.23ms       5.62s    709.23ms       1.12s    90.63%
