h2load http://node-1:8080/128kb -p http/1.1 -t 1 -c 16 -m 1 -n 128 -T 30m
starting benchmark...
spawning thread #0: 16 total client(s). 128 total requests
Application protocol: http/1.1
progress: 9% done
progress: 18% done
progress: 28% done
progress: 37% done
progress: 46% done
progress: 56% done
progress: 65% done
progress: 75% done
progress: 84% done
progress: 93% done

finished in 711.55ms, 179.89 req/s, 22.52MB/s
requests: 128 total, 128 started, 128 done, 128 succeeded, 0 failed, 0 errored, 0 timeout
status codes: 128 2xx, 0 3xx, 0 4xx, 0 5xx
traffic: 16803712 bytes total, 20992 bytes headers (space savings 0.00%), 16777216 bytes data
                     min         max         mean         sd        +/- sd
time for request:    70.57ms    142.10ms     80.11ms     23.56ms    86.72%
time for connect:    35.25ms     35.45ms     35.33ms        52us    62.50%
time to 1st byte:    71.21ms     71.39ms     71.26ms        54us    81.25%
