h2load http://node-1:8080/128mb -p http/1.1 -t 1 -c 1 -m 1 -n 128 -T 30m
starting benchmark...
spawning thread #0: 1 total client(s). 128 total requests
Application protocol: http/1.1
progress: 9% done
progress: 18% done
progress: 28% done
progress: 37% done
progress: 46% done
progress: 56% done
progress: 65% done
progress: 75% done
progress: 84% done
progress: 93% done

finished in 209.23s, 0.61 req/s, 78.31MB/s
requests: 128 total, 128 started, 128 done, 128 succeeded, 0 failed, 0 errored, 0 timeout
status codes: 128 2xx, 0 3xx, 0 4xx, 0 5xx
traffic: 17179888180 bytes total, 21647 bytes headers (space savings 0.00%), 17179869184 bytes data
                     min         max         mean         sd        +/- sd
time for request:      1.60s       4.31s       1.63s    244.26ms    96.88%
time for connect:    35.33ms     35.33ms     35.33ms         0us   100.00%
time to 1st byte:    71.12ms     71.12ms     71.12ms         0us   100.00%
