h2load http://node-1:8080/1kb -p http/1.1 -t 1 -c 1 -m 1 -n 128 -T 30m
starting benchmark...
spawning thread #0: 1 total client(s). 128 total requests
Application protocol: http/1.1
progress: 9% done
progress: 18% done
progress: 28% done
progress: 37% done
progress: 46% done
progress: 56% done
progress: 65% done
progress: 75% done
progress: 84% done
progress: 93% done

finished in 4.62s, 27.69 req/s, 32.91KB/s
requests: 128 total, 128 started, 128 done, 128 succeeded, 0 failed, 0 errored, 0 timeout
status codes: 128 2xx, 0 3xx, 0 4xx, 0 5xx
traffic: 155829 bytes total, 20495 bytes headers (space savings 0.00%), 131072 bytes data
                     min         max         mean         sd        +/- sd
time for request:    35.44ms     36.05ms     35.55ms        56us    87.50%
time for connect:    35.33ms     35.33ms     35.33ms         0us   100.00%
time to 1st byte:    71.38ms     71.38ms     71.38ms         0us   100.00%
