h2load http://node-1:8080/16kb -p http/1.1 -t 1 -c 1 -m 1 -n 128 -T 30m
starting benchmark...
spawning thread #0: 1 total client(s). 128 total requests
Application protocol: http/1.1
progress: 9% done
progress: 18% done
progress: 28% done
progress: 37% done
progress: 46% done
progress: 56% done
progress: 65% done
progress: 75% done
progress: 84% done
progress: 93% done

finished in 5.24s, 24.42 req/s, 395.58KB/s
requests: 128 total, 128 started, 128 done, 128 succeeded, 0 failed, 0 errored, 0 timeout
status codes: 128 2xx, 0 3xx, 0 4xx, 0 5xx
traffic: 2123187 bytes total, 20751 bytes headers (space savings 0.00%), 2097152 bytes data
                     min         max         mean         sd        +/- sd
time for request:    35.45ms    305.54ms     40.38ms     25.36ms    91.41%
time for connect:    35.23ms     35.23ms     35.23ms         0us   100.00%
time to 1st byte:    70.80ms     70.80ms     70.80ms         0us   100.00%
