h2load http://node-1:8080/1mb -p h2c -t 1 -c 1 -m 32 -n 128 -T 30m
starting benchmark...
spawning thread #0: 1 total client(s). 128 total requests
Application protocol: h2c
progress: 9% done
progress: 18% done
progress: 28% done
progress: 37% done
progress: 46% done
progress: 56% done
progress: 65% done
progress: 75% done
progress: 84% done
progress: 93% done

finished in 3.15s, 40.65 req/s, 40.67MB/s
requests: 128 total, 128 started, 128 done, 128 succeeded, 0 failed, 0 errored, 0 timeout
status codes: 128 2xx, 0 3xx, 0 4xx, 0 5xx
traffic: 134296877 bytes total, 4233 bytes headers (space savings 81.21%), 134217728 bytes data
                     min         max         mean         sd        +/- sd
time for request:   356.95ms       1.18s    747.07ms    273.12ms    63.28%
time for connect:    35.39ms     35.39ms     35.39ms         0us   100.00%
time to 1st byte:    91.46ms     91.46ms     91.46ms         0us   100.00%
