h2load http://node-1:8080/128mb -p h2c -t 1 -c 1 -m 2 -n 128 -T 30m
starting benchmark...
spawning thread #0: 1 total client(s). 128 total requests
Application protocol: h2c
progress: 9% done
progress: 18% done
progress: 28% done
progress: 37% done
progress: 46% done
progress: 56% done
progress: 65% done
progress: 75% done
progress: 84% done
progress: 93% done

finished in 201.35s, 0.64 req/s, 81.42MB/s
requests: 128 total, 128 started, 128 done, 128 succeeded, 0 failed, 0 errored, 0 timeout
status codes: 128 2xx, 0 3xx, 0 4xx, 0 5xx
traffic: 17189315069 bytes total, 7513 bytes headers (space savings 67.21%), 17179869184 bytes data
                     min         max         mean         sd        +/- sd
time for request:      1.60s       3.52s       3.13s    144.49ms    97.66%
time for connect:    35.39ms     35.39ms     35.39ms         0us   100.00%
time to 1st byte:    71.78ms     71.78ms     71.78ms         0us   100.00%
