h2load http://node-1:8080/1mb -p h2c -t 1 -c 1 -m 64 -n 128 -T 30m
starting benchmark...
spawning thread #0: 1 total client(s). 128 total requests
Application protocol: h2c
progress: 9% done
progress: 18% done
progress: 28% done
progress: 37% done
progress: 46% done
progress: 56% done
progress: 65% done
progress: 75% done
progress: 84% done
progress: 93% done

finished in 3.02s, 42.39 req/s, 42.41MB/s
requests: 128 total, 128 started, 128 done, 128 succeeded, 0 failed, 0 errored, 0 timeout
status codes: 128 2xx, 0 3xx, 0 4xx, 0 5xx
traffic: 134296854 bytes total, 4210 bytes headers (space savings 81.31%), 134217728 bytes data
                     min         max         mean         sd        +/- sd
time for request:    72.08ms       1.87s       1.36s    553.48ms    79.69%
time for connect:    35.34ms     35.34ms     35.34ms         0us   100.00%
time to 1st byte:    89.30ms     89.30ms     89.30ms         0us   100.00%
