h2load http://node-0:8080/1kb -p h2c -t 1 -c 1 -m 16 -n 512
starting benchmark...
spawning thread #0: 1 total client(s). 512 total requests
Application protocol: h2c
progress: 9% done
progress: 19% done
progress: 29% done
progress: 39% done
progress: 49% done
progress: 59% done
progress: 69% done
progress: 79% done
progress: 89% done
progress: 99% done

finished in 49.58ms, 10326.12 req/s, 10.55MB/s
requests: 512 total, 512 started, 512 done, 512 succeeded, 0 failed, 0 errored, 0 timeout
status codes: 512 2xx, 0 3xx, 0 4xx, 0 5xx
traffic: 548480 bytes total, 14940 bytes headers (space savings 82.84%), 524288 bytes data
                     min         max         mean         sd        +/- sd
time for request:     1.27ms      2.79ms      1.45ms       258us    93.75%
time for connect:      282us       282us       282us         0us   100.00%
time to 1st byte:     3.12ms      3.12ms      3.12ms         0us   100.00%
