h2load http://node-0:8080/128mb -p h2c -t 1 -c 1 -m 32 -n 512
starting benchmark...
spawning thread #0: 1 total client(s). 512 total requests
Application protocol: h2c
progress: 9% done
progress: 19% done
progress: 29% done
progress: 39% done
progress: 49% done
progress: 59% done
progress: 69% done
progress: 79% done
progress: 89% done
progress: 99% done

finished in 176.67s, 2.90 req/s, 371.16MB/s
requests: 512 total, 512 started, 512 done, 512 succeeded, 0 failed, 0 errored, 0 timeout
status codes: 512 2xx, 0 3xx, 0 4xx, 0 5xx
traffic: 68757249602 bytes total, 18793 bytes headers (space savings 79.49%), 68719476736 bytes data
                     min         max         mean         sd        +/- sd
time for request:      2.66s      14.66s      10.98s       1.39s    86.91%
time for connect:      309us       309us       309us         0us   100.00%
time to 1st byte:    10.35ms     10.35ms     10.35ms         0us   100.00%
