h2load http://node-0:8080/64mb -p h2c -t 1 -c 1 -m 8 -n 512
starting benchmark...
spawning thread #0: 1 total client(s). 512 total requests
Application protocol: h2c
progress: 9% done
progress: 19% done
progress: 29% done
progress: 39% done
progress: 49% done
progress: 59% done
progress: 69% done
progress: 79% done
progress: 89% done
progress: 99% done

finished in 31.92s, 16.04 req/s, 1.00GB/s
requests: 512 total, 512 started, 512 done, 512 succeeded, 0 failed, 0 errored, 0 timeout
status codes: 512 2xx, 0 3xx, 0 4xx, 0 5xx
traffic: 34378635592 bytes total, 18212 bytes headers (space savings 80.02%), 34359738368 bytes data
                     min         max         mean         sd        +/- sd
time for request:   123.92ms       2.70s    495.60ms    368.63ms    88.87%
time for connect:      259us       259us       259us         0us   100.00%
time to 1st byte:     2.03ms      2.03ms      2.03ms         0us   100.00%
