h2load http://node-0:8080/128kb -p h2c -t 1 -c 1 -m 512 -n 512
starting benchmark...
spawning thread #0: 1 total client(s). 512 total requests
Application protocol: h2c
progress: 9% done
progress: 19% done
progress: 29% done
progress: 39% done
progress: 49% done
progress: 59% done
progress: 69% done
progress: 79% done
progress: 89% done
progress: 99% done

finished in 236.66ms, 2163.49 req/s, 270.67MB/s
requests: 512 total, 512 started, 512 done, 512 succeeded, 0 failed, 0 errored, 0 timeout
status codes: 512 2xx, 0 3xx, 0 4xx, 0 5xx
traffic: 67166312 bytes total, 15940 bytes headers (space savings 82.11%), 67108864 bytes data
                     min         max         mean         sd        +/- sd
time for request:   228.29ms    234.32ms    231.29ms      1.74ms    55.86%
time for connect:      256us       256us       256us         0us   100.00%
time to 1st byte:   180.26ms    180.26ms    180.26ms         0us   100.00%
