h2load http://node-0:8080/64mb -p h2c -t 1 -c 1 -m 256 -n 512
starting benchmark...
spawning thread #0: 1 total client(s). 512 total requests
Application protocol: h2c
progress: 9% done
progress: 19% done
progress: 29% done
progress: 39% done
progress: 49% done
progress: 59% done
progress: 69% done
progress: 79% done
progress: 89% done
progress: 99% done

finished in 93.73s, 5.46 req/s, 349.81MB/s
requests: 512 total, 512 started, 512 done, 512 succeeded, 0 failed, 0 errored, 0 timeout
status codes: 512 2xx, 0 3xx, 0 4xx, 0 5xx
traffic: 34378635332 bytes total, 17637 bytes headers (space savings 80.65%), 34359738368 bytes data
                     min         max         mean         sd        +/- sd
time for request:     11.90s      48.54s      37.96s      12.94s    74.22%
time for connect:      322us       322us       322us         0us   100.00%
time to 1st byte:    24.62ms     24.62ms     24.62ms         0us   100.00%
