h2load http://node-0:8080/64mb -p h2c -t 1 -c 1 -m 32 -n 512
starting benchmark...
spawning thread #0: 1 total client(s). 512 total requests
Application protocol: h2c
progress: 9% done
progress: 19% done
progress: 29% done
progress: 39% done
progress: 49% done
progress: 59% done
progress: 69% done
progress: 79% done
progress: 89% done
progress: 99% done

finished in 94.53s, 5.42 req/s, 346.85MB/s
requests: 512 total, 512 started, 512 done, 512 succeeded, 0 failed, 0 errored, 0 timeout
status codes: 512 2xx, 0 3xx, 0 4xx, 0 5xx
traffic: 34378636121 bytes total, 18327 bytes headers (space savings 79.89%), 34359738368 bytes data
                     min         max         mean         sd        +/- sd
time for request:   379.72ms       9.69s       5.88s    739.87ms    95.51%
time for connect:      326us       326us       326us         0us   100.00%
time to 1st byte:     8.55ms      8.55ms      8.55ms         0us   100.00%
