h2load http://node-0:8080/128mb -p h2c -t 1 -c 1 -m 64 -n 512
starting benchmark...
spawning thread #0: 1 total client(s). 512 total requests
Application protocol: h2c
progress: 9% done
progress: 19% done
progress: 29% done
progress: 39% done
progress: 49% done
progress: 59% done
progress: 69% done
progress: 79% done
progress: 89% done
progress: 99% done

finished in 184.07s, 2.78 req/s, 356.24MB/s
requests: 512 total, 512 started, 512 done, 512 succeeded, 0 failed, 0 errored, 0 timeout
status codes: 512 2xx, 0 3xx, 0 4xx, 0 5xx
traffic: 68757249442 bytes total, 18471 bytes headers (space savings 79.85%), 68719476736 bytes data
                     min         max         mean         sd        +/- sd
time for request:     14.47s      26.40s      22.99s    988.50ms    76.17%
time for connect:      311us       311us       311us         0us   100.00%
time to 1st byte:    18.70ms     18.70ms     18.70ms         0us   100.00%
