h2load http://node-0:8080/64mb -p h2c -t 1 -c 1 -m 2 -n 512
starting benchmark...
spawning thread #0: 1 total client(s). 512 total requests
Application protocol: h2c
progress: 9% done
progress: 19% done
progress: 29% done
progress: 39% done
progress: 49% done
progress: 59% done
progress: 69% done
progress: 79% done
progress: 89% done
progress: 99% done

finished in 31.23s, 16.40 req/s, 1.03GB/s
requests: 512 total, 512 started, 512 done, 512 succeeded, 0 failed, 0 errored, 0 timeout
status codes: 512 2xx, 0 3xx, 0 4xx, 0 5xx
traffic: 34378635569 bytes total, 18189 bytes headers (space savings 80.04%), 34359738368 bytes data
                     min         max         mean         sd        +/- sd
time for request:    54.80ms    207.91ms    121.82ms     22.62ms    83.01%
time for connect:      350us       350us       350us         0us   100.00%
time to 1st byte:     1.06ms      1.06ms      1.06ms         0us   100.00%
