h2load http://node-0:8080/64mb -p h2c -t 1 -c 1 -m 8 -n 512
starting benchmark...
spawning thread #0: 1 total client(s). 512 total requests
Application protocol: h2c
progress: 9% done
progress: 19% done
progress: 29% done
progress: 39% done
progress: 49% done
progress: 59% done
progress: 69% done
progress: 79% done
progress: 89% done
progress: 99% done

finished in 31.78s, 16.11 req/s, 1.01GB/s
requests: 512 total, 512 started, 512 done, 512 succeeded, 0 failed, 0 errored, 0 timeout
status codes: 512 2xx, 0 3xx, 0 4xx, 0 5xx
traffic: 34378635569 bytes total, 18189 bytes headers (space savings 80.04%), 34359738368 bytes data
                     min         max         mean         sd        +/- sd
time for request:   127.84ms       3.45s    493.79ms    363.00ms    87.11%
time for connect:      322us       322us       322us         0us   100.00%
time to 1st byte:     2.68ms      2.68ms      2.68ms         0us   100.00%
