h2load http://node-0:8080/16kb -p h2c -t 1 -c 1 -m 256 -n 512
starting benchmark...
spawning thread #0: 1 total client(s). 512 total requests
Application protocol: h2c
progress: 9% done
progress: 19% done
progress: 29% done
progress: 39% done
progress: 49% done
progress: 59% done
progress: 69% done
progress: 79% done
progress: 89% done
progress: 99% done

finished in 59.35ms, 8627.37 req/s, 135.21MB/s
requests: 512 total, 512 started, 512 done, 512 succeeded, 0 failed, 0 errored, 0 timeout
status codes: 512 2xx, 0 3xx, 0 4xx, 0 5xx
traffic: 8413800 bytes total, 15940 bytes headers (space savings 81.90%), 8388608 bytes data
                     min         max         mean         sd        +/- sd
time for request:    20.33ms     34.65ms     26.99ms      5.65ms    48.63%
time for connect:      234us       234us       234us         0us   100.00%
time to 1st byte:    30.10ms     30.10ms     30.10ms         0us   100.00%
