h2load http://node-0:8080/64mb -p h2c -t 1 -c 1 -m 2 -n 512
starting benchmark...
spawning thread #0: 1 total client(s). 512 total requests
Application protocol: h2c
progress: 9% done
progress: 19% done
progress: 29% done
progress: 39% done
progress: 49% done
progress: 59% done
progress: 69% done
progress: 79% done
progress: 89% done
progress: 99% done

finished in 32.32s, 15.84 req/s, 1014.52MB/s
requests: 512 total, 512 started, 512 done, 512 succeeded, 0 failed, 0 errored, 0 timeout
status codes: 512 2xx, 0 3xx, 0 4xx, 0 5xx
traffic: 34378635615 bytes total, 18235 bytes headers (space savings 79.99%), 34359738368 bytes data
                     min         max         mean         sd        +/- sd
time for request:    57.32ms    216.70ms    126.09ms     25.99ms    83.20%
time for connect:      351us       351us       351us         0us   100.00%
time to 1st byte:     1.33ms      1.33ms      1.33ms         0us   100.00%
