h2load http://node-0:8080/1kb -p h2c -t 1 -c 1 -m 1 -n 512
starting benchmark...
spawning thread #0: 1 total client(s). 512 total requests
Application protocol: h2c
progress: 9% done
progress: 19% done
progress: 29% done
progress: 39% done
progress: 49% done
progress: 59% done
progress: 69% done
progress: 79% done
progress: 89% done
progress: 99% done

finished in 164.56ms, 3111.38 req/s, 3.18MB/s
requests: 512 total, 512 started, 512 done, 512 succeeded, 0 failed, 0 errored, 0 timeout
status codes: 512 2xx, 0 3xx, 0 4xx, 0 5xx
traffic: 548457 bytes total, 14917 bytes headers (space savings 82.86%), 524288 bytes data
                     min         max         mean         sd        +/- sd
time for request:      216us      1.05ms       310us        42us    90.43%
time for connect:      287us       287us       287us         0us   100.00%
time to 1st byte:     1.40ms      1.40ms      1.40ms         0us   100.00%
