h2load http://node-0:8080/8mb -p h2c -t 1 -c 1 -m 16 -n 512
starting benchmark...
spawning thread #0: 1 total client(s). 512 total requests
Application protocol: h2c
progress: 9% done
progress: 19% done
progress: 29% done
progress: 39% done
progress: 49% done
progress: 59% done
progress: 69% done
progress: 79% done
progress: 89% done
progress: 99% done

finished in 6.74s, 75.99 req/s, 608.26MB/s
requests: 512 total, 512 started, 512 done, 512 succeeded, 0 failed, 0 errored, 0 timeout
status codes: 512 2xx, 0 3xx, 0 4xx, 0 5xx
traffic: 4297348850 bytes total, 17614 bytes headers (space savings 80.45%), 4294967296 bytes data
                     min         max         mean         sd        +/- sd
time for request:    40.17ms    854.36ms    208.54ms    190.80ms    79.88%
time for connect:      283us       283us       283us         0us   100.00%
time to 1st byte:     4.04ms      4.04ms      4.04ms         0us   100.00%
