h2load http://node-0:8080/128mb -p h2c -t 1 -c 1 -m 32 -n 512
starting benchmark...
spawning thread #0: 1 total client(s). 512 total requests
Application protocol: h2c
progress: 9% done
progress: 19% done
progress: 29% done
progress: 39% done
progress: 49% done
progress: 59% done
progress: 69% done
progress: 79% done
progress: 89% done
progress: 99% done

finished in 179.95s, 2.85 req/s, 364.40MB/s
requests: 512 total, 512 started, 512 done, 512 succeeded, 0 failed, 0 errored, 0 timeout
status codes: 512 2xx, 0 3xx, 0 4xx, 0 5xx
traffic: 68757250231 bytes total, 19161 bytes headers (space savings 79.09%), 68719476736 bytes data
                     min         max         mean         sd        +/- sd
time for request:   335.42ms      16.74s      11.21s       1.88s    82.42%
time for connect:      278us       278us       278us         0us   100.00%
time to 1st byte:    11.12ms     11.12ms     11.12ms         0us   100.00%
