h2load http://node-1:8080/8mb -p h2c -t 1 -c 1 -m 2 -n 128 -T 30m
starting benchmark...
spawning thread #0: 1 total client(s). 128 total requests
Application protocol: h2c
progress: 9% done
progress: 18% done
progress: 28% done
progress: 37% done
progress: 46% done
progress: 56% done
progress: 65% done
progress: 75% done
progress: 84% done
progress: 93% done

finished in 1.72s, 74.50 req/s, 596.32MB/s
requests: 128 total, 128 started, 128 done, 128 succeeded, 0 failed, 0 errored, 0 timeout
status codes: 128 2xx, 0 3xx, 0 4xx, 0 5xx
traffic: 1074337302 bytes total, 4466 bytes headers (space savings 80.18%), 1073741824 bytes data
                     min         max         mean         sd        +/- sd
time for request:    11.69ms     44.14ms     26.72ms      4.94ms    82.81%
time for connect:      388us       388us       388us         0us   100.00%
time to 1st byte:     1.24ms      1.24ms      1.24ms         0us   100.00%
