h2load http://node-1:8080/8mb -p h2c -t 1 -c 1 -m 64 -n 128 -T 30m
starting benchmark...
spawning thread #0: 1 total client(s). 128 total requests
Application protocol: h2c
progress: 9% done
progress: 18% done
progress: 28% done
progress: 37% done
progress: 46% done
progress: 56% done
progress: 65% done
progress: 75% done
progress: 84% done
progress: 93% done

finished in 4.12s, 31.11 req/s, 248.98MB/s
requests: 128 total, 128 started, 128 done, 128 succeeded, 0 failed, 0 errored, 0 timeout
status codes: 128 2xx, 0 3xx, 0 4xx, 0 5xx
traffic: 1074337279 bytes total, 4443 bytes headers (space savings 80.28%), 1073741824 bytes data
                     min         max         mean         sd        +/- sd
time for request:   638.25ms       2.09s       1.84s    518.39ms    84.38%
time for connect:      330us       330us       330us         0us   100.00%
time to 1st byte:    30.86ms     30.86ms     30.86ms         0us   100.00%
