h2load http://node-1:8080/128mb -p h2c -t 1 -c 1 -m 64 -n 128 -T 30m
starting benchmark...
spawning thread #0: 1 total client(s). 128 total requests
Application protocol: h2c
progress: 9% done
progress: 18% done
progress: 28% done
progress: 37% done
progress: 46% done
progress: 56% done
progress: 65% done
progress: 75% done
progress: 84% done
progress: 93% done

finished in 66.83s, 1.92 req/s, 245.28MB/s
requests: 128 total, 128 started, 128 done, 128 succeeded, 0 failed, 0 errored, 0 timeout
status codes: 128 2xx, 0 3xx, 0 4xx, 0 5xx
traffic: 17189312294 bytes total, 4594 bytes headers (space savings 79.95%), 17179869184 bytes data
                     min         max         mean         sd        +/- sd
time for request:     32.78s      33.60s      33.21s    384.24ms    53.13%
time for connect:      357us       357us       357us         0us   100.00%
time to 1st byte:    25.88ms     25.88ms     25.88ms         0us   100.00%
