h2load http://node-1:8080/128mb -p h2c -t 1 -c 1 -m 16 -n 128 -T 30m
starting benchmark...
spawning thread #0: 1 total client(s). 128 total requests
Application protocol: h2c
progress: 9% done
progress: 18% done
progress: 28% done
progress: 37% done
progress: 46% done
progress: 56% done
progress: 65% done
progress: 75% done
progress: 84% done
progress: 93% done

finished in 38.24s, 3.35 req/s, 428.70MB/s
requests: 128 total, 128 started, 128 done, 128 succeeded, 0 failed, 0 errored, 0 timeout
status codes: 128 2xx, 0 3xx, 0 4xx, 0 5xx
traffic: 17189312761 bytes total, 5169 bytes headers (space savings 77.44%), 17179869184 bytes data
                     min         max         mean         sd        +/- sd
time for request:   418.71ms      11.46s       4.65s       2.73s    62.50%
time for connect:      300us       300us       300us         0us   100.00%
time to 1st byte:     6.25ms      6.25ms      6.25ms         0us   100.00%
